%!PS-Adobe-3.0 EPSF-3.0
%%DocumentNeededResources: font Helvetica
%%+ font Helvetica-Bold
%%+ font Helvetica-Oblique
%%+ font Helvetica-BoldOblique
%%+ font Symbol
%%Title: R Graphics Output
%%Creator: R Software
%%Pages: (atend)
%%BoundingBox: 0 0 730 528
%%EndComments
%%BeginProlog
/bp  { gs sRGB gs } def
% begin .ps.prolog
/gs  { gsave } bind def
/gr  { grestore } bind def
/ep  { showpage gr gr } bind def
/m   { moveto } bind def
/l  { rlineto } bind def
/np  { newpath } bind def
/cp  { closepath } bind def
/f   { fill } bind def
/o   { stroke } bind def
/c   { newpath 0 360 arc } bind def
/r   { 4 2 roll moveto 1 copy 3 -1 roll exch 0 exch rlineto 0 rlineto -1 mul 0 exch rlineto closepath } bind def
/p1  { stroke } bind def
/p2  { gsave bg fill grestore newpath } bind def
/p3  { gsave bg fill grestore stroke } bind def
/p6  { gsave bg eofill grestore newpath } bind def
/p7  { gsave bg eofill grestore stroke } bind def
/t   { 5 -2 roll moveto gsave rotate
       1 index stringwidth pop
       mul neg 0 rmoveto show grestore } bind def
/ta  { 4 -2 roll moveto gsave rotate show } bind def
/tb  { 2 -1 roll 0 rmoveto show } bind def
/cl  { grestore gsave newpath 3 index 3 index moveto 1 index
       4 -1 roll lineto  exch 1 index lineto lineto
       closepath clip newpath } bind def
/rgb { setrgbcolor } bind def
/s   { scalefont setfont } bind def
% end   .ps.prolog
/sRGB { [ /CIEBasedABC
          << /DecodeLMN
               [ { dup 0.03928 le
                        {12.92321 div}
                        {0.055 add 1.055 div 2.4 exp }
                     ifelse
                 } bind dup dup
               ]
             /MatrixLMN [0.412457 0.212673 0.019334
                         0.357576 0.715152 0.119192
                         0.180437 0.072175 0.950301]
             /WhitePoint [0.9505 1.0 1.0890]
           >>
         ] setcolorspace } bind def
/srgb { setcolor } bind def
% begin encoding
/WinAnsiEncoding [
 /.notdef /.notdef /.notdef /.notdef /.notdef /.notdef /.notdef /.notdef
 /.notdef /.notdef /.notdef /.notdef /.notdef /.notdef /.notdef /.notdef
 /.notdef /.notdef /.notdef /.notdef /.notdef /.notdef /.notdef /.notdef
 /.notdef /.notdef /.notdef /.notdef /.notdef /.notdef /.notdef /.notdef
 /space /exclam /quotedbl /numbersign /dollar /percent /ampersand /quoteright
 /parenleft /parenright /asterisk /plus /comma /minus /period /slash
 /zero /one /two /three /four /five /six /seven
 /eight /nine /colon /semicolon /less /equal /greater /question
 /at /A /B /C /D /E /F /G
 /H /I /J /K /L /M /N /O
 /P /Q /R /S /T /U /V /W
 /X /Y /Z /bracketleft /backslash /bracketright /asciicircum /underscore
 /grave /a /b /c /d /e /f /g
 /h /i /j /k /l /m /n /o
 /p /q /r /s /t /u /v /w
 /x /y /z /braceleft /bar /braceright /asciitilde /.notdef
 /Euro /.notdef /quotesinglbase /florin /quotedblbase /ellipsis /dagger /daggerdbl
 /circumflex /perthousand /Scaron /guilsinglleft /OE /.notdef /Zcaron /.notdef
 /.notdef /quoteleft /quoteright /quotedblleft /quotedblright /bullet /endash /emdash
 /tilde /trademark /scaron /guilsinglright /oe /.notdef /zcaron /Ydieresis
 /space /exclamdown /cent /sterling /currency /yen /brokenbar /section
 /dieresis /copyright /ordfeminine /guillemotleft /logicalnot /hyphen /registered /macron
 /degree /plusminus /twosuperior /threesuperior /acute /mu /paragraph /periodcentered
 /cedilla /onesuperior /ordmasculine /guillemotright /onequarter /onehalf /threequarters /questiondown
 /Agrave /Aacute /Acircumflex /Atilde /Adieresis /Aring /AE /Ccedilla
 /Egrave /Eacute /Ecircumflex /Edieresis /Igrave /Iacute /Icircumflex /Idieresis
 /Eth /Ntilde /Ograve /Oacute /Ocircumflex /Otilde /Odieresis /multiply
 /Oslash /Ugrave /Uacute /Ucircumflex /Udieresis /Yacute /Thorn /germandbls
 /agrave /aacute /acircumflex /atilde /adieresis /aring /ae /ccedilla
 /egrave /eacute /ecircumflex /edieresis /igrave /iacute /icircumflex /idieresis
 /eth /ntilde /ograve /oacute /ocircumflex /otilde /odieresis /divide
 /oslash /ugrave /uacute /ucircumflex /udieresis /yacute /thorn /ydieresis
]
 def
% end encoding
%%IncludeResource: font Helvetica
/Helvetica findfont
dup length dict begin
  {1 index /FID ne {def} {pop pop} ifelse} forall
  /Encoding WinAnsiEncoding def
  currentdict
  end
/Font1 exch definefont pop
%%IncludeResource: font Helvetica-Bold
/Helvetica-Bold findfont
dup length dict begin
  {1 index /FID ne {def} {pop pop} ifelse} forall
  /Encoding WinAnsiEncoding def
  currentdict
  end
/Font2 exch definefont pop
%%IncludeResource: font Helvetica-Oblique
/Helvetica-Oblique findfont
dup length dict begin
  {1 index /FID ne {def} {pop pop} ifelse} forall
  /Encoding WinAnsiEncoding def
  currentdict
  end
/Font3 exch definefont pop
%%IncludeResource: font Helvetica-BoldOblique
/Helvetica-BoldOblique findfont
dup length dict begin
  {1 index /FID ne {def} {pop pop} ifelse} forall
  /Encoding WinAnsiEncoding def
  currentdict
  end
/Font4 exch definefont pop
%%IncludeResource: font Symbol
/Symbol findfont
dup length dict begin
  {1 index /FID ne {def} {pop pop} ifelse} forall
  currentdict
  end
/Font5 exch definefont pop
%%EndProlog
%%Page: 1 1
bp
0.00 0.00 730.50 528.00 cl
0.00 0.00 730.50 528.00 cl
0.00 0.00 730.50 528.00 cl
0.00 0.00 730.50 528.00 cl
0.00 0.00 730.50 528.00 cl
0.00 0.00 730.50 528.00 cl
/bg { 1 1 1 srgb } def
1 1 1 srgb
1.07 setlinewidth
[] 0 setdash
1 setlinecap
1 setlinejoin
10.00 setmiterlimit
0.00 0.00 730.50 528.00 r p3
0.00 0.00 730.50 528.00 cl
41.79 363.18 725.02 504.06 cl
/bg { 0.9216 0.9216 0.9216 srgb } def
41.79 363.18 683.23 140.88 r p2
1 1 1 srgb
0.53 setlinewidth
[] 0 setdash
0 setlinecap
1 setlinejoin
10.00 setmiterlimit
np
41.79 375.03 m
683.23 0 l
o
np
41.79 417.41 m
683.23 0 l
o
np
41.79 459.79 m
683.23 0 l
o
np
41.79 502.18 m
683.23 0 l
o
np
176.36 363.18 m
0 140.88 l
o
np
383.40 363.18 m
0 140.88 l
o
np
590.44 363.18 m
0 140.88 l
o
1.07 setlinewidth
[] 0 setdash
np
41.79 396.22 m
683.23 0 l
o
np
41.79 438.60 m
683.23 0 l
o
np
41.79 480.98 m
683.23 0 l
o
np
72.84 363.18 m
0 140.88 l
o
np
279.88 363.18 m
0 140.88 l
o
np
486.92 363.18 m
0 140.88 l
o
np
693.96 363.18 m
0 140.88 l
o
0 0 0 srgb
np
72.84 384.71 m
4.19 -5.66 l
4.18 13.45 l
4.22 -7.52 l
4.18 5.66 l
4.23 -5.53 l
3.60 14.84 l
4.18 -14.95 l
4.23 16.80 l
4.18 -11.10 l
4.22 5.52 l
4.14 -17.40 l
4.14 9.99 l
4.14 3.74 l
4.15 -9.11 l
4.14 25.73 l
4.14 -20.35 l
4.14 5.55 l
4.14 -3.73 l
4.14 1.89 l
4.14 -3.59 l
4.14 -19.36 l
4.14 19.32 l
4.14 3.66 l
4.14 -1.80 l
4.14 -9.92 l
4.14 -1.42 l
4.15 9.49 l
4.14 -3.77 l
4.14 2.03 l
4.14 1.78 l
4.14 -13.39 l
4.14 14.94 l
4.14 -7.53 l
4.14 4.04 l
4.14 14.92 l
4.14 -20.70 l
4.14 -0.14 l
4.14 15.11 l
4.14 -14.60 l
4.15 1.72 l
4.05 18.78 l
4.10 -11.61 l
4.06 0.01 l
4.10 7.57 l
4.68 -18.93 l
4.06 0.34 l
4.10 14.89 l
4.05 -3.79 l
4.10 7.52 l
4.10 -1.88 l
4.14 -9.53 l
4.15 2.05 l
4.14 -1.62 l
4.14 -0.12 l
4.14 1.93 l
4.14 -7.69 l
4.14 3.92 l
4.14 -5.77 l
4.14 16.81 l
4.14 -12.97 l
4.06 11.14 l
4.10 3.68 l
4.06 11.56 l
4.10 -15.24 l
4.68 23.83 l
4.05 27.94 l
4.10 0.35 l
4.06 13.51 l
4.10 13.39 l
4.10 -2.60 l
4.02 1.78 l
4.01 13.94 l
4.60 11.15 l
4.02 -15.43 l
4.05 -16.66 l
4.02 -7.56 l
4.02 3.35 l
4.59 -38.14 l
4.02 -9.39 l
4.06 4.17 l
4.06 -12.78 l
4.09 -5.37 l
4.06 0.18 l
4.10 -12.93 l
4.68 5.38 l
4.06 0.01 l
4.10 -3.88 l
4.06 0.13 l
4.10 -9.60 l
4.10 -3.72 l
4.01 3.48 l
4.02 9.90 l
4.59 3.68 l
4.02 1.89 l
4.06 5.72 l
4.02 -11.29 l
4.01 -0.10 l
4.60 7.63 l
4.02 3.66 l
486.92 382.84 lineto
4.02 15.26 l
4.02 -24.81 l
4.59 9.89 l
4.02 3.49 l
4.06 -9.80 l
4.01 15.60 l
4.02 -11.69 l
4.60 2.15 l
4.01 -3.80 l
4.06 9.61 l
4.02 9.40 l
4.01 -9.38 l
4.60 -0.06 l
4.02 19.13 l
4.05 -26.49 l
4.02 5.59 l
4.02 -3.78 l
4.59 9.33 l
4.02 1.89 l
4.06 3.77 l
4.02 -7.50 l
4.01 5.65 l
4.60 5.59 l
4.01 -9.41 l
4.06 5.70 l
4.02 -7.53 l
4.02 11.25 l
4.59 -17.30 l
4.02 6.07 l
4.06 3.71 l
3.93 -9.08 l
4.56 9.08 l
3.97 -9.19 l
3.98 -5.55 l
4.51 26.05 l
3.97 -18.73 l
3.98 0.15 l
3.97 10.94 l
4.56 -10.96 l
3.97 9.12 l
3.94 -9.26 l
4.55 9.32 l
3.98 -12.83 l
3.97 1.71 l
4.52 9.23 l
3.97 -14.51 l
3.98 7.06 l
3.97 7.45 l
4.56 5.62 l
3.97 -11.17 l
o
0.00 0.00 730.50 528.00 cl
41.79 198.36 725.02 339.24 cl
/bg { 0.9216 0.9216 0.9216 srgb } def
41.79 198.36 683.23 140.88 r p2
1 1 1 srgb
0.53 setlinewidth
[] 0 setdash
0 setlinecap
1 setlinejoin
10.00 setmiterlimit
np
41.79 220.14 m
683.23 0 l
o
np
41.79 250.16 m
683.23 0 l
o
np
41.79 280.18 m
683.23 0 l
o
np
41.79 310.20 m
683.23 0 l
o
np
176.36 198.36 m
0 140.88 l
o
np
383.40 198.36 m
0 140.88 l
o
np
590.44 198.36 m
0 140.88 l
o
1.07 setlinewidth
[] 0 setdash
np
41.79 205.13 m
683.23 0 l
o
np
41.79 235.15 m
683.23 0 l
o
np
41.79 265.17 m
683.23 0 l
o
np
41.79 295.19 m
683.23 0 l
o
np
41.79 325.22 m
683.23 0 l
o
np
72.84 198.36 m
0 140.88 l
o
np
279.88 198.36 m
0 140.88 l
o
np
486.92 198.36 m
0 140.88 l
o
np
693.96 198.36 m
0 140.88 l
o
0 0 0 srgb
np
72.84 205.29 m
4.19 -0.06 l
4.18 0 l
4.22 0.27 l
4.18 -0.21 l
4.23 0.05 l
3.60 -0.21 l
4.18 -0.37 l
4.23 0.26 l
4.18 0.63 l
4.22 -0.36 l
4.14 0 l
4.14 -0.16 l
4.14 0.10 l
4.15 -0.10 l
4.14 -0.11 l
4.14 0.06 l
4.14 -0.11 l
4.14 0.16 l
4.14 -0.05 l
4.14 -0.16 l
4.14 0.32 l
4.14 0 l
4.14 0.30 l
4.14 -0.36 l
4.14 0.05 l
4.14 0.16 l
4.15 0.05 l
4.14 0.06 l
4.14 -0.37 l
4.14 0 l
4.14 0 l
4.14 -0.06 l
4.14 0.32 l
4.14 -0.42 l
4.14 0.27 l
4.14 0.21 l
4.14 -0.37 l
4.14 0.15 l
4.14 0.06 l
4.15 -0.43 l
4.05 0.54 l
4.10 -0.37 l
4.06 -0.06 l
4.10 0.06 l
4.68 0.41 l
4.06 -0.15 l
4.10 0.30 l
4.05 -0.09 l
4.10 -0.53 l
4.10 0.47 l
4.14 -0.20 l
4.15 -0.37 l
4.14 0.68 l
4.14 -0.32 l
4.14 0.57 l
4.14 -0.41 l
4.14 0.15 l
4.14 -0.09 l
4.14 0.50 l
4.14 1.87 l
4.06 2.60 l
4.10 4.36 l
4.06 8.46 l
4.10 11.58 l
4.68 16.20 l
4.05 24.21 l
4.10 8.91 l
4.06 16.49 l
4.10 13.27 l
4.10 7.86 l
4.02 2.50 l
4.01 3.78 l
4.60 4.80 l
4.02 -5.19 l
4.05 -2.17 l
4.02 -13.69 l
4.02 -20.36 l
4.59 -27.36 l
4.02 -22.74 l
4.06 -14.95 l
4.06 -9.54 l
4.09 -5.74 l
4.06 -2.75 l
4.10 -1.79 l
4.68 -0.39 l
4.06 0.02 l
4.10 -0.47 l
4.06 0.21 l
4.10 0.14 l
4.10 0.48 l
4.01 -0.60 l
4.02 -0.28 l
4.59 0.17 l
4.02 -0.55 l
4.06 0.43 l
4.02 0.15 l
4.01 -0.06 l
4.60 -0.35 l
4.02 0.45 l
486.92 205.98 lineto
4.02 -0.06 l
4.02 -0.14 l
4.59 -0.07 l
4.02 0.35 l
4.06 -0.22 l
4.01 0.27 l
4.02 -0.46 l
4.60 0.06 l
4.01 0.36 l
4.06 -0.19 l
4.02 -0.06 l
4.01 0.45 l
4.60 -0.93 l
4.02 0.53 l
4.05 0.48 l
4.02 -0.15 l
4.02 -0.44 l
4.59 0.46 l
4.02 -0.30 l
4.06 0.35 l
4.02 -0.10 l
4.01 -0.52 l
4.60 0.31 l
4.01 0.13 l
4.06 -0.33 l
4.02 0.17 l
4.02 0.28 l
4.59 -0.23 l
4.02 -0.07 l
4.06 -0.57 l
3.93 0.20 l
4.56 0.17 l
3.97 0.04 l
3.98 0.18 l
4.51 0.03 l
3.97 -0.11 l
3.98 0.01 l
3.97 -0.31 l
4.56 0.20 l
3.97 0.42 l
3.94 -0.22 l
4.55 -0.47 l
3.98 0.63 l
3.97 -0.45 l
4.52 -0.37 l
3.97 0.61 l
3.98 -0.15 l
3.97 0.26 l
4.56 -0.83 l
3.97 0.52 l
o
0.00 0.00 730.50 528.00 cl
41.79 33.54 725.02 174.42 cl
/bg { 0.9216 0.9216 0.9216 srgb } def
41.79 33.54 683.23 140.88 r p2
1 1 1 srgb
0.53 setlinewidth
[] 0 setdash
0 setlinecap
1 setlinejoin
10.00 setmiterlimit
np
41.79 61.17 m
683.23 0 l
o
np
41.79 103.78 m
683.23 0 l
o
np
41.79 146.38 m
683.23 0 l
o
np
176.36 33.54 m
0 140.88 l
o
np
383.40 33.54 m
0 140.88 l
o
np
590.44 33.54 m
0 140.88 l
o
1.07 setlinewidth
[] 0 setdash
np
41.79 39.87 m
683.23 0 l
o
np
41.79 82.48 m
683.23 0 l
o
np
41.79 125.08 m
683.23 0 l
o
np
41.79 167.69 m
683.23 0 l
o
np
72.84 33.54 m
0 140.88 l
o
np
279.88 33.54 m
0 140.88 l
o
np
486.92 33.54 m
0 140.88 l
o
np
693.96 33.54 m
0 140.88 l
o
0 0 0 srgb
np
72.84 40.19 m
4.19 0.08 l
4.18 0.14 l
4.22 -0.14 l
4.18 -0.06 l
4.23 -0.05 l
3.60 -0.15 l
4.18 -0.03 l
4.23 0.10 l
4.18 -0.01 l
4.22 0.23 l
4.14 -0.23 l
4.14 0.03 l
4.14 -0.07 l
4.15 0.20 l
4.14 -0.10 l
4.14 0.05 l
4.14 -0.17 l
4.14 0.04 l
4.14 0 l
4.14 0.08 l
4.14 0.03 l
4.14 -0.01 l
4.14 0.05 l
4.14 -0.02 l
4.14 -0.11 l
4.14 -0.13 l
4.15 0.18 l
4.14 -0.15 l
4.14 0.15 l
4.14 -0.05 l
4.14 0.03 l
4.14 -0.08 l
4.14 0.14 l
4.14 -0.13 l
4.14 0.16 l
4.14 -0.11 l
4.14 0.03 l
4.14 -0.03 l
4.14 0.03 l
4.15 -0.03 l
4.05 -0.07 l
4.10 0.24 l
4.06 -0.20 l
4.10 0.04 l
4.68 0.06 l
4.06 -0.07 l
4.10 0.10 l
4.05 -0.06 l
4.10 -0.04 l
4.10 0.02 l
4.14 -0.02 l
4.15 0.07 l
4.14 0.19 l
4.14 -0.01 l
4.14 -0.08 l
4.14 0.19 l
4.14 -0.06 l
4.14 0.06 l
4.14 0.72 l
4.14 1.51 l
4.06 2.86 l
4.10 4.46 l
4.06 7.09 l
4.10 10.70 l
4.68 19.38 l
4.05 17.69 l
4.10 19.84 l
4.06 15.19 l
4.10 10.39 l
4.10 4.46 l
4.02 3.91 l
4.01 4.79 l
4.60 4.59 l
4.02 -0.62 l
4.05 -5.96 l
4.02 -12.95 l
4.02 -22.55 l
4.59 -28.56 l
4.02 -19.81 l
4.06 -15.14 l
4.06 -10.17 l
4.09 -6.63 l
4.06 -2.38 l
4.10 -1.70 l
4.68 -0.34 l
4.06 -0.28 l
4.10 0.04 l
4.06 -0.12 l
4.10 -0.12 l
4.10 0.12 l
4.01 0.01 l
4.02 -0.10 l
4.59 0.04 l
4.02 0.05 l
4.06 0.05 l
4.02 -0.16 l
4.01 0.10 l
4.60 0.05 l
4.02 0.01 l
486.92 40.93 lineto
4.02 -0.03 l
4.02 -0.18 l
4.59 0.04 l
4.02 -0.16 l
4.06 0.10 l
4.01 0.38 l
4.02 -0.49 l
4.60 0.57 l
4.01 -0.38 l
4.06 0.21 l
4.02 -0.06 l
4.01 -0.26 l
4.60 0.39 l
4.02 0 l
4.05 -0.40 l
4.02 0.05 l
4.02 0.29 l
4.59 -0.16 l
4.02 0.09 l
4.06 -0.16 l
4.02 0.13 l
4.01 -0.17 l
4.60 0.11 l
4.01 -0.05 l
4.06 0.07 l
4.02 0.07 l
4.02 -0.39 l
4.59 0.25 l
4.02 0.03 l
4.06 -0.04 l
3.93 -0.01 l
4.56 -0.09 l
3.97 0 l
3.98 0.05 l
4.51 0.02 l
3.97 0 l
3.98 -0.22 l
3.97 0.14 l
4.56 0.07 l
3.97 -0.19 l
3.94 0.26 l
4.55 -0.11 l
3.98 0 l
3.97 -0.06 l
4.52 0.06 l
3.97 -0.07 l
3.98 -0.19 l
3.97 0.25 l
4.56 -0.29 l
3.97 0.23 l
o
0.00 0.00 730.50 528.00 cl
41.79 174.42 725.02 192.88 cl
41.79 174.42 725.02 192.88 cl
/bg { 0.8510 0.8510 0.8510 srgb } def
41.79 174.42 683.23 18.46 r p2
/Font1 findfont 9 s
0.1020 0.1020 0.1020 srgb
383.40 180.42 (800V) .5 0 t
41.79 174.42 725.02 192.88 cl
41.79 174.42 725.02 192.88 cl
0.00 0.00 730.50 528.00 cl
41.79 339.24 725.02 357.70 cl
41.79 339.24 725.02 357.70 cl
/bg { 0.8510 0.8510 0.8510 srgb } def
41.79 339.24 683.23 18.46 r p2
/Font1 findfont 9 s
0.1020 0.1020 0.1020 srgb
383.40 345.24 (600V) .5 0 t
41.79 339.24 725.02 357.70 cl
41.79 339.24 725.02 357.70 cl
0.00 0.00 730.50 528.00 cl
41.79 504.06 725.02 522.52 cl
41.79 504.06 725.02 522.52 cl
/bg { 0.8510 0.8510 0.8510 srgb } def
41.79 504.06 683.23 18.46 r p2
/Font1 findfont 9 s
0.1020 0.1020 0.1020 srgb
383.40 510.06 (400V) .5 0 t
41.79 504.06 725.02 522.52 cl
41.79 504.06 725.02 522.52 cl
0.00 0.00 730.50 528.00 cl
0.00 0.00 730.50 528.00 cl
0.00 0.00 730.50 528.00 cl
0.00 0.00 730.50 528.00 cl
0.00 0.00 730.50 528.00 cl
0.00 0.00 730.50 528.00 cl
0.00 0.00 730.50 528.00 cl
0.00 0.00 730.50 528.00 cl
0.00 0.00 730.50 528.00 cl
0.00 0.00 730.50 528.00 cl
0.00 0.00 730.50 528.00 cl
0.00 0.00 730.50 528.00 cl
0.2000 0.2000 0.2000 srgb
1.07 setlinewidth
[] 0 setdash
0 setlinecap
1 setlinejoin
10.00 setmiterlimit
np
72.84 30.80 m
0 2.74 l
o
np
279.88 30.80 m
0 2.74 l
o
np
486.92 30.80 m
0 2.74 l
o
np
693.96 30.80 m
0 2.74 l
o
0.00 0.00 730.50 528.00 cl
0.00 0.00 730.50 528.00 cl
/Font1 findfont 9 s
0.3020 0.3020 0.3020 srgb
72.84 22.14 (650) .5 0 t
279.88 22.14 (700) .5 0 t
486.92 22.14 (750) .5 0 t
693.96 22.14 (800) .5 0 t
0.00 0.00 730.50 528.00 cl
0.00 0.00 730.50 528.00 cl
0.00 0.00 730.50 528.00 cl
0.00 0.00 730.50 528.00 cl
0.00 0.00 730.50 528.00 cl
0.00 0.00 730.50 528.00 cl
0.00 0.00 730.50 528.00 cl
0.00 0.00 730.50 528.00 cl
0.00 0.00 730.50 528.00 cl
0.00 0.00 730.50 528.00 cl
0.00 0.00 730.50 528.00 cl
0.00 0.00 730.50 528.00 cl
/Font1 findfont 9 s
0.3020 0.3020 0.3020 srgb
36.86 392.99 (0.0) 1 0 t
36.86 435.37 (0.2) 1 0 t
36.86 477.75 (0.4) 1 0 t
0.00 0.00 730.50 528.00 cl
0.00 0.00 730.50 528.00 cl
0.2000 0.2000 0.2000 srgb
1.07 setlinewidth
[] 0 setdash
0 setlinecap
1 setlinejoin
10.00 setmiterlimit
np
39.05 396.22 m
2.74 0 l
o
np
39.05 438.60 m
2.74 0 l
o
np
39.05 480.98 m
2.74 0 l
o
0.00 0.00 730.50 528.00 cl
0.00 0.00 730.50 528.00 cl
0.00 0.00 730.50 528.00 cl
0.00 0.00 730.50 528.00 cl
0.00 0.00 730.50 528.00 cl
0.00 0.00 730.50 528.00 cl
0.00 0.00 730.50 528.00 cl
0.00 0.00 730.50 528.00 cl
/Font1 findfont 9 s
0.3020 0.3020 0.3020 srgb
36.86 201.90 (0) 1 0 t
36.86 231.92 (5) 1 0 t
36.86 261.94 (10) 1 0 t
36.86 291.96 (15) 1 0 t
36.86 321.98 (20) 1 0 t
0.00 0.00 730.50 528.00 cl
0.00 0.00 730.50 528.00 cl
0.2000 0.2000 0.2000 srgb
1.07 setlinewidth
[] 0 setdash
0 setlinecap
1 setlinejoin
10.00 setmiterlimit
np
39.05 205.13 m
2.74 0 l
o
np
39.05 235.15 m
2.74 0 l
o
np
39.05 265.17 m
2.74 0 l
o
np
39.05 295.19 m
2.74 0 l
o
np
39.05 325.22 m
2.74 0 l
o
0.00 0.00 730.50 528.00 cl
0.00 0.00 730.50 528.00 cl
0.00 0.00 730.50 528.00 cl
0.00 0.00 730.50 528.00 cl
0.00 0.00 730.50 528.00 cl
0.00 0.00 730.50 528.00 cl
0.00 0.00 730.50 528.00 cl
0.00 0.00 730.50 528.00 cl
/Font1 findfont 9 s
0.3020 0.3020 0.3020 srgb
36.86 36.64 (0) 1 0 t
36.86 79.25 (100) 1 0 t
36.86 121.85 (200) 1 0 t
36.86 164.46 (300) 1 0 t
0.00 0.00 730.50 528.00 cl
0.00 0.00 730.50 528.00 cl
0.2000 0.2000 0.2000 srgb
1.07 setlinewidth
[] 0 setdash
0 setlinecap
1 setlinejoin
10.00 setmiterlimit
np
39.05 39.87 m
2.74 0 l
o
np
39.05 82.48 m
2.74 0 l
o
np
39.05 125.08 m
2.74 0 l
o
np
39.05 167.69 m
2.74 0 l
o
0.00 0.00 730.50 528.00 cl
0.00 0.00 730.50 528.00 cl
0.00 0.00 730.50 528.00 cl
0.00 0.00 730.50 528.00 cl
0.00 0.00 730.50 528.00 cl
0.00 0.00 730.50 528.00 cl
0.00 0.00 730.50 528.00 cl
0.00 0.00 730.50 528.00 cl
0.00 0.00 730.50 528.00 cl
0.00 0.00 730.50 528.00 cl
0.00 0.00 730.50 528.00 cl
0.00 0.00 730.50 528.00 cl
/Font1 findfont 11 s
0 0 0 srgb
342.75 7.73 (w) 0 ta
-0.165 (a) tb
-0.220 (v) tb
-0.275 (elength \(nm\)) tb gr
0.00 0.00 730.50 528.00 cl
0.00 0.00 730.50 528.00 cl
/Font1 findfont 11 s
0 0 0 srgb
13.38 268.80 (Signal Intensity) .5 90 t
0.00 0.00 730.50 528.00 cl
0.00 0.00 730.50 528.00 cl
0.00 0.00 730.50 528.00 cl
0.00 0.00 730.50 528.00 cl
0.00 0.00 730.50 528.00 cl
0.00 0.00 730.50 528.00 cl
0.00 0.00 730.50 528.00 cl
0.00 0.00 730.50 528.00 cl
0.00 0.00 730.50 528.00 cl
0.00 0.00 730.50 528.00 cl
ep
%%Trailer
%%Pages: 1
%%EOF
