%!PS-Adobe-3.0 EPSF-3.0
%%DocumentNeededResources: font Helvetica
%%+ font Helvetica-Bold
%%+ font Helvetica-Oblique
%%+ font Helvetica-BoldOblique
%%+ font Symbol
%%Title: R Graphics Output
%%Creator: R Software
%%Pages: (atend)
%%BoundingBox: 0 0 605 414
%%EndComments
%%BeginProlog
/bp  { gs sRGB gs } def
% begin .ps.prolog
/gs  { gsave } bind def
/gr  { grestore } bind def
/ep  { showpage gr gr } bind def
/m   { moveto } bind def
/l  { rlineto } bind def
/np  { newpath } bind def
/cp  { closepath } bind def
/f   { fill } bind def
/o   { stroke } bind def
/c   { newpath 0 360 arc } bind def
/r   { 4 2 roll moveto 1 copy 3 -1 roll exch 0 exch rlineto 0 rlineto -1 mul 0 exch rlineto closepath } bind def
/p1  { stroke } bind def
/p2  { gsave bg fill grestore newpath } bind def
/p3  { gsave bg fill grestore stroke } bind def
/p6  { gsave bg eofill grestore newpath } bind def
/p7  { gsave bg eofill grestore stroke } bind def
/t   { 5 -2 roll moveto gsave rotate
       1 index stringwidth pop
       mul neg 0 rmoveto show grestore } bind def
/ta  { 4 -2 roll moveto gsave rotate show } bind def
/tb  { 2 -1 roll 0 rmoveto show } bind def
/cl  { grestore gsave newpath 3 index 3 index moveto 1 index
       4 -1 roll lineto  exch 1 index lineto lineto
       closepath clip newpath } bind def
/rgb { setrgbcolor } bind def
/s   { scalefont setfont } bind def
% end   .ps.prolog
/sRGB { [ /CIEBasedABC
          << /DecodeLMN
               [ { dup 0.03928 le
                        {12.92321 div}
                        {0.055 add 1.055 div 2.4 exp }
                     ifelse
                 } bind dup dup
               ]
             /MatrixLMN [0.412457 0.212673 0.019334
                         0.357576 0.715152 0.119192
                         0.180437 0.072175 0.950301]
             /WhitePoint [0.9505 1.0 1.0890]
           >>
         ] setcolorspace } bind def
/srgb { setcolor } bind def
% begin encoding
/WinAnsiEncoding [
 /.notdef /.notdef /.notdef /.notdef /.notdef /.notdef /.notdef /.notdef
 /.notdef /.notdef /.notdef /.notdef /.notdef /.notdef /.notdef /.notdef
 /.notdef /.notdef /.notdef /.notdef /.notdef /.notdef /.notdef /.notdef
 /.notdef /.notdef /.notdef /.notdef /.notdef /.notdef /.notdef /.notdef
 /space /exclam /quotedbl /numbersign /dollar /percent /ampersand /quoteright
 /parenleft /parenright /asterisk /plus /comma /minus /period /slash
 /zero /one /two /three /four /five /six /seven
 /eight /nine /colon /semicolon /less /equal /greater /question
 /at /A /B /C /D /E /F /G
 /H /I /J /K /L /M /N /O
 /P /Q /R /S /T /U /V /W
 /X /Y /Z /bracketleft /backslash /bracketright /asciicircum /underscore
 /grave /a /b /c /d /e /f /g
 /h /i /j /k /l /m /n /o
 /p /q /r /s /t /u /v /w
 /x /y /z /braceleft /bar /braceright /asciitilde /.notdef
 /Euro /.notdef /quotesinglbase /florin /quotedblbase /ellipsis /dagger /daggerdbl
 /circumflex /perthousand /Scaron /guilsinglleft /OE /.notdef /Zcaron /.notdef
 /.notdef /quoteleft /quoteright /quotedblleft /quotedblright /bullet /endash /emdash
 /tilde /trademark /scaron /guilsinglright /oe /.notdef /zcaron /Ydieresis
 /space /exclamdown /cent /sterling /currency /yen /brokenbar /section
 /dieresis /copyright /ordfeminine /guillemotleft /logicalnot /hyphen /registered /macron
 /degree /plusminus /twosuperior /threesuperior /acute /mu /paragraph /periodcentered
 /cedilla /onesuperior /ordmasculine /guillemotright /onequarter /onehalf /threequarters /questiondown
 /Agrave /Aacute /Acircumflex /Atilde /Adieresis /Aring /AE /Ccedilla
 /Egrave /Eacute /Ecircumflex /Edieresis /Igrave /Iacute /Icircumflex /Idieresis
 /Eth /Ntilde /Ograve /Oacute /Ocircumflex /Otilde /Odieresis /multiply
 /Oslash /Ugrave /Uacute /Ucircumflex /Udieresis /Yacute /Thorn /germandbls
 /agrave /aacute /acircumflex /atilde /adieresis /aring /ae /ccedilla
 /egrave /eacute /ecircumflex /edieresis /igrave /iacute /icircumflex /idieresis
 /eth /ntilde /ograve /oacute /ocircumflex /otilde /odieresis /divide
 /oslash /ugrave /uacute /ucircumflex /udieresis /yacute /thorn /ydieresis
]
 def
% end encoding
%%IncludeResource: font Helvetica
/Helvetica findfont
dup length dict begin
  {1 index /FID ne {def} {pop pop} ifelse} forall
  /Encoding WinAnsiEncoding def
  currentdict
  end
/Font1 exch definefont pop
%%IncludeResource: font Helvetica-Bold
/Helvetica-Bold findfont
dup length dict begin
  {1 index /FID ne {def} {pop pop} ifelse} forall
  /Encoding WinAnsiEncoding def
  currentdict
  end
/Font2 exch definefont pop
%%IncludeResource: font Helvetica-Oblique
/Helvetica-Oblique findfont
dup length dict begin
  {1 index /FID ne {def} {pop pop} ifelse} forall
  /Encoding WinAnsiEncoding def
  currentdict
  end
/Font3 exch definefont pop
%%IncludeResource: font Helvetica-BoldOblique
/Helvetica-BoldOblique findfont
dup length dict begin
  {1 index /FID ne {def} {pop pop} ifelse} forall
  /Encoding WinAnsiEncoding def
  currentdict
  end
/Font4 exch definefont pop
%%IncludeResource: font Symbol
/Symbol findfont
dup length dict begin
  {1 index /FID ne {def} {pop pop} ifelse} forall
  currentdict
  end
/Font5 exch definefont pop
%%EndProlog
%%Page: 1 1
bp
0.00 0.00 605.25 414.00 cl
0.00 0.00 605.25 414.00 cl
0.00 0.00 605.25 414.00 cl
0.00 0.00 605.25 414.00 cl
0.00 0.00 605.25 414.00 cl
0.00 0.00 605.25 414.00 cl
/bg { 1 1 1 srgb } def
1 1 1 srgb
1.07 setlinewidth
[] 0 setdash
1 setlinecap
1 setlinejoin
10.00 setmiterlimit
0.00 0.00 605.25 414.00 r p3
0.00 0.00 605.25 414.00 cl
41.79 223.77 307.70 390.06 cl
/bg { 0.9216 0.9216 0.9216 srgb } def
41.79 223.77 265.91 166.29 r p2
1 1 1 srgb
0.53 setlinewidth
[] 0 setdash
0 setlinecap
1 setlinejoin
10.00 setmiterlimit
np
41.79 236.40 m
265.91 0 l
o
np
41.79 292.98 m
265.91 0 l
o
np
41.79 349.56 m
265.91 0 l
o
np
94.16 223.77 m
0 166.29 l
o
np
174.74 223.77 m
0 166.29 l
o
np
255.32 223.77 m
0 166.29 l
o
1.07 setlinewidth
[] 0 setdash
np
41.79 264.69 m
265.91 0 l
o
np
41.79 321.27 m
265.91 0 l
o
np
41.79 377.85 m
265.91 0 l
o
np
53.88 223.77 m
0 166.29 l
o
np
134.45 223.77 m
0 166.29 l
o
np
215.03 223.77 m
0 166.29 l
o
np
295.61 223.77 m
0 166.29 l
o
0 0 0 srgb
np
53.88 314.42 m
1.62 27.02 l
1.63 -53.37 l
1.64 26.50 l
1.63 -26.91 l
1.65 26.85 l
1.40 -60.09 l
1.63 34.16 l
1.64 32.69 l
1.63 -33.36 l
1.64 26.84 l
1.61 -32.69 l
1.61 45.77 l
1.62 -38.81 l
1.61 -26.16 l
1.61 51.70 l
1.61 0.03 l
1.61 -40.46 l
1.61 20.84 l
1.62 12.81 l
1.61 13.49 l
1.61 -41.47 l
1.61 28.37 l
1.61 -14.10 l
1.61 7.59 l
1.61 13.04 l
1.62 -12.76 l
1.61 12.76 l
1.61 -0.04 l
1.61 -33.52 l
1.61 46.84 l
1.61 -20.39 l
1.62 20.52 l
1.61 -53.28 l
1.61 13.07 l
1.61 12.98 l
1.61 13.71 l
1.61 -6.99 l
1.62 -60.81 l
1.61 27.28 l
1.61 13.77 l
1.58 -56.51 l
1.59 49.07 l
1.58 -19.97 l
1.60 54.17 l
1.82 -13.73 l
1.58 0.34 l
1.59 47.32 l
1.58 13.63 l
1.60 -34.40 l
1.59 -40.05 l
1.62 6.52 l
1.61 0.09 l
1.61 -19.49 l
1.61 32.97 l
1.61 -26.23 l
1.61 -1.49 l
1.62 7.25 l
1.61 -5.95 l
1.61 -6.48 l
1.61 19.23 l
1.58 6.45 l
1.59 -13.70 l
1.58 34.39 l
1.60 0 l
1.82 13.11 l
1.58 -13.11 l
1.60 20.32 l
1.57 -88.67 l
1.60 61.51 l
1.60 13.45 l
1.56 0.02 l
1.56 48.29 l
1.79 -35.06 l
1.56 -26.52 l
1.58 -13.67 l
1.57 13.70 l
1.56 -20.65 l
1.79 6.44 l
1.56 -13.02 l
1.58 1.59 l
1.58 32.27 l
1.60 -19.97 l
1.58 -7.32 l
1.59 34.09 l
1.82 6.49 l
1.58 -33.35 l
1.60 -39.08 l
1.58 59.14 l
1.59 0 l
1.60 -6.91 l
1.56 -51.81 l
1.56 11.70 l
1.79 20.52 l
1.57 -12.36 l
1.58 45.51 l
1.56 -33.38 l
1.56 20.02 l
1.79 34.23 l
1.56 -41.00 l
215.03 281.15 lineto
1.57 6.07 l
1.56 -19.43 l
1.79 -14.02 l
1.56 53.94 l
1.58 -27.23 l
1.56 6.63 l
1.57 7.56 l
1.79 6.09 l
1.56 13.76 l
1.58 6.75 l
1.56 -40.93 l
1.57 -5.68 l
1.78 6.27 l
1.57 13.01 l
1.58 -0.36 l
1.56 34.47 l
1.56 -6.78 l
1.79 -20.21 l
1.57 -21.26 l
1.57 34.66 l
1.57 -48.02 l
1.56 35.03 l
1.79 -0.74 l
1.56 0.25 l
1.58 47.00 l
1.57 -81.69 l
1.56 20.90 l
1.79 20.57 l
1.56 -13.16 l
1.58 -0.72 l
1.53 34.16 l
1.77 -20.16 l
1.55 20.16 l
1.55 -54.91 l
1.76 14.04 l
1.54 47.58 l
1.55 -26.83 l
1.55 -0.10 l
1.77 -13.35 l
1.55 88.03 l
1.53 -47.67 l
1.77 -20.28 l
1.55 6.72 l
1.54 34.02 l
1.76 -34.02 l
1.55 13.65 l
1.55 -13.65 l
1.54 0 l
1.78 13.61 l
1.54 -13.61 l
o
0.00 0.00 605.25 414.00 cl
41.79 33.54 307.70 199.83 cl
/bg { 0.9216 0.9216 0.9216 srgb } def
41.79 33.54 265.91 166.29 r p2
1 1 1 srgb
0.53 setlinewidth
[] 0 setdash
0 setlinecap
1 setlinejoin
10.00 setmiterlimit
np
41.79 59.26 m
265.91 0 l
o
np
41.79 94.36 m
265.91 0 l
o
np
41.79 129.46 m
265.91 0 l
o
np
41.79 164.55 m
265.91 0 l
o
np
41.79 199.65 m
265.91 0 l
o
np
94.16 33.54 m
0 166.29 l
o
np
174.74 33.54 m
0 166.29 l
o
np
255.32 33.54 m
0 166.29 l
o
1.07 setlinewidth
[] 0 setdash
np
41.79 41.71 m
265.91 0 l
o
np
41.79 76.81 m
265.91 0 l
o
np
41.79 111.91 m
265.91 0 l
o
np
41.79 147.00 m
265.91 0 l
o
np
41.79 182.10 m
265.91 0 l
o
np
53.88 33.54 m
0 166.29 l
o
np
134.45 33.54 m
0 166.29 l
o
np
215.03 33.54 m
0 166.29 l
o
np
295.61 33.54 m
0 166.29 l
o
0 0 0 srgb
np
53.88 41.53 m
1.62 0.12 l
1.63 -0.06 l
1.64 0.49 l
1.63 -0.43 l
1.65 -0.12 l
1.40 0.06 l
1.63 0 l
1.64 0.31 l
1.63 0.24 l
1.64 -0.13 l
1.61 -0.36 l
1.61 -0.55 l
1.62 0.87 l
1.61 -0.56 l
1.61 0.18 l
1.61 -0.06 l
1.61 0.25 l
1.61 0.18 l
1.62 -0.18 l
1.61 -0.55 l
1.61 0.54 l
1.61 0.19 l
1.61 0.06 l
1.61 -0.25 l
1.61 -0.24 l
1.62 0.06 l
1.61 0.37 l
1.61 -0.19 l
1.61 0.25 l
1.61 -0.67 l
1.61 0.55 l
1.62 -0.19 l
1.61 0.30 l
1.61 -0.60 l
1.61 -0.30 l
1.61 0.91 l
1.61 0.12 l
1.62 -0.49 l
1.61 -0.06 l
1.61 0.31 l
1.58 0.06 l
1.59 -0.25 l
1.58 0.36 l
1.60 -0.91 l
1.82 0.68 l
1.58 -0.13 l
1.59 0 l
1.58 0 l
1.60 0.13 l
1.59 0 l
1.62 -0.25 l
1.61 0.12 l
1.61 0.25 l
1.61 0.12 l
1.61 0.38 l
1.61 -0.38 l
1.62 -0.43 l
1.61 0.76 l
1.61 0.35 l
1.61 2.16 l
1.58 2.67 l
1.59 6.82 l
1.58 5.43 l
1.60 17.21 l
1.82 18.99 l
1.58 24.87 l
1.60 18.83 l
1.57 18.25 l
1.60 15.32 l
1.60 3.01 l
1.56 5.82 l
1.56 6.46 l
1.79 3.67 l
1.56 -3.02 l
1.58 -7.39 l
1.57 -19.60 l
1.56 -19.73 l
1.79 -34.50 l
1.56 -25.60 l
1.58 -16.79 l
1.58 -10.93 l
1.60 -6.41 l
1.58 -3.51 l
1.59 -1.34 l
1.82 0.02 l
1.58 -0.27 l
1.60 -0.22 l
1.58 -0.40 l
1.59 0.14 l
1.60 -0.09 l
1.56 -0.05 l
1.56 -0.20 l
1.79 -0.03 l
1.57 0.04 l
1.58 0.51 l
1.56 0.31 l
1.56 -0.63 l
1.79 -0.13 l
1.56 -0.11 l
215.03 42.48 lineto
1.57 -0.22 l
1.56 0.22 l
1.79 -0.02 l
1.56 0.26 l
1.58 0.04 l
1.56 -0.30 l
1.57 0.31 l
1.79 -0.43 l
1.56 0.83 l
1.58 -0.62 l
1.56 -0.45 l
1.57 0.61 l
1.78 -0.14 l
1.57 -0.12 l
1.58 0.18 l
1.56 0.08 l
1.56 -0.26 l
1.79 -0.14 l
1.57 -0.12 l
1.57 0.97 l
1.57 -0.49 l
1.56 -0.04 l
1.79 -0.25 l
1.56 0.32 l
1.58 0.14 l
1.57 -0.33 l
1.56 -0.31 l
1.79 0.61 l
1.56 -0.50 l
1.58 0.31 l
1.53 0.02 l
1.77 0.35 l
1.55 0.24 l
1.55 -0.29 l
1.76 -0.38 l
1.54 -0.17 l
1.55 0.26 l
1.55 0.32 l
1.77 -0.31 l
1.55 0.02 l
1.53 -0.25 l
1.77 -0.10 l
1.55 -0.07 l
1.54 0.29 l
1.76 0.18 l
1.55 -0.17 l
1.55 0.18 l
1.54 -0.53 l
1.78 -0.25 l
1.54 0.37 l
o
0.00 0.00 605.25 414.00 cl
333.86 223.77 599.77 390.06 cl
/bg { 0.9216 0.9216 0.9216 srgb } def
333.86 223.77 265.91 166.29 r p2
1 1 1 srgb
0.53 setlinewidth
[] 0 setdash
0 setlinecap
1 setlinejoin
10.00 setmiterlimit
np
333.86 269.67 m
265.91 0 l
o
np
333.86 316.98 m
265.91 0 l
o
np
333.86 364.30 m
265.91 0 l
o
np
386.24 223.77 m
0 166.29 l
o
np
466.82 223.77 m
0 166.29 l
o
np
547.39 223.77 m
0 166.29 l
o
1.07 setlinewidth
[] 0 setdash
np
333.86 246.02 m
265.91 0 l
o
np
333.86 293.33 m
265.91 0 l
o
np
333.86 340.64 m
265.91 0 l
o
np
333.86 387.95 m
265.91 0 l
o
np
345.95 223.77 m
0 166.29 l
o
np
426.53 223.77 m
0 166.29 l
o
np
507.10 223.77 m
0 166.29 l
o
np
587.68 223.77 m
0 166.29 l
o
0 0 0 srgb
np
345.95 238.19 m
1.62 3.83 l
1.63 -0.94 l
1.65 5.91 l
1.62 2.93 l
1.65 -6.89 l
1.40 -2.04 l
1.63 4.04 l
1.64 -5.95 l
1.63 0.21 l
1.64 8.75 l
1.61 -9.00 l
1.62 1.10 l
1.61 -0.98 l
1.61 3.84 l
1.61 -2.99 l
1.61 1.13 l
1.61 -4.88 l
1.62 8.76 l
1.61 -1.99 l
1.61 0.13 l
1.61 -4.93 l
1.61 1.04 l
1.61 13.55 l
1.61 -14.78 l
1.62 2.16 l
1.61 -2.01 l
1.61 2.98 l
1.61 1.92 l
1.61 -7.82 l
1.61 8.77 l
1.62 -0.98 l
1.61 -2.00 l
1.61 0.04 l
1.61 -1.03 l
1.61 -1.86 l
1.61 7.81 l
1.62 0 l
1.61 -0.97 l
1.61 3.83 l
1.61 -8.66 l
1.58 3.78 l
1.59 -6.74 l
1.58 5.80 l
1.60 1.98 l
1.82 -5.81 l
1.58 4.87 l
1.60 8.69 l
1.57 -9.66 l
1.60 -9.58 l
1.60 7.66 l
1.61 -0.89 l
1.61 1.82 l
1.61 0.98 l
1.61 5.83 l
1.61 -6.88 l
1.62 -1.83 l
1.61 1.99 l
1.61 -10.90 l
1.61 9.75 l
1.61 1.91 l
1.58 -0.99 l
1.60 5.03 l
1.58 1.94 l
1.59 -2.95 l
1.82 0 l
1.58 0.95 l
1.60 7.95 l
1.58 34.57 l
1.59 23.41 l
1.60 28.54 l
1.56 15.10 l
1.56 25.96 l
1.79 -35.57 l
1.57 -32.14 l
1.58 -27.34 l
1.56 -19.80 l
1.56 -14.63 l
1.79 -5.04 l
1.56 -8.11 l
1.58 -2.97 l
1.58 14.00 l
1.60 0.10 l
1.58 -9.84 l
1.59 7.84 l
1.82 2.03 l
1.58 -11.91 l
1.60 0.07 l
1.58 -3.11 l
1.59 11.90 l
1.60 -0.95 l
1.56 0.97 l
1.57 -3.95 l
1.78 0.01 l
1.57 -4.79 l
1.58 3.82 l
1.56 -2.02 l
1.56 3.96 l
1.79 -7.69 l
1.57 10.65 l
507.10 242.09 lineto
1.57 2.95 l
1.56 3.94 l
1.79 -6.91 l
1.56 2.01 l
1.58 3.88 l
1.57 -5.83 l
1.56 5.83 l
1.79 -4.86 l
1.56 2.92 l
1.58 -4.84 l
1.56 2.86 l
1.57 -5.07 l
1.79 2.22 l
1.56 -2.97 l
1.58 10.69 l
1.56 -4.83 l
1.56 2.94 l
1.79 -5.81 l
1.57 1.82 l
1.58 -4.74 l
1.56 12.60 l
1.56 -7.80 l
1.79 -0.02 l
1.56 1.93 l
1.58 -6.89 l
1.57 5.93 l
1.56 -3.99 l
1.79 3.98 l
1.56 -1.94 l
1.58 0.90 l
1.53 -1.84 l
1.78 0.91 l
1.54 2.99 l
1.55 0 l
1.76 1.95 l
1.54 -2.96 l
1.55 2.96 l
1.55 -4.00 l
1.77 -2.02 l
1.55 -0.85 l
1.53 -0.93 l
1.77 3.84 l
1.55 -1.90 l
1.55 0.03 l
1.75 4.85 l
1.55 1.94 l
1.55 -1.94 l
1.54 -2.00 l
1.78 6.93 l
1.54 -8.87 l
o
0.00 0.00 605.25 414.00 cl
333.86 33.54 599.77 199.83 cl
/bg { 0.9216 0.9216 0.9216 srgb } def
333.86 33.54 265.91 166.29 r p2
1 1 1 srgb
0.53 setlinewidth
[] 0 setdash
0 setlinecap
1 setlinejoin
10.00 setmiterlimit
np
333.86 62.07 m
265.91 0 l
o
np
333.86 104.81 m
265.91 0 l
o
np
333.86 147.54 m
265.91 0 l
o
np
333.86 190.28 m
265.91 0 l
o
np
386.24 33.54 m
0 166.29 l
o
np
466.82 33.54 m
0 166.29 l
o
np
547.39 33.54 m
0 166.29 l
o
1.07 setlinewidth
[] 0 setdash
np
333.86 40.70 m
265.91 0 l
o
np
333.86 83.44 m
265.91 0 l
o
np
333.86 126.18 m
265.91 0 l
o
np
333.86 168.91 m
265.91 0 l
o
np
345.95 33.54 m
0 166.29 l
o
np
426.53 33.54 m
0 166.29 l
o
np
507.10 33.54 m
0 166.29 l
o
np
587.68 33.54 m
0 166.29 l
o
0 0 0 srgb
np
345.95 41.25 m
1.62 0.04 l
1.63 -0.09 l
1.65 0.09 l
1.62 -0.02 l
1.65 -0.02 l
1.40 0 l
1.63 -0.02 l
1.64 -0.02 l
1.63 0.06 l
1.64 -0.12 l
1.61 0.03 l
1.62 -0.01 l
1.61 -0.04 l
1.61 0.04 l
1.61 0.03 l
1.61 0.01 l
1.61 0.05 l
1.62 -0.09 l
1.61 0.13 l
1.61 -0.14 l
1.61 0.03 l
1.61 -0.09 l
1.61 0 l
1.61 0.05 l
1.62 -0.04 l
1.61 0.04 l
1.61 0.08 l
1.61 -0.07 l
1.61 0.03 l
1.61 -0.08 l
1.62 0.07 l
1.61 0 l
1.61 -0.03 l
1.61 0.03 l
1.61 -0.05 l
1.61 -0.03 l
1.62 0.07 l
1.61 -0.01 l
1.61 0.06 l
1.61 -0.08 l
1.58 0.12 l
1.59 -0.06 l
1.58 0.01 l
1.60 0.13 l
1.82 0.05 l
1.58 0.21 l
1.60 0.34 l
1.57 0.51 l
1.60 0.85 l
1.60 1.27 l
1.61 1.74 l
1.61 2.28 l
1.61 2.43 l
1.61 3.19 l
1.61 3.56 l
1.62 6.51 l
1.61 4.52 l
1.61 6.92 l
1.61 8.35 l
1.61 9.94 l
1.58 5.86 l
1.60 10.37 l
1.58 11.47 l
1.59 5.53 l
1.82 15.46 l
1.58 8.21 l
1.60 9.05 l
1.58 10.39 l
1.59 6.29 l
1.60 7.86 l
1.56 3.80 l
1.56 3.97 l
1.79 -0.94 l
1.57 -1.60 l
1.58 -2.48 l
1.56 -10.04 l
1.56 -6.76 l
1.79 -13.22 l
1.56 -9.83 l
1.58 -11.89 l
1.58 -12.10 l
1.60 -12.29 l
1.58 -14.69 l
1.59 -11.57 l
1.82 -8.25 l
1.58 -7.02 l
1.60 -5.24 l
1.58 -5.57 l
1.59 -3.51 l
1.60 -2.88 l
1.56 -3.85 l
1.57 -1.72 l
1.78 -1.93 l
1.57 -0.98 l
1.58 -0.87 l
1.56 -0.17 l
1.56 -0.25 l
1.79 -0.08 l
1.57 -0.03 l
507.10 42.47 lineto
1.57 -0.03 l
1.56 0.10 l
1.79 -0.01 l
1.56 -0.01 l
1.58 0.02 l
1.57 0.06 l
1.56 -0.08 l
1.79 0 l
1.56 0.04 l
1.58 -0.05 l
1.56 0.14 l
1.57 -0.09 l
1.79 0.07 l
1.56 -0.09 l
1.58 0.10 l
1.56 -0.04 l
1.56 0.01 l
1.79 -0.01 l
1.57 0.02 l
1.58 -0.03 l
1.56 -0.13 l
1.56 0.13 l
1.79 -0.07 l
1.56 -0.10 l
1.58 0.01 l
1.57 0.04 l
1.56 -0.10 l
1.79 -0.06 l
1.56 0.17 l
1.58 -0.06 l
1.53 -0.04 l
1.78 -0.06 l
1.54 -0.10 l
1.55 0.03 l
1.76 0.05 l
1.54 -0.13 l
1.55 0.10 l
1.55 -0.11 l
1.77 0.06 l
1.55 -0.06 l
1.53 0.03 l
1.77 0.12 l
1.55 -0.05 l
1.55 -0.09 l
1.75 0.15 l
1.55 -0.22 l
1.55 0.25 l
1.54 -0.12 l
1.78 -0.14 l
1.54 -0.12 l
o
0.00 0.00 605.25 414.00 cl
41.79 199.83 307.70 218.29 cl
41.79 199.83 307.70 218.29 cl
/bg { 0.8510 0.8510 0.8510 srgb } def
41.79 199.83 265.91 18.46 r p2
/Font1 findfont 9 s
0.1020 0.1020 0.1020 srgb
174.74 205.83 (5nm) .5 0 t
41.79 199.83 307.70 218.29 cl
41.79 199.83 307.70 218.29 cl
0.00 0.00 605.25 414.00 cl
333.86 199.83 599.77 218.29 cl
333.86 199.83 599.77 218.29 cl
/bg { 0.8510 0.8510 0.8510 srgb } def
333.86 199.83 265.91 18.46 r p2
/Font1 findfont 9 s
0.1020 0.1020 0.1020 srgb
466.82 205.83 (10nm) .5 0 t
333.86 199.83 599.77 218.29 cl
333.86 199.83 599.77 218.29 cl
0.00 0.00 605.25 414.00 cl
41.79 390.06 307.70 408.52 cl
41.79 390.06 307.70 408.52 cl
/bg { 0.8510 0.8510 0.8510 srgb } def
41.79 390.06 265.91 18.46 r p2
/Font1 findfont 9 s
0.1020 0.1020 0.1020 srgb
174.74 396.06 (1.5nm) .5 0 t
41.79 390.06 307.70 408.52 cl
41.79 390.06 307.70 408.52 cl
0.00 0.00 605.25 414.00 cl
333.86 390.06 599.77 408.52 cl
333.86 390.06 599.77 408.52 cl
/bg { 0.8510 0.8510 0.8510 srgb } def
333.86 390.06 265.91 18.46 r p2
/Font1 findfont 9 s
0.1020 0.1020 0.1020 srgb
466.82 396.06 (2.5nm) .5 0 t
333.86 390.06 599.77 408.52 cl
333.86 390.06 599.77 408.52 cl
0.00 0.00 605.25 414.00 cl
0.00 0.00 605.25 414.00 cl
0.00 0.00 605.25 414.00 cl
0.00 0.00 605.25 414.00 cl
0.00 0.00 605.25 414.00 cl
0.00 0.00 605.25 414.00 cl
0.00 0.00 605.25 414.00 cl
0.00 0.00 605.25 414.00 cl
0.00 0.00 605.25 414.00 cl
0.00 0.00 605.25 414.00 cl
0.00 0.00 605.25 414.00 cl
0.00 0.00 605.25 414.00 cl
0.00 0.00 605.25 414.00 cl
0.00 0.00 605.25 414.00 cl
0.2000 0.2000 0.2000 srgb
1.07 setlinewidth
[] 0 setdash
0 setlinecap
1 setlinejoin
10.00 setmiterlimit
np
53.88 30.80 m
0 2.74 l
o
np
134.45 30.80 m
0 2.74 l
o
np
215.03 30.80 m
0 2.74 l
o
np
295.61 30.80 m
0 2.74 l
o
0.00 0.00 605.25 414.00 cl
0.00 0.00 605.25 414.00 cl
/Font1 findfont 9 s
0.3020 0.3020 0.3020 srgb
53.88 22.14 (650) .5 0 t
134.45 22.14 (700) .5 0 t
215.03 22.14 (750) .5 0 t
295.61 22.14 (800) .5 0 t
0.00 0.00 605.25 414.00 cl
0.00 0.00 605.25 414.00 cl
0.00 0.00 605.25 414.00 cl
0.00 0.00 605.25 414.00 cl
0.00 0.00 605.25 414.00 cl
0.00 0.00 605.25 414.00 cl
0.00 0.00 605.25 414.00 cl
0.00 0.00 605.25 414.00 cl
0.2000 0.2000 0.2000 srgb
1.07 setlinewidth
[] 0 setdash
0 setlinecap
1 setlinejoin
10.00 setmiterlimit
np
345.95 30.80 m
0 2.74 l
o
np
426.53 30.80 m
0 2.74 l
o
np
507.10 30.80 m
0 2.74 l
o
np
587.68 30.80 m
0 2.74 l
o
0.00 0.00 605.25 414.00 cl
0.00 0.00 605.25 414.00 cl
/Font1 findfont 9 s
0.3020 0.3020 0.3020 srgb
345.95 22.14 (650) .5 0 t
426.53 22.14 (700) .5 0 t
507.10 22.14 (750) .5 0 t
587.68 22.14 (800) .5 0 t
0.00 0.00 605.25 414.00 cl
0.00 0.00 605.25 414.00 cl
0.00 0.00 605.25 414.00 cl
0.00 0.00 605.25 414.00 cl
0.00 0.00 605.25 414.00 cl
0.00 0.00 605.25 414.00 cl
0.00 0.00 605.25 414.00 cl
0.00 0.00 605.25 414.00 cl
0.00 0.00 605.25 414.00 cl
0.00 0.00 605.25 414.00 cl
0.00 0.00 605.25 414.00 cl
0.00 0.00 605.25 414.00 cl
/Font1 findfont 9 s
0.3020 0.3020 0.3020 srgb
328.93 242.78 (0.0) 1 0 t
328.93 290.10 (0.5) 1 0 t
328.93 337.41 (1.0) 1 0 t
328.93 384.72 (1.5) 1 0 t
0.00 0.00 605.25 414.00 cl
0.00 0.00 605.25 414.00 cl
0.2000 0.2000 0.2000 srgb
1.07 setlinewidth
[] 0 setdash
0 setlinecap
1 setlinejoin
10.00 setmiterlimit
np
331.12 246.02 m
2.74 0 l
o
np
331.12 293.33 m
2.74 0 l
o
np
331.12 340.64 m
2.74 0 l
o
np
331.12 387.95 m
2.74 0 l
o
0.00 0.00 605.25 414.00 cl
0.00 0.00 605.25 414.00 cl
0.00 0.00 605.25 414.00 cl
0.00 0.00 605.25 414.00 cl
0.00 0.00 605.25 414.00 cl
0.00 0.00 605.25 414.00 cl
0.00 0.00 605.25 414.00 cl
0.00 0.00 605.25 414.00 cl
/Font1 findfont 9 s
0.3020 0.3020 0.3020 srgb
328.93 37.47 (0) 1 0 t
328.93 80.21 (50) 1 0 t
328.93 122.95 (100) 1 0 t
328.93 165.68 (150) 1 0 t
0.00 0.00 605.25 414.00 cl
0.00 0.00 605.25 414.00 cl
0.2000 0.2000 0.2000 srgb
1.07 setlinewidth
[] 0 setdash
0 setlinecap
1 setlinejoin
10.00 setmiterlimit
np
331.12 40.70 m
2.74 0 l
o
np
331.12 83.44 m
2.74 0 l
o
np
331.12 126.18 m
2.74 0 l
o
np
331.12 168.91 m
2.74 0 l
o
0.00 0.00 605.25 414.00 cl
0.00 0.00 605.25 414.00 cl
0.00 0.00 605.25 414.00 cl
0.00 0.00 605.25 414.00 cl
0.00 0.00 605.25 414.00 cl
0.00 0.00 605.25 414.00 cl
0.00 0.00 605.25 414.00 cl
0.00 0.00 605.25 414.00 cl
/Font1 findfont 9 s
0.3020 0.3020 0.3020 srgb
36.86 261.46 (-0.1) 1 0 t
36.86 318.04 (0.0) 1 0 t
36.86 374.62 (0.1) 1 0 t
0.00 0.00 605.25 414.00 cl
0.00 0.00 605.25 414.00 cl
0.2000 0.2000 0.2000 srgb
1.07 setlinewidth
[] 0 setdash
0 setlinecap
1 setlinejoin
10.00 setmiterlimit
np
39.05 264.69 m
2.74 0 l
o
np
39.05 321.27 m
2.74 0 l
o
np
39.05 377.85 m
2.74 0 l
o
0.00 0.00 605.25 414.00 cl
0.00 0.00 605.25 414.00 cl
0.00 0.00 605.25 414.00 cl
0.00 0.00 605.25 414.00 cl
0.00 0.00 605.25 414.00 cl
0.00 0.00 605.25 414.00 cl
0.00 0.00 605.25 414.00 cl
0.00 0.00 605.25 414.00 cl
/Font1 findfont 9 s
0.3020 0.3020 0.3020 srgb
36.86 38.48 (0) 1 0 t
36.86 73.58 (5) 1 0 t
36.86 108.68 (10) 1 0 t
36.86 143.77 (15) 1 0 t
36.86 178.87 (20) 1 0 t
0.00 0.00 605.25 414.00 cl
0.00 0.00 605.25 414.00 cl
0.2000 0.2000 0.2000 srgb
1.07 setlinewidth
[] 0 setdash
0 setlinecap
1 setlinejoin
10.00 setmiterlimit
np
39.05 41.71 m
2.74 0 l
o
np
39.05 76.81 m
2.74 0 l
o
np
39.05 111.91 m
2.74 0 l
o
np
39.05 147.00 m
2.74 0 l
o
np
39.05 182.10 m
2.74 0 l
o
0.00 0.00 605.25 414.00 cl
0.00 0.00 605.25 414.00 cl
0.00 0.00 605.25 414.00 cl
0.00 0.00 605.25 414.00 cl
0.00 0.00 605.25 414.00 cl
0.00 0.00 605.25 414.00 cl
0.00 0.00 605.25 414.00 cl
0.00 0.00 605.25 414.00 cl
0.00 0.00 605.25 414.00 cl
0.00 0.00 605.25 414.00 cl
0.00 0.00 605.25 414.00 cl
0.00 0.00 605.25 414.00 cl
0.00 0.00 605.25 414.00 cl
0.00 0.00 605.25 414.00 cl
/Font1 findfont 11 s
0 0 0 srgb
280.13 7.73 (w) 0 ta
-0.165 (a) tb
-0.220 (v) tb
-0.275 (elength \(nm\)) tb gr
0.00 0.00 605.25 414.00 cl
0.00 0.00 605.25 414.00 cl
/Font1 findfont 11 s
0 0 0 srgb
13.38 211.80 (Signal Intensity) .5 90 t
0.00 0.00 605.25 414.00 cl
0.00 0.00 605.25 414.00 cl
0.00 0.00 605.25 414.00 cl
0.00 0.00 605.25 414.00 cl
0.00 0.00 605.25 414.00 cl
0.00 0.00 605.25 414.00 cl
0.00 0.00 605.25 414.00 cl
0.00 0.00 605.25 414.00 cl
0.00 0.00 605.25 414.00 cl
0.00 0.00 605.25 414.00 cl
ep
%%Trailer
%%Pages: 1
%%EOF
