%!PS-Adobe-3.0 EPSF-3.0
%%DocumentNeededResources: font Helvetica
%%+ font Helvetica-Bold
%%+ font Helvetica-Oblique
%%+ font Helvetica-BoldOblique
%%+ font Symbol
%%Title: R Graphics Output
%%Creator: R Software
%%Pages: (atend)
%%BoundingBox: 0 0 848 422
%%EndComments
%%BeginProlog
/bp  { gs sRGB gs } def
% begin .ps.prolog
/gs  { gsave } bind def
/gr  { grestore } bind def
/ep  { showpage gr gr } bind def
/m   { moveto } bind def
/l  { rlineto } bind def
/np  { newpath } bind def
/cp  { closepath } bind def
/f   { fill } bind def
/o   { stroke } bind def
/c   { newpath 0 360 arc } bind def
/r   { 4 2 roll moveto 1 copy 3 -1 roll exch 0 exch rlineto 0 rlineto -1 mul 0 exch rlineto closepath } bind def
/p1  { stroke } bind def
/p2  { gsave bg fill grestore newpath } bind def
/p3  { gsave bg fill grestore stroke } bind def
/p6  { gsave bg eofill grestore newpath } bind def
/p7  { gsave bg eofill grestore stroke } bind def
/t   { 5 -2 roll moveto gsave rotate
       1 index stringwidth pop
       mul neg 0 rmoveto show grestore } bind def
/ta  { 4 -2 roll moveto gsave rotate show } bind def
/tb  { 2 -1 roll 0 rmoveto show } bind def
/cl  { grestore gsave newpath 3 index 3 index moveto 1 index
       4 -1 roll lineto  exch 1 index lineto lineto
       closepath clip newpath } bind def
/rgb { setrgbcolor } bind def
/s   { scalefont setfont } bind def
% end   .ps.prolog
/sRGB { [ /CIEBasedABC
          << /DecodeLMN
               [ { dup 0.03928 le
                        {12.92321 div}
                        {0.055 add 1.055 div 2.4 exp }
                     ifelse
                 } bind dup dup
               ]
             /MatrixLMN [0.412457 0.212673 0.019334
                         0.357576 0.715152 0.119192
                         0.180437 0.072175 0.950301]
             /WhitePoint [0.9505 1.0 1.0890]
           >>
         ] setcolorspace } bind def
/srgb { setcolor } bind def
% begin encoding
/WinAnsiEncoding [
 /.notdef /.notdef /.notdef /.notdef /.notdef /.notdef /.notdef /.notdef
 /.notdef /.notdef /.notdef /.notdef /.notdef /.notdef /.notdef /.notdef
 /.notdef /.notdef /.notdef /.notdef /.notdef /.notdef /.notdef /.notdef
 /.notdef /.notdef /.notdef /.notdef /.notdef /.notdef /.notdef /.notdef
 /space /exclam /quotedbl /numbersign /dollar /percent /ampersand /quoteright
 /parenleft /parenright /asterisk /plus /comma /minus /period /slash
 /zero /one /two /three /four /five /six /seven
 /eight /nine /colon /semicolon /less /equal /greater /question
 /at /A /B /C /D /E /F /G
 /H /I /J /K /L /M /N /O
 /P /Q /R /S /T /U /V /W
 /X /Y /Z /bracketleft /backslash /bracketright /asciicircum /underscore
 /grave /a /b /c /d /e /f /g
 /h /i /j /k /l /m /n /o
 /p /q /r /s /t /u /v /w
 /x /y /z /braceleft /bar /braceright /asciitilde /.notdef
 /Euro /.notdef /quotesinglbase /florin /quotedblbase /ellipsis /dagger /daggerdbl
 /circumflex /perthousand /Scaron /guilsinglleft /OE /.notdef /Zcaron /.notdef
 /.notdef /quoteleft /quoteright /quotedblleft /quotedblright /bullet /endash /emdash
 /tilde /trademark /scaron /guilsinglright /oe /.notdef /zcaron /Ydieresis
 /space /exclamdown /cent /sterling /currency /yen /brokenbar /section
 /dieresis /copyright /ordfeminine /guillemotleft /logicalnot /hyphen /registered /macron
 /degree /plusminus /twosuperior /threesuperior /acute /mu /paragraph /periodcentered
 /cedilla /onesuperior /ordmasculine /guillemotright /onequarter /onehalf /threequarters /questiondown
 /Agrave /Aacute /Acircumflex /Atilde /Adieresis /Aring /AE /Ccedilla
 /Egrave /Eacute /Ecircumflex /Edieresis /Igrave /Iacute /Icircumflex /Idieresis
 /Eth /Ntilde /Ograve /Oacute /Ocircumflex /Otilde /Odieresis /multiply
 /Oslash /Ugrave /Uacute /Ucircumflex /Udieresis /Yacute /Thorn /germandbls
 /agrave /aacute /acircumflex /atilde /adieresis /aring /ae /ccedilla
 /egrave /eacute /ecircumflex /edieresis /igrave /iacute /icircumflex /idieresis
 /eth /ntilde /ograve /oacute /ocircumflex /otilde /odieresis /divide
 /oslash /ugrave /uacute /ucircumflex /udieresis /yacute /thorn /ydieresis
]
 def
% end encoding
%%IncludeResource: font Helvetica
/Helvetica findfont
dup length dict begin
  {1 index /FID ne {def} {pop pop} ifelse} forall
  /Encoding WinAnsiEncoding def
  currentdict
  end
/Font1 exch definefont pop
%%IncludeResource: font Helvetica-Bold
/Helvetica-Bold findfont
dup length dict begin
  {1 index /FID ne {def} {pop pop} ifelse} forall
  /Encoding WinAnsiEncoding def
  currentdict
  end
/Font2 exch definefont pop
%%IncludeResource: font Helvetica-Oblique
/Helvetica-Oblique findfont
dup length dict begin
  {1 index /FID ne {def} {pop pop} ifelse} forall
  /Encoding WinAnsiEncoding def
  currentdict
  end
/Font3 exch definefont pop
%%IncludeResource: font Helvetica-BoldOblique
/Helvetica-BoldOblique findfont
dup length dict begin
  {1 index /FID ne {def} {pop pop} ifelse} forall
  /Encoding WinAnsiEncoding def
  currentdict
  end
/Font4 exch definefont pop
%%IncludeResource: font Symbol
/Symbol findfont
dup length dict begin
  {1 index /FID ne {def} {pop pop} ifelse} forall
  currentdict
  end
/Font5 exch definefont pop
%%EndProlog
%%Page: 1 1
bp
0.00 0.00 848.25 421.50 cl
0.00 0.00 848.25 421.50 cl
0.00 0.00 848.25 421.50 cl
0.00 0.00 848.25 421.50 cl
0.00 0.00 848.25 421.50 cl
0.00 0.00 848.25 421.50 cl
0.00 0.00 848.25 421.50 cl
0.00 0.00 848.25 421.50 cl
0.00 0.00 848.25 421.50 cl
/bg { 1 1 1 srgb } def
1 1 1 srgb
1.07 setlinewidth
[] 0 setdash
1 setlinecap
1 setlinejoin
10.00 setmiterlimit
0.00 0.00 848.25 421.50 r p3
0.00 0.00 848.25 421.50 cl
0.00 0.00 848.25 421.50 cl
0.00 0.00 848.25 421.50 cl
34.89 31.35 842.77 416.02 cl
/bg { 0.9216 0.9216 0.9216 srgb } def
34.89 31.35 807.87 384.67 r p2
1 1 1 srgb
0.53 setlinewidth
[] 0 setdash
0 setlinecap
1 setlinejoin
10.00 setmiterlimit
np
34.89 53.05 m
807.88 0 l
o
np
34.89 143.71 m
807.88 0 l
o
np
34.89 234.38 m
807.88 0 l
o
np
34.89 325.04 m
807.88 0 l
o
np
34.89 415.70 m
807.88 0 l
o
np
166.38 31.35 m
0 384.67 l
o
np
403.29 31.35 m
0 384.67 l
o
np
640.21 31.35 m
0 384.67 l
o
1.07 setlinewidth
[] 0 setdash
np
34.89 98.38 m
807.88 0 l
o
np
34.89 189.05 m
807.88 0 l
o
np
34.89 279.71 m
807.88 0 l
o
np
34.89 370.37 m
807.88 0 l
o
np
47.92 31.35 m
0 384.67 l
o
np
284.84 31.35 m
0 384.67 l
o
np
521.75 31.35 m
0 384.67 l
o
np
758.66 31.35 m
0 384.67 l
o
/bg { 0 0 0 srgb } def
0 0 0 srgb
0.71 setlinewidth
[] 0 setdash
1 setlinecap
71.61 48.83 1.95 c p3
142.69 167.92 1.95 c p3
237.45 244.84 1.95 c p3
426.98 289.12 1.95 c p3
806.05 394.84 1.95 c p3
0.2000 0.4000 1 srgb
2.13 setlinewidth
[] 0 setdash
0 setlinecap
1.00 setmiterlimit
np
71.61 70.20 m
9.30 17.71 l
9.30 14.61 l
9.29 12.59 l
9.30 11.15 l
9.30 10.06 l
9.29 9.20 l
9.30 8.51 l
9.30 7.93 l
9.29 7.45 l
9.30 7.02 l
9.30 6.66 l
9.29 6.33 l
9.30 6.05 l
9.30 5.80 l
9.29 5.56 l
9.30 5.36 l
9.30 5.17 l
9.29 4.99 l
9.30 4.83 l
9.30 4.69 l
9.29 4.55 l
9.30 4.42 l
9.30 4.30 l
9.29 4.19 l
9.30 4.08 l
9.30 3.99 l
9.29 3.89 l
9.30 3.81 l
9.30 3.73 l
9.29 3.64 l
9.30 3.58 l
9.30 3.50 l
9.29 3.43 l
9.30 3.37 l
9.29 3.31 l
9.30 3.25 l
9.30 3.20 l
9.29 3.14 l
9.30 3.09 l
9.30 3.04 l
9.29 2.99 l
9.30 2.95 l
9.30 2.91 l
9.29 2.86 l
9.30 2.82 l
9.30 2.78 l
9.29 2.74 l
9.30 2.71 l
9.30 2.67 l
9.29 2.63 l
9.30 2.61 l
9.30 2.57 l
9.29 2.53 l
9.30 2.51 l
9.30 2.48 l
9.29 2.45 l
9.30 2.42 l
9.30 2.40 l
9.29 2.37 l
9.30 2.34 l
9.30 2.32 l
9.29 2.29 l
9.30 2.27 l
9.30 2.25 l
9.29 2.23 l
9.30 2.20 l
9.30 2.18 l
9.29 2.16 l
9.30 2.14 l
9.30 2.12 l
9.29 2.10 l
9.30 2.08 l
9.30 2.07 l
9.29 2.04 l
9.30 2.03 l
9.30 2.01 l
9.29 1.99 l
9.30 1.98 l
9.30 1.96 l
o
0.00 0.00 848.25 421.50 cl
0.00 0.00 848.25 421.50 cl
0.00 0.00 848.25 421.50 cl
0.00 0.00 848.25 421.50 cl
0.00 0.00 848.25 421.50 cl
0.00 0.00 848.25 421.50 cl
/Font1 findfont 9 s
0.3020 0.3020 0.3020 srgb
29.96 95.15 (10) 1 0 t
29.96 185.82 (15) 1 0 t
29.96 276.48 (20) 1 0 t
29.96 367.14 (25) 1 0 t
0.00 0.00 848.25 421.50 cl
0.00 0.00 848.25 421.50 cl
0.2000 0.2000 0.2000 srgb
1.07 setlinewidth
[] 0 setdash
0 setlinecap
1 setlinejoin
10.00 setmiterlimit
np
32.15 98.38 m
2.74 0 l
o
np
32.15 189.05 m
2.74 0 l
o
np
32.15 279.71 m
2.74 0 l
o
np
32.15 370.37 m
2.74 0 l
o
0.00 0.00 848.25 421.50 cl
0.00 0.00 848.25 421.50 cl
0.00 0.00 848.25 421.50 cl
0.00 0.00 848.25 421.50 cl
0.00 0.00 848.25 421.50 cl
0.00 0.00 848.25 421.50 cl
0.00 0.00 848.25 421.50 cl
0.00 0.00 848.25 421.50 cl
0.2000 0.2000 0.2000 srgb
1.07 setlinewidth
[] 0 setdash
0 setlinecap
1 setlinejoin
10.00 setmiterlimit
np
47.92 28.61 m
0 2.74 l
o
np
284.84 28.61 m
0 2.74 l
o
np
521.75 28.61 m
0 2.74 l
o
np
758.66 28.61 m
0 2.74 l
o
0.00 0.00 848.25 421.50 cl
0.00 0.00 848.25 421.50 cl
/Font1 findfont 9 s
0.3020 0.3020 0.3020 srgb
47.92 19.95 (0) .5 0 t
284.84 19.95 (10) .5 0 t
521.75 19.95 (20) .5 0 t
758.66 19.95 (30) .5 0 t
0.00 0.00 848.25 421.50 cl
0.00 0.00 848.25 421.50 cl
0.00 0.00 848.25 421.50 cl
0.00 0.00 848.25 421.50 cl
/Font1 findfont 11 s
0 0 0 srgb
367.60 7.67 (Number of Spectr) 0 ta
-0.110 (a A) tb
-0.440 (v) tb
-0.275 (er) tb
-0.110 (aged) tb gr
0.00 0.00 848.25 421.50 cl
0.00 0.00 848.25 421.50 cl
/Font1 findfont 11 s
0 0 0 srgb
15.57 223.68 (SNR) .5 90 t
0.00 0.00 848.25 421.50 cl
0.00 0.00 848.25 421.50 cl
0.00 0.00 848.25 421.50 cl
0.00 0.00 848.25 421.50 cl
ep
%%Trailer
%%Pages: 1
%%EOF
