%!PS-Adobe-3.0 EPSF-3.0
%%DocumentNeededResources: font Helvetica
%%+ font Helvetica-Bold
%%+ font Helvetica-Oblique
%%+ font Helvetica-BoldOblique
%%+ font Symbol
%%Title: R Graphics Output
%%Creator: R Software
%%Pages: (atend)
%%BoundingBox: 0 0 541 422
%%EndComments
%%BeginProlog
/bp  { gs sRGB gs } def
% begin .ps.prolog
/gs  { gsave } bind def
/gr  { grestore } bind def
/ep  { showpage gr gr } bind def
/m   { moveto } bind def
/l  { rlineto } bind def
/np  { newpath } bind def
/cp  { closepath } bind def
/f   { fill } bind def
/o   { stroke } bind def
/c   { newpath 0 360 arc } bind def
/r   { 4 2 roll moveto 1 copy 3 -1 roll exch 0 exch rlineto 0 rlineto -1 mul 0 exch rlineto closepath } bind def
/p1  { stroke } bind def
/p2  { gsave bg fill grestore newpath } bind def
/p3  { gsave bg fill grestore stroke } bind def
/p6  { gsave bg eofill grestore newpath } bind def
/p7  { gsave bg eofill grestore stroke } bind def
/t   { 5 -2 roll moveto gsave rotate
       1 index stringwidth pop
       mul neg 0 rmoveto show grestore } bind def
/ta  { 4 -2 roll moveto gsave rotate show } bind def
/tb  { 2 -1 roll 0 rmoveto show } bind def
/cl  { grestore gsave newpath 3 index 3 index moveto 1 index
       4 -1 roll lineto  exch 1 index lineto lineto
       closepath clip newpath } bind def
/rgb { setrgbcolor } bind def
/s   { scalefont setfont } bind def
% end   .ps.prolog
/sRGB { [ /CIEBasedABC
          << /DecodeLMN
               [ { dup 0.03928 le
                        {12.92321 div}
                        {0.055 add 1.055 div 2.4 exp }
                     ifelse
                 } bind dup dup
               ]
             /MatrixLMN [0.412457 0.212673 0.019334
                         0.357576 0.715152 0.119192
                         0.180437 0.072175 0.950301]
             /WhitePoint [0.9505 1.0 1.0890]
           >>
         ] setcolorspace } bind def
/srgb { setcolor } bind def
% begin encoding
/WinAnsiEncoding [
 /.notdef /.notdef /.notdef /.notdef /.notdef /.notdef /.notdef /.notdef
 /.notdef /.notdef /.notdef /.notdef /.notdef /.notdef /.notdef /.notdef
 /.notdef /.notdef /.notdef /.notdef /.notdef /.notdef /.notdef /.notdef
 /.notdef /.notdef /.notdef /.notdef /.notdef /.notdef /.notdef /.notdef
 /space /exclam /quotedbl /numbersign /dollar /percent /ampersand /quoteright
 /parenleft /parenright /asterisk /plus /comma /minus /period /slash
 /zero /one /two /three /four /five /six /seven
 /eight /nine /colon /semicolon /less /equal /greater /question
 /at /A /B /C /D /E /F /G
 /H /I /J /K /L /M /N /O
 /P /Q /R /S /T /U /V /W
 /X /Y /Z /bracketleft /backslash /bracketright /asciicircum /underscore
 /grave /a /b /c /d /e /f /g
 /h /i /j /k /l /m /n /o
 /p /q /r /s /t /u /v /w
 /x /y /z /braceleft /bar /braceright /asciitilde /.notdef
 /Euro /.notdef /quotesinglbase /florin /quotedblbase /ellipsis /dagger /daggerdbl
 /circumflex /perthousand /Scaron /guilsinglleft /OE /.notdef /Zcaron /.notdef
 /.notdef /quoteleft /quoteright /quotedblleft /quotedblright /bullet /endash /emdash
 /tilde /trademark /scaron /guilsinglright /oe /.notdef /zcaron /Ydieresis
 /space /exclamdown /cent /sterling /currency /yen /brokenbar /section
 /dieresis /copyright /ordfeminine /guillemotleft /logicalnot /hyphen /registered /macron
 /degree /plusminus /twosuperior /threesuperior /acute /mu /paragraph /periodcentered
 /cedilla /onesuperior /ordmasculine /guillemotright /onequarter /onehalf /threequarters /questiondown
 /Agrave /Aacute /Acircumflex /Atilde /Adieresis /Aring /AE /Ccedilla
 /Egrave /Eacute /Ecircumflex /Edieresis /Igrave /Iacute /Icircumflex /Idieresis
 /Eth /Ntilde /Ograve /Oacute /Ocircumflex /Otilde /Odieresis /multiply
 /Oslash /Ugrave /Uacute /Ucircumflex /Udieresis /Yacute /Thorn /germandbls
 /agrave /aacute /acircumflex /atilde /adieresis /aring /ae /ccedilla
 /egrave /eacute /ecircumflex /edieresis /igrave /iacute /icircumflex /idieresis
 /eth /ntilde /ograve /oacute /ocircumflex /otilde /odieresis /divide
 /oslash /ugrave /uacute /ucircumflex /udieresis /yacute /thorn /ydieresis
]
 def
% end encoding
%%IncludeResource: font Helvetica
/Helvetica findfont
dup length dict begin
  {1 index /FID ne {def} {pop pop} ifelse} forall
  /Encoding WinAnsiEncoding def
  currentdict
  end
/Font1 exch definefont pop
%%IncludeResource: font Helvetica-Bold
/Helvetica-Bold findfont
dup length dict begin
  {1 index /FID ne {def} {pop pop} ifelse} forall
  /Encoding WinAnsiEncoding def
  currentdict
  end
/Font2 exch definefont pop
%%IncludeResource: font Helvetica-Oblique
/Helvetica-Oblique findfont
dup length dict begin
  {1 index /FID ne {def} {pop pop} ifelse} forall
  /Encoding WinAnsiEncoding def
  currentdict
  end
/Font3 exch definefont pop
%%IncludeResource: font Helvetica-BoldOblique
/Helvetica-BoldOblique findfont
dup length dict begin
  {1 index /FID ne {def} {pop pop} ifelse} forall
  /Encoding WinAnsiEncoding def
  currentdict
  end
/Font4 exch definefont pop
%%IncludeResource: font Symbol
/Symbol findfont
dup length dict begin
  {1 index /FID ne {def} {pop pop} ifelse} forall
  currentdict
  end
/Font5 exch definefont pop
%%EndProlog
%%Page: 1 1
bp
0.00 0.00 541.50 421.50 cl
0.00 0.00 541.50 421.50 cl
0.00 0.00 541.50 421.50 cl
0.00 0.00 541.50 421.50 cl
0.00 0.00 541.50 421.50 cl
0.00 0.00 541.50 421.50 cl
0.00 0.00 541.50 421.50 cl
0.00 0.00 541.50 421.50 cl
0.00 0.00 541.50 421.50 cl
/bg { 1 1 1 srgb } def
1 1 1 srgb
1.07 setlinewidth
[] 0 setdash
1 setlinecap
1 setlinejoin
10.00 setmiterlimit
0.00 0.00 541.50 421.50 r p3
0.00 0.00 541.50 421.50 cl
0.00 0.00 541.50 421.50 cl
0.00 0.00 541.50 421.50 cl
29.89 79.61 536.02 416.02 cl
/bg { 0.9216 0.9216 0.9216 srgb } def
29.89 79.61 506.13 336.41 r p2
1 1 1 srgb
0.53 setlinewidth
[] 0 setdash
0 setlinecap
1 setlinejoin
10.00 setmiterlimit
np
29.89 97.18 m
506.13 0 l
o
np
29.89 156.74 m
506.13 0 l
o
np
29.89 216.31 m
506.13 0 l
o
np
29.89 275.87 m
506.13 0 l
o
np
29.89 335.43 m
506.13 0 l
o
np
29.89 395.00 m
506.13 0 l
o
np
98.50 79.61 m
0 336.41 l
o
np
190.78 79.61 m
0 336.41 l
o
np
283.06 79.61 m
0 336.41 l
o
np
375.35 79.61 m
0 336.41 l
o
np
467.63 79.61 m
0 336.41 l
o
1.07 setlinewidth
[] 0 setdash
np
29.89 126.96 m
506.13 0 l
o
np
29.89 186.52 m
506.13 0 l
o
np
29.89 246.09 m
506.13 0 l
o
np
29.89 305.65 m
506.13 0 l
o
np
29.89 365.22 m
506.13 0 l
o
np
52.36 79.61 m
0 336.41 l
o
np
144.64 79.61 m
0 336.41 l
o
np
236.92 79.61 m
0 336.41 l
o
np
329.20 79.61 m
0 336.41 l
o
np
421.49 79.61 m
0 336.41 l
o
np
513.77 79.61 m
0 336.41 l
o
0.9725 0.4627 0.4275 srgb
1.00 setmiterlimit
np
52.89 219.52 m
0.89 0.08 l
0.89 -0.14 l
0.89 -0.23 l
0.89 -0.15 l
0.89 -0.27 l
0.89 -0.11 l
0.89 -0.04 l
0.89 -0.09 l
0.89 -0.24 l
0.89 -0.26 l
0.89 -0.16 l
0.89 -0.12 l
0.89 -0.22 l
0.89 -0.13 l
0.89 -0.01 l
0.89 -0.15 l
0.89 -0.12 l
0.89 -0.14 l
0.89 -0.16 l
0.89 -0.08 l
0.89 -0.12 l
0.89 -0.22 l
0.89 -0.30 l
0.89 -0.21 l
0.89 -0.10 l
0.89 -0.05 l
0.89 -0.13 l
0.89 -0.11 l
0.89 0.04 l
0.89 0.04 l
0.89 -0.18 l
0.89 -0.11 l
0.89 -0.14 l
0.89 -0.45 l
0.89 -0.14 l
0.89 0.10 l
0.89 -0.12 l
0.89 -0.37 l
0.89 -0.27 l
0.89 -0.04 l
0.89 -0.22 l
0.89 -0.07 l
0.89 -0.06 l
0.89 -0.15 l
0.89 -0.13 l
0.89 -0.15 l
0.89 -0.09 l
0.89 -0.21 l
0.89 -0.05 l
0.89 -0.07 l
0.89 -0.23 l
0.89 -0.24 l
0.89 -0.14 l
0.89 -0.13 l
0.89 -0.33 l
0.89 -0.10 l
0.89 -0.02 l
0.89 -0.08 l
0.89 -0.12 l
0.89 -0.16 l
0.89 -0.15 l
0.89 -0.21 l
0.89 -0.09 l
0.89 -0.08 l
0.89 0.01 l
0.89 -0.20 l
0.89 -0.36 l
0.89 -0.19 l
0.89 -0.18 l
0.89 -0.11 l
0.89 -0.23 l
0.89 -0.11 l
0.89 0.03 l
0.89 -0.04 l
0.89 -0.12 l
0.89 -0.27 l
0.89 -0.29 l
0.89 -0.11 l
0.89 0.10 l
0.89 -0.27 l
0.89 -0.25 l
0.89 0.05 l
0.89 -0.07 l
0.89 -0.23 l
0.89 -0.33 l
0.89 -0.01 l
0.89 -0.08 l
0.89 -0.38 l
0.89 -0.25 l
0.89 0.03 l
0.89 0.19 l
0.89 -0.06 l
0.89 -0.39 l
0.89 -0.42 l
0.89 0.13 l
0.89 0.11 l
0.89 -0.56 l
0.89 -0.50 l
0.89 0.18 l
141.89 205.62 lineto
0.89 -0.52 l
0.89 -0.50 l
0.89 0.15 l
0.89 0.44 l
0.89 -0.40 l
0.89 -0.88 l
0.89 0.13 l
0.89 0.60 l
0.89 -0.27 l
0.89 -0.97 l
0.89 -0.10 l
0.89 0.59 l
0.89 -0.27 l
0.89 -0.99 l
0.89 -0.18 l
0.89 0.81 l
0.89 -0.16 l
0.89 -1.10 l
0.89 -0.16 l
0.89 0.83 l
0.89 -0.27 l
0.89 -1.38 l
0.89 0.01 l
0.89 0.99 l
0.89 -0.38 l
0.89 -1.45 l
0.89 0.40 l
0.89 1.25 l
0.89 -0.95 l
0.89 -1.57 l
0.89 0.59 l
0.89 1.24 l
0.89 -1.23 l
0.89 -1.26 l
0.89 1.13 l
0.89 0.48 l
0.89 -1.53 l
0.89 -0.58 l
0.89 1.50 l
0.89 -0.13 l
0.89 -1.80 l
0.89 0.24 l
0.89 1.34 l
0.89 -0.74 l
0.89 -1.32 l
0.89 1.08 l
0.89 0.73 l
0.89 -1.62 l
0.89 -0.59 l
0.89 1.38 l
0.89 -0.12 l
0.89 -1.33 l
0.89 0.65 l
0.89 0.76 l
0.89 -1.11 l
0.89 -0.56 l
0.89 1.07 l
0.89 -0.03 l
0.89 -1.05 l
0.89 0.41 l
0.89 0.61 l
0.89 -0.52 l
0.89 -0.20 l
0.89 0.62 l
0.89 -0.32 l
0.89 -0.53 l
0.89 0.59 l
0.89 0.24 l
0.89 -0.45 l
0.89 -0.17 l
0.89 0.52 l
0.89 0.21 l
0.89 -0.53 l
0.89 -0.83 l
0.89 -0.51 l
0.89 -0.03 l
0.89 -0.42 l
0.89 -0.51 l
0.89 -0.96 l
0.89 -0.76 l
0.89 0.49 l
0.89 0.01 l
0.89 -1.60 l
0.89 -1.38 l
0.89 0.34 l
0.89 0.02 l
0.89 -0.38 l
0.89 -1.13 l
0.89 -1.88 l
0.89 0.86 l
0.89 1.37 l
0.89 -1.55 l
0.89 -2.43 l
0.89 -0.89 l
0.89 1.03 l
0.89 1.39 l
0.89 -1.88 l
0.89 -3.92 l
0.89 0.51 l
230.89 184.81 lineto
0.89 -0.47 l
0.89 -3.68 l
0.89 -2.88 l
0.89 2.42 l
0.89 3.22 l
0.89 -3.10 l
0.89 -5.44 l
0.89 -0.27 l
0.89 4.26 l
0.89 1.29 l
0.89 -5.78 l
0.89 -4.86 l
0.89 3.43 l
0.89 4.68 l
0.89 -3.21 l
0.89 -7.97 l
0.89 -0.87 l
0.89 6.89 l
0.89 0.82 l
0.89 -9.38 l
0.89 -6.12 l
0.89 6.43 l
0.89 6.40 l
0.89 -7.45 l
0.89 -11.06 l
0.89 2.56 l
0.89 10.24 l
0.89 -2.40 l
0.89 -13.58 l
0.89 -2.88 l
0.89 11.21 l
0.89 3.19 l
0.89 -12.97 l
0.89 -7.69 l
0.89 9.84 l
0.89 7.96 l
0.89 -9.70 l
0.89 -10.63 l
0.89 6.44 l
0.89 9.77 l
0.89 -7.05 l
0.89 -13.27 l
0.89 3.19 l
0.89 11.47 l
0.89 -5.59 l
0.89 -16.35 l
0.89 1.28 l
0.89 13.96 l
0.89 -3.86 l
0.89 -17.30 l
0.89 1.10 l
0.89 15.22 l
0.89 -3.02 l
0.89 -16.50 l
0.89 1.50 l
0.89 14.15 l
0.89 -3.32 l
0.89 -14.07 l
0.89 3.49 l
0.89 12.64 l
0.89 -4.70 l
0.89 -13.37 l
0.89 3.57 l
0.89 11.11 l
0.89 -6.48 l
0.89 -12.69 l
0.89 5.95 l
0.89 10.29 l
0.89 -9.51 l
0.89 -10.26 l
0.89 10.26 l
0.89 7.25 l
0.89 -12.11 l
0.89 -4.56 l
0.89 12.97 l
0.89 1.42 l
0.89 -12.67 l
0.89 2.16 l
0.89 12.15 l
0.89 -5.73 l
0.89 -12.16 l
0.89 6.24 l
0.89 7.75 l
0.89 -8.70 l
0.89 -3.54 l
0.89 10.71 l
0.89 -1.01 l
0.89 -11.36 l
0.89 3.94 l
0.89 8.02 l
0.89 -7.24 l
0.89 -4.25 l
0.89 9.16 l
0.89 0.21 l
0.89 -8.26 l
0.89 4.22 l
0.89 6.24 l
0.89 -6.46 l
0.89 -1.71 l
319.89 117.02 lineto
0.89 -0.92 l
0.89 -4.30 l
0.89 9.22 l
0.89 6.94 l
0.89 -2.57 l
0.89 5.27 l
0.89 12.60 l
0.89 2.86 l
0.89 -8.27 l
0.89 -7.59 l
0.89 -0.85 l
0.89 -4.07 l
0.89 -9.71 l
0.89 -0.40 l
0.89 1.61 l
0.89 -6.91 l
0.89 -1.95 l
0.89 1.61 l
0.89 -6.01 l
0.89 -2.50 l
0.89 3.14 l
0.89 -3.99 l
0.89 -1.65 l
0.89 2.94 l
0.89 -3.86 l
0.89 -1.63 l
0.89 2.24 l
0.89 -2.69 l
0.89 -0.22 l
0.89 2.28 l
0.89 -2.74 l
0.89 0.59 l
0.89 1.89 l
0.89 -2.43 l
0.89 1.42 l
0.89 0.54 l
0.89 -1.48 l
0.89 2.23 l
0.89 0.04 l
0.89 -0.44 l
0.89 2.14 l
0.89 -0.62 l
0.89 0.85 l
0.89 2.33 l
0.89 -0.69 l
0.89 2.05 l
0.89 0.58 l
0.89 0.30 l
0.89 2.81 l
0.89 -0.22 l
0.89 2.40 l
0.89 1.36 l
0.89 0.88 l
0.89 2.65 l
0.89 0.44 l
0.89 2.73 l
0.89 1.45 l
0.89 1.85 l
0.89 2.54 l
0.89 1.28 l
0.89 2.80 l
0.89 1.56 l
0.89 2.73 l
0.89 2.34 l
0.89 1.99 l
0.89 2.83 l
0.89 2.11 l
0.89 2.91 l
0.89 2.16 l
0.89 2.65 l
0.89 2.49 l
0.89 2.23 l
0.89 2.52 l
0.89 2.02 l
0.89 2.44 l
0.89 1.87 l
0.89 2.13 l
0.89 1.66 l
0.89 1.54 l
0.89 1.48 l
0.89 0.73 l
0.89 1.19 l
0.89 0.75 l
0.89 0.78 l
0.89 0.45 l
0.89 0.44 l
0.89 0.44 l
0.89 -0.05 l
0.89 0.23 l
0.89 0.04 l
0.89 0.15 l
0.89 -0.16 l
0.89 -0.07 l
0.89 -0.02 l
0.89 -0.12 l
0.89 0.05 l
0.89 -0.24 l
0.89 -0.05 l
0.89 -0.13 l
408.89 173.25 lineto
0.89 -0.16 l
0.89 -0.27 l
0.89 0.02 l
0.89 -0.04 l
0.89 -0.09 l
0.89 -0.34 l
0.89 0.02 l
0.89 0 l
0.89 -0.07 l
0.89 -0.09 l
0.89 -0.29 l
0.89 -0.08 l
0.89 -0.12 l
0.89 -0.01 l
0.89 -0.19 l
0.89 -0.10 l
0.89 -0.01 l
0.89 -0.07 l
0.89 -0.02 l
0.89 -0.27 l
0.89 -0.04 l
0.89 -0.14 l
0.89 -0.03 l
0.89 0.02 l
0.89 -0.22 l
0.89 -0.13 l
0.89 -0.14 l
0.89 -0.03 l
0.89 -0.16 l
0.89 -0.17 l
0.89 -0.16 l
0.89 0 l
0.89 0 l
0.89 -0.24 l
0.89 -0.02 l
0.89 -0.01 l
0.89 -0.08 l
0.89 -0.13 l
0.89 -0.03 l
0.89 -0.10 l
0.89 -0.12 l
0.89 0.03 l
0.89 -0.15 l
0.89 -0.12 l
0.89 -0.26 l
0.89 -0.14 l
0.89 -0.02 l
0.89 -0.10 l
0.89 0 l
0.89 -0.03 l
0.89 0 l
0.89 -0.10 l
0.89 -0.03 l
0.89 -0.06 l
0.89 -0.10 l
0.89 -0.02 l
0.89 -0.11 l
0.89 -0.20 l
0.89 -0.19 l
0.89 0.07 l
0.89 -0.08 l
0.89 -0.11 l
0.89 -0.02 l
0.89 -0.14 l
0.89 -0.07 l
0.89 -0.15 l
0.89 -0.14 l
0.89 -0.08 l
0.89 -0.03 l
0.89 0.01 l
0.89 -0.07 l
0.89 -0.10 l
0.89 -0.06 l
0.89 0.03 l
0.89 0.02 l
0.89 -0.02 l
0.89 -0.15 l
0.89 -0.11 l
0.89 -0.14 l
0.89 -0.11 l
0.89 0.09 l
0.88 -0.07 l
0.89 -0.09 l
0.89 -0.04 l
0.89 -0.04 l
0.89 -0.11 l
0.89 -0.08 l
0.89 0.02 l
0.89 -0.08 l
0.89 -0.14 l
0.89 -0.17 l
0.89 -0.10 l
0.89 -0.07 l
0.89 0.18 l
0.89 -0.01 l
0.89 -0.25 l
0.89 0.04 l
0.89 -0.14 l
0.89 -0.15 l
497.88 164.79 lineto
0.89 -0.10 l
0.89 -0.01 l
0.89 -0.09 l
0.89 -0.08 l
0.89 -0.05 l
0.89 0.08 l
0.89 -0.09 l
0.89 -0.21 l
0.89 -0.06 l
0.89 0.02 l
0.89 -0.01 l
0.89 -0.09 l
0.89 -0.01 l
0.89 -0.18 l
0.89 -0.19 l
0.89 -0.11 l
0.89 -0.01 l
o
0.4863 0.6824 0 srgb
np
53.78 278.25 m
3.56 -0.58 l
3.56 -0.60 l
3.56 -0.54 l
3.56 -0.59 l
3.56 -0.61 l
3.56 -0.59 l
3.56 -0.49 l
3.56 -0.56 l
3.56 -0.57 l
3.56 -0.46 l
3.56 -0.57 l
3.56 -0.63 l
3.56 -0.62 l
3.56 -0.51 l
3.56 -0.57 l
3.56 -0.64 l
3.56 -0.61 l
3.56 -0.56 l
3.56 -0.50 l
3.56 -0.58 l
3.56 -0.55 l
3.56 -0.57 l
3.56 -0.57 l
3.56 -0.57 l
3.56 -0.58 l
3.56 -0.57 l
3.56 -0.63 l
3.56 -0.63 l
3.56 -0.74 l
3.56 -0.71 l
3.56 -0.66 l
3.56 -0.66 l
3.56 -0.65 l
3.56 -0.67 l
3.56 -0.54 l
3.56 -0.49 l
3.56 -0.43 l
3.56 -0.36 l
3.56 -0.23 l
3.56 -0.09 l
3.56 -0.04 l
3.56 -0.07 l
3.56 -0.61 l
3.56 -1.50 l
3.56 -1.99 l
3.56 -1.94 l
3.56 -2.00 l
3.56 -2.16 l
3.56 -2.27 l
3.56 -2.39 l
3.56 -2.58 l
3.56 -2.86 l
3.56 -3.09 l
3.56 -3.95 l
3.56 -4.70 l
3.56 -4.86 l
3.56 -4.81 l
3.56 -4.34 l
3.56 -3.69 l
3.56 -4.33 l
3.56 -5.83 l
3.56 -5.78 l
3.56 -4.44 l
3.56 -2.71 l
3.56 -2.31 l
3.56 -3.24 l
3.56 -2.93 l
3.56 -1.41 l
3.56 -0.34 l
3.56 -1.05 l
3.56 -1.18 l
3.56 -0.77 l
3.56 -0.21 l
3.56 1.31 l
3.56 5.29 l
3.56 11.14 l
3.56 3.64 l
3.56 -10.52 l
3.56 -11.37 l
3.56 -6.99 l
3.56 -4.15 l
3.56 -1.98 l
3.56 -0.49 l
3.56 0.95 l
3.56 1.79 l
3.56 3.25 l
3.56 4.29 l
3.56 5.54 l
3.56 6.96 l
3.56 7.96 l
3.56 9.00 l
3.56 9.58 l
3.56 9.60 l
3.56 8.05 l
3.56 5.67 l
3.56 3.16 l
3.56 1.20 l
3.56 0.19 l
3.56 -0.37 l
409.78 231.89 lineto
3.56 -0.55 l
3.56 -0.39 l
3.56 -0.37 l
3.56 -0.45 l
3.56 -0.31 l
3.56 -0.38 l
3.56 -0.36 l
3.56 -0.40 l
3.56 -0.30 l
3.56 -0.37 l
3.56 -0.37 l
3.56 -0.36 l
3.56 -0.39 l
3.56 -0.28 l
3.56 -0.32 l
3.56 -0.27 l
3.56 -0.30 l
3.56 -0.19 l
3.56 -0.25 l
3.56 -0.34 l
3.55 -0.28 l
3.56 -0.31 l
3.56 -0.15 l
3.56 -0.28 l
3.56 -0.26 l
3.56 -0.26 l
3.56 -0.31 l
3.56 -0.26 l
3.56 -0.32 l
o
0 0.7490 0.7686 srgb
np
64.46 338.29 m
14.24 -2.26 l
14.24 -2.67 l
14.24 -2.25 l
14.24 -2.42 l
14.24 -2.22 l
14.24 -2.35 l
14.24 -2.78 l
14.24 -2.22 l
14.24 -1.86 l
14.24 -2.78 l
14.24 -6.73 l
14.24 -10.61 l
14.24 -14.67 l
14.24 -18.15 l
14.24 -16.83 l
14.24 -11.67 l
14.24 -3.22 l
14.24 2.62 l
14.24 -5.36 l
14.24 -8.67 l
14.24 9.68 l
14.24 26.37 l
14.24 24.88 l
14.24 9.49 l
14.24 -1.21 l
14.24 -1.65 l
14.24 -2.08 l
14.24 -1.15 l
14.24 -1.31 l
14.23 -1.13 l
14.24 -1.00 l
o
0.7804 0.4863 1 srgb
np
64.46 400.73 m
28.48 -5.24 l
28.48 -5.15 l
28.48 -5.48 l
28.48 -4.83 l
28.48 -8.35 l
28.48 -18.17 l
28.48 -29.28 l
28.48 -23.45 l
28.48 -9.58 l
28.48 1.19 l
28.48 25.50 l
28.48 27.52 l
28.48 3.96 l
28.48 -3.45 l
28.47 -3.25 l
o
0.00 0.00 541.50 421.50 cl
0.00 0.00 541.50 421.50 cl
0.00 0.00 541.50 421.50 cl
0.00 0.00 541.50 421.50 cl
0.00 0.00 541.50 421.50 cl
0.00 0.00 541.50 421.50 cl
/Font1 findfont 9 s
0.3020 0.3020 0.3020 srgb
24.96 123.73 (2) 1 0 t
24.96 183.29 (3) 1 0 t
24.96 242.86 (4) 1 0 t
24.96 302.42 (5) 1 0 t
24.96 361.99 (6) 1 0 t
0.00 0.00 541.50 421.50 cl
0.00 0.00 541.50 421.50 cl
0.2000 0.2000 0.2000 srgb
1.07 setlinewidth
[] 0 setdash
0 setlinecap
1 setlinejoin
10.00 setmiterlimit
np
27.15 126.96 m
2.74 0 l
o
np
27.15 186.52 m
2.74 0 l
o
np
27.15 246.09 m
2.74 0 l
o
np
27.15 305.65 m
2.74 0 l
o
np
27.15 365.22 m
2.74 0 l
o
0.00 0.00 541.50 421.50 cl
0.00 0.00 541.50 421.50 cl
0.00 0.00 541.50 421.50 cl
0.00 0.00 541.50 421.50 cl
0.00 0.00 541.50 421.50 cl
0.00 0.00 541.50 421.50 cl
0.00 0.00 541.50 421.50 cl
0.00 0.00 541.50 421.50 cl
0.2000 0.2000 0.2000 srgb
1.07 setlinewidth
[] 0 setdash
0 setlinecap
1 setlinejoin
10.00 setmiterlimit
np
52.36 76.87 m
0 2.74 l
o
np
144.64 76.87 m
0 2.74 l
o
np
236.92 76.87 m
0 2.74 l
o
np
329.20 76.87 m
0 2.74 l
o
np
421.49 76.87 m
0 2.74 l
o
np
513.77 76.87 m
0 2.74 l
o
0.00 0.00 541.50 421.50 cl
0.00 0.00 541.50 421.50 cl
/Font1 findfont 9 s
0.3020 0.3020 0.3020 srgb
52.36 68.21 (2200) .5 0 t
144.64 68.21 (2250) .5 0 t
236.92 68.21 (2300) .5 0 t
329.20 68.21 (2350) .5 0 t
421.49 68.21 (2400) .5 0 t
513.77 68.21 (2450) .5 0 t
0.00 0.00 541.50 421.50 cl
0.00 0.00 541.50 421.50 cl
0.00 0.00 541.50 421.50 cl
0.00 0.00 541.50 421.50 cl
/Font1 findfont 11 s
0 0 0 srgb
232.32 52.74 (W) 0 ta
-0.440 (a) tb
-0.220 (v) tb
-0.275 (en) tb
-0.110 (umber \(cm) tb gr
/Font1 findfont 8 s
318.06 58.21 (-1) 0 0 t
/Font5 findfont 11 s
327.18 52.74 ( ) 0 0 t
/Font1 findfont 11 s
329.93 52.74 (\)) 0 0 t
0.00 0.00 541.50 421.50 cl
0.00 0.00 541.50 421.50 cl
/Font1 findfont 11 s
0 0 0 srgb
15.57 247.81 (Intensity) .5 90 t
0.00 0.00 541.50 421.50 cl
0.00 0.00 541.50 421.50 cl
0.00 0.00 541.50 421.50 cl
0.00 0.00 541.50 421.50 cl
/bg { 1 1 1 srgb } def
169.55 13.98 226.81 25.78 r p2
0.00 0.00 541.50 421.50 cl
0.00 0.00 541.50 421.50 cl
/Font1 findfont 11 s
0 0 0 srgb
173.80 22.47 (Resolution \(cm) 0 0 t
/Font1 findfont 8 s
247.15 27.93 (-1) 0 0 t
/Font5 findfont 11 s
256.27 22.47 ( ) 0 0 t
/Font1 findfont 11 s
259.02 22.47 (\)) 0 0 t
0.00 0.00 541.50 421.50 cl
0.00 0.00 541.50 421.50 cl
/bg { 0.9490 0.9490 0.9490 srgb } def
1 1 1 srgb
1.07 setlinewidth
[] 0 setdash
1 setlinecap
1 setlinejoin
10.00 setmiterlimit
265.87 18.24 17.28 17.28 r p3
0.00 0.00 541.50 421.50 cl
0.00 0.00 541.50 421.50 cl
0.9725 0.4627 0.4275 srgb
1.07 setlinewidth
[] 0 setdash
0 setlinecap
1 setlinejoin
10.00 setmiterlimit
np
267.60 26.88 m
13.82 0 l
o
0.00 0.00 541.50 421.50 cl
0.00 0.00 541.50 421.50 cl
/bg { 0.9490 0.9490 0.9490 srgb } def
1 1 1 srgb
1.07 setlinewidth
[] 0 setdash
1 setlinecap
1 setlinejoin
10.00 setmiterlimit
297.97 18.24 17.28 17.28 r p3
0.00 0.00 541.50 421.50 cl
0.00 0.00 541.50 421.50 cl
0.4863 0.6824 0 srgb
1.07 setlinewidth
[] 0 setdash
0 setlinecap
1 setlinejoin
10.00 setmiterlimit
np
299.70 26.88 m
13.82 0 l
o
0.00 0.00 541.50 421.50 cl
0.00 0.00 541.50 421.50 cl
/bg { 0.9490 0.9490 0.9490 srgb } def
1 1 1 srgb
1.07 setlinewidth
[] 0 setdash
1 setlinecap
1 setlinejoin
10.00 setmiterlimit
330.07 18.24 17.28 17.28 r p3
0.00 0.00 541.50 421.50 cl
0.00 0.00 541.50 421.50 cl
0 0.7490 0.7686 srgb
1.07 setlinewidth
[] 0 setdash
0 setlinecap
1 setlinejoin
10.00 setmiterlimit
np
331.80 26.88 m
13.82 0 l
o
0.00 0.00 541.50 421.50 cl
0.00 0.00 541.50 421.50 cl
/bg { 0.9490 0.9490 0.9490 srgb } def
1 1 1 srgb
1.07 setlinewidth
[] 0 setdash
1 setlinecap
1 setlinejoin
10.00 setmiterlimit
362.17 18.24 17.28 17.28 r p3
0.00 0.00 541.50 421.50 cl
0.00 0.00 541.50 421.50 cl
0.7804 0.4863 1 srgb
1.07 setlinewidth
[] 0 setdash
0 setlinecap
1 setlinejoin
10.00 setmiterlimit
np
363.90 26.88 m
13.82 0 l
o
0.00 0.00 541.50 421.50 cl
0.00 0.00 541.50 421.50 cl
/Font1 findfont 9 s
0 0 0 srgb
285.31 23.64 (01) 0 0 t
0.00 0.00 541.50 421.50 cl
0.00 0.00 541.50 421.50 cl
/Font1 findfont 9 s
0 0 0 srgb
317.41 23.64 (04) 0 0 t
0.00 0.00 541.50 421.50 cl
0.00 0.00 541.50 421.50 cl
/Font1 findfont 9 s
0 0 0 srgb
349.51 23.64 (16) 0 0 t
0.00 0.00 541.50 421.50 cl
0.00 0.00 541.50 421.50 cl
/Font1 findfont 9 s
0 0 0 srgb
381.61 23.64 (32) 0 0 t
0.00 0.00 541.50 421.50 cl
0.00 0.00 541.50 421.50 cl
0.00 0.00 541.50 421.50 cl
0.00 0.00 541.50 421.50 cl
0.00 0.00 541.50 421.50 cl
0.00 0.00 541.50 421.50 cl
ep
%%Trailer
%%Pages: 1
%%EOF
