%!PS-Adobe-3.0 EPSF-3.0
%%DocumentNeededResources: font Helvetica
%%+ font Helvetica-Bold
%%+ font Helvetica-Oblique
%%+ font Helvetica-BoldOblique
%%+ font Symbol
%%Title: R Graphics Output
%%Creator: R Software
%%Pages: (atend)
%%BoundingBox: 0 0 848 422
%%EndComments
%%BeginProlog
/bp  { gs sRGB gs } def
% begin .ps.prolog
/gs  { gsave } bind def
/gr  { grestore } bind def
/ep  { showpage gr gr } bind def
/m   { moveto } bind def
/l  { rlineto } bind def
/np  { newpath } bind def
/cp  { closepath } bind def
/f   { fill } bind def
/o   { stroke } bind def
/c   { newpath 0 360 arc } bind def
/r   { 4 2 roll moveto 1 copy 3 -1 roll exch 0 exch rlineto 0 rlineto -1 mul 0 exch rlineto closepath } bind def
/p1  { stroke } bind def
/p2  { gsave bg fill grestore newpath } bind def
/p3  { gsave bg fill grestore stroke } bind def
/p6  { gsave bg eofill grestore newpath } bind def
/p7  { gsave bg eofill grestore stroke } bind def
/t   { 5 -2 roll moveto gsave rotate
       1 index stringwidth pop
       mul neg 0 rmoveto show grestore } bind def
/ta  { 4 -2 roll moveto gsave rotate show } bind def
/tb  { 2 -1 roll 0 rmoveto show } bind def
/cl  { grestore gsave newpath 3 index 3 index moveto 1 index
       4 -1 roll lineto  exch 1 index lineto lineto
       closepath clip newpath } bind def
/rgb { setrgbcolor } bind def
/s   { scalefont setfont } bind def
% end   .ps.prolog
/sRGB { [ /CIEBasedABC
          << /DecodeLMN
               [ { dup 0.03928 le
                        {12.92321 div}
                        {0.055 add 1.055 div 2.4 exp }
                     ifelse
                 } bind dup dup
               ]
             /MatrixLMN [0.412457 0.212673 0.019334
                         0.357576 0.715152 0.119192
                         0.180437 0.072175 0.950301]
             /WhitePoint [0.9505 1.0 1.0890]
           >>
         ] setcolorspace } bind def
/srgb { setcolor } bind def
% begin encoding
/WinAnsiEncoding [
 /.notdef /.notdef /.notdef /.notdef /.notdef /.notdef /.notdef /.notdef
 /.notdef /.notdef /.notdef /.notdef /.notdef /.notdef /.notdef /.notdef
 /.notdef /.notdef /.notdef /.notdef /.notdef /.notdef /.notdef /.notdef
 /.notdef /.notdef /.notdef /.notdef /.notdef /.notdef /.notdef /.notdef
 /space /exclam /quotedbl /numbersign /dollar /percent /ampersand /quoteright
 /parenleft /parenright /asterisk /plus /comma /minus /period /slash
 /zero /one /two /three /four /five /six /seven
 /eight /nine /colon /semicolon /less /equal /greater /question
 /at /A /B /C /D /E /F /G
 /H /I /J /K /L /M /N /O
 /P /Q /R /S /T /U /V /W
 /X /Y /Z /bracketleft /backslash /bracketright /asciicircum /underscore
 /grave /a /b /c /d /e /f /g
 /h /i /j /k /l /m /n /o
 /p /q /r /s /t /u /v /w
 /x /y /z /braceleft /bar /braceright /asciitilde /.notdef
 /Euro /.notdef /quotesinglbase /florin /quotedblbase /ellipsis /dagger /daggerdbl
 /circumflex /perthousand /Scaron /guilsinglleft /OE /.notdef /Zcaron /.notdef
 /.notdef /quoteleft /quoteright /quotedblleft /quotedblright /bullet /endash /emdash
 /tilde /trademark /scaron /guilsinglright /oe /.notdef /zcaron /Ydieresis
 /space /exclamdown /cent /sterling /currency /yen /brokenbar /section
 /dieresis /copyright /ordfeminine /guillemotleft /logicalnot /hyphen /registered /macron
 /degree /plusminus /twosuperior /threesuperior /acute /mu /paragraph /periodcentered
 /cedilla /onesuperior /ordmasculine /guillemotright /onequarter /onehalf /threequarters /questiondown
 /Agrave /Aacute /Acircumflex /Atilde /Adieresis /Aring /AE /Ccedilla
 /Egrave /Eacute /Ecircumflex /Edieresis /Igrave /Iacute /Icircumflex /Idieresis
 /Eth /Ntilde /Ograve /Oacute /Ocircumflex /Otilde /Odieresis /multiply
 /Oslash /Ugrave /Uacute /Ucircumflex /Udieresis /Yacute /Thorn /germandbls
 /agrave /aacute /acircumflex /atilde /adieresis /aring /ae /ccedilla
 /egrave /eacute /ecircumflex /edieresis /igrave /iacute /icircumflex /idieresis
 /eth /ntilde /ograve /oacute /ocircumflex /otilde /odieresis /divide
 /oslash /ugrave /uacute /ucircumflex /udieresis /yacute /thorn /ydieresis
]
 def
% end encoding
%%IncludeResource: font Helvetica
/Helvetica findfont
dup length dict begin
  {1 index /FID ne {def} {pop pop} ifelse} forall
  /Encoding WinAnsiEncoding def
  currentdict
  end
/Font1 exch definefont pop
%%IncludeResource: font Helvetica-Bold
/Helvetica-Bold findfont
dup length dict begin
  {1 index /FID ne {def} {pop pop} ifelse} forall
  /Encoding WinAnsiEncoding def
  currentdict
  end
/Font2 exch definefont pop
%%IncludeResource: font Helvetica-Oblique
/Helvetica-Oblique findfont
dup length dict begin
  {1 index /FID ne {def} {pop pop} ifelse} forall
  /Encoding WinAnsiEncoding def
  currentdict
  end
/Font3 exch definefont pop
%%IncludeResource: font Helvetica-BoldOblique
/Helvetica-BoldOblique findfont
dup length dict begin
  {1 index /FID ne {def} {pop pop} ifelse} forall
  /Encoding WinAnsiEncoding def
  currentdict
  end
/Font4 exch definefont pop
%%IncludeResource: font Symbol
/Symbol findfont
dup length dict begin
  {1 index /FID ne {def} {pop pop} ifelse} forall
  currentdict
  end
/Font5 exch definefont pop
%%EndProlog
%%Page: 1 1
bp
0.00 0.00 848.25 421.50 cl
0.00 0.00 848.25 421.50 cl
0.00 0.00 848.25 421.50 cl
0.00 0.00 848.25 421.50 cl
0.00 0.00 848.25 421.50 cl
0.00 0.00 848.25 421.50 cl
0.00 0.00 848.25 421.50 cl
0.00 0.00 848.25 421.50 cl
0.00 0.00 848.25 421.50 cl
/bg { 1 1 1 srgb } def
1 1 1 srgb
1.07 setlinewidth
[] 0 setdash
1 setlinecap
1 setlinejoin
10.00 setmiterlimit
0.00 0.00 848.25 421.50 r p3
0.00 0.00 848.25 421.50 cl
0.00 0.00 848.25 421.50 cl
0.00 0.00 848.25 421.50 cl
35.14 31.35 842.77 416.02 cl
/bg { 0.9216 0.9216 0.9216 srgb } def
35.14 31.35 807.62 384.67 r p2
1 1 1 srgb
0.53 setlinewidth
[] 0 setdash
0 setlinecap
1 setlinejoin
10.00 setmiterlimit
np
35.14 111.00 m
807.63 0 l
o
np
35.14 205.11 m
807.63 0 l
o
np
35.14 299.22 m
807.63 0 l
o
np
35.14 393.33 m
807.63 0 l
o
np
144.62 31.35 m
0 384.67 l
o
np
291.88 31.35 m
0 384.67 l
o
np
439.13 31.35 m
0 384.67 l
o
np
586.38 31.35 m
0 384.67 l
o
np
733.64 31.35 m
0 384.67 l
o
1.07 setlinewidth
[] 0 setdash
np
35.14 63.94 m
807.63 0 l
o
np
35.14 158.05 m
807.63 0 l
o
np
35.14 252.16 m
807.63 0 l
o
np
35.14 346.27 m
807.63 0 l
o
np
71.00 31.35 m
0 384.67 l
o
np
218.25 31.35 m
0 384.67 l
o
np
365.50 31.35 m
0 384.67 l
o
np
512.76 31.35 m
0 384.67 l
o
np
660.01 31.35 m
0 384.67 l
o
np
807.26 31.35 m
0 384.67 l
o
0 0 0 srgb
1.00 setmiterlimit
np
71.85 398.41 m
1.42 0.13 l
1.42 -0.22 l
1.42 -0.37 l
1.42 -0.23 l
1.43 -0.43 l
1.42 -0.17 l
1.42 -0.07 l
1.42 -0.15 l
1.42 -0.36 l
1.42 -0.42 l
1.42 -0.25 l
1.42 -0.20 l
1.42 -0.33 l
1.42 -0.22 l
1.42 -0.01 l
1.42 -0.23 l
1.42 -0.20 l
1.42 -0.22 l
1.42 -0.25 l
1.42 -0.13 l
1.42 -0.18 l
1.42 -0.36 l
1.42 -0.47 l
1.42 -0.34 l
1.42 -0.15 l
1.42 -0.09 l
1.42 -0.20 l
1.42 -0.17 l
1.42 0.07 l
1.42 0.05 l
1.42 -0.28 l
1.42 -0.18 l
1.42 -0.21 l
1.42 -0.72 l
1.42 -0.22 l
1.42 0.16 l
1.42 -0.18 l
1.42 -0.60 l
1.42 -0.42 l
1.42 -0.06 l
1.42 -0.35 l
1.42 -0.11 l
1.42 -0.09 l
1.42 -0.24 l
1.42 -0.20 l
1.42 -0.24 l
1.42 -0.14 l
1.42 -0.34 l
1.42 -0.08 l
1.42 -0.11 l
1.42 -0.35 l
1.42 -0.39 l
1.42 -0.23 l
1.42 -0.19 l
1.42 -0.53 l
1.42 -0.16 l
1.42 -0.03 l
1.42 -0.13 l
1.42 -0.18 l
1.42 -0.26 l
1.42 -0.24 l
1.42 -0.33 l
1.42 -0.13 l
1.42 -0.14 l
1.42 0.02 l
1.42 -0.31 l
1.42 -0.57 l
1.42 -0.30 l
1.42 -0.29 l
1.42 -0.17 l
1.42 -0.36 l
1.42 -0.17 l
1.42 0.04 l
1.42 -0.07 l
1.42 -0.18 l
1.42 -0.43 l
1.42 -0.45 l
1.42 -0.18 l
1.42 0.16 l
1.42 -0.43 l
1.42 -0.39 l
1.42 0.08 l
1.42 -0.12 l
1.42 -0.36 l
1.42 -0.52 l
1.42 -0.01 l
1.42 -0.13 l
1.43 -0.60 l
1.42 -0.39 l
1.42 0.04 l
1.42 0.30 l
1.42 -0.09 l
1.42 -0.62 l
1.42 -0.67 l
1.42 0.20 l
1.42 0.19 l
1.42 -0.90 l
1.42 -0.78 l
1.42 0.28 l
213.87 376.45 lineto
1.42 -0.82 l
1.42 -0.79 l
1.42 0.24 l
1.42 0.69 l
1.42 -0.63 l
1.42 -1.39 l
1.42 0.21 l
1.42 0.94 l
1.42 -0.42 l
1.42 -1.53 l
1.42 -0.16 l
1.42 0.92 l
1.42 -0.42 l
1.42 -1.57 l
1.42 -0.29 l
1.42 1.30 l
1.42 -0.26 l
1.42 -1.74 l
1.42 -0.26 l
1.42 1.32 l
1.42 -0.44 l
1.42 -2.17 l
1.42 0.01 l
1.42 1.56 l
1.42 -0.59 l
1.42 -2.29 l
1.42 0.62 l
1.42 1.99 l
1.42 -1.50 l
1.42 -2.48 l
1.42 0.93 l
1.42 1.96 l
1.42 -1.96 l
1.42 -1.99 l
1.42 1.79 l
1.42 0.77 l
1.42 -2.43 l
1.42 -0.91 l
1.42 2.37 l
1.42 -0.21 l
1.42 -2.84 l
1.42 0.37 l
1.42 2.13 l
1.42 -1.16 l
1.42 -2.09 l
1.42 1.70 l
1.42 1.15 l
1.42 -2.55 l
1.42 -0.94 l
1.42 2.18 l
1.42 -0.18 l
1.42 -2.10 l
1.42 1.02 l
1.42 1.20 l
1.42 -1.76 l
1.42 -0.88 l
1.42 1.69 l
1.42 -0.04 l
1.42 -1.66 l
1.42 0.65 l
1.42 0.96 l
1.42 -0.83 l
1.42 -0.31 l
1.42 0.98 l
1.42 -0.50 l
1.42 -0.85 l
1.42 0.93 l
1.42 0.39 l
1.42 -0.72 l
1.42 -0.26 l
1.43 0.81 l
1.42 0.33 l
1.42 -0.82 l
1.42 -1.32 l
1.42 -0.81 l
1.42 -0.05 l
1.42 -0.65 l
1.42 -0.81 l
1.42 -1.52 l
1.42 -1.20 l
1.42 0.77 l
1.42 0.03 l
1.42 -2.54 l
1.42 -2.18 l
1.42 0.53 l
1.42 0.03 l
1.42 -0.59 l
1.42 -1.79 l
1.42 -2.97 l
1.42 1.37 l
1.42 2.16 l
1.42 -2.45 l
1.42 -3.84 l
1.42 -1.41 l
1.42 1.64 l
1.42 2.19 l
1.42 -2.97 l
1.42 -6.20 l
1.42 0.80 l
355.88 343.58 lineto
1.42 -0.75 l
1.42 -5.82 l
1.42 -4.56 l
1.42 3.83 l
1.42 5.10 l
1.42 -4.91 l
1.42 -8.59 l
1.42 -0.43 l
1.42 6.74 l
1.42 2.03 l
1.42 -9.12 l
1.42 -7.69 l
1.42 5.42 l
1.42 7.39 l
1.42 -5.07 l
1.42 -12.59 l
1.42 -1.37 l
1.42 10.88 l
1.42 1.29 l
1.42 -14.81 l
1.42 -9.67 l
1.42 10.16 l
1.42 10.11 l
1.42 -11.77 l
1.42 -17.48 l
1.42 4.04 l
1.42 16.18 l
1.42 -3.79 l
1.42 -21.45 l
1.42 -4.55 l
1.42 17.70 l
1.42 5.05 l
1.42 -20.50 l
1.42 -12.15 l
1.42 15.56 l
1.42 12.57 l
1.42 -15.33 l
1.42 -16.78 l
1.42 10.17 l
1.42 15.43 l
1.42 -11.14 l
1.42 -20.96 l
1.42 5.04 l
1.42 18.12 l
1.42 -8.83 l
1.42 -25.83 l
1.42 2.02 l
1.42 22.05 l
1.42 -6.10 l
1.42 -27.33 l
1.42 1.73 l
1.42 24.06 l
1.42 -4.78 l
1.43 -26.07 l
1.42 2.37 l
1.42 22.36 l
1.42 -5.24 l
1.42 -22.24 l
1.42 5.52 l
1.42 19.97 l
1.42 -7.42 l
1.42 -21.13 l
1.42 5.63 l
1.42 17.56 l
1.42 -10.24 l
1.42 -20.04 l
1.42 9.40 l
1.42 16.26 l
1.42 -15.02 l
1.42 -16.22 l
1.42 16.20 l
1.42 11.46 l
1.42 -19.13 l
1.42 -7.20 l
1.42 20.49 l
1.42 2.23 l
1.42 -20.00 l
1.42 3.40 l
1.42 19.20 l
1.42 -9.05 l
1.42 -19.21 l
1.42 9.86 l
1.42 12.24 l
1.42 -13.75 l
1.42 -5.59 l
1.42 16.92 l
1.42 -1.59 l
1.42 -17.96 l
1.42 6.24 l
1.42 12.66 l
1.42 -11.44 l
1.42 -6.70 l
1.42 14.46 l
1.42 0.33 l
1.42 -13.04 l
1.42 6.67 l
1.42 9.85 l
1.42 -10.20 l
1.42 -2.71 l
497.89 236.46 lineto
1.42 -1.46 l
1.42 -6.78 l
1.42 14.56 l
1.42 10.96 l
1.42 -4.06 l
1.42 8.33 l
1.42 19.91 l
1.42 4.52 l
1.42 -13.07 l
1.42 -12.00 l
1.42 -1.34 l
1.42 -6.42 l
1.42 -15.35 l
1.42 -0.63 l
1.42 2.55 l
1.42 -10.93 l
1.42 -3.08 l
1.42 2.55 l
1.42 -9.49 l
1.42 -3.95 l
1.42 4.96 l
1.42 -6.30 l
1.42 -2.61 l
1.42 4.64 l
1.42 -6.11 l
1.42 -2.57 l
1.42 3.54 l
1.42 -4.24 l
1.42 -0.35 l
1.42 3.60 l
1.42 -4.33 l
1.42 0.93 l
1.42 2.99 l
1.42 -3.84 l
1.42 2.24 l
1.42 0.86 l
1.43 -2.34 l
1.42 3.53 l
1.42 0.06 l
1.42 -0.70 l
1.42 3.38 l
1.42 -0.98 l
1.42 1.35 l
1.42 3.67 l
1.42 -1.09 l
1.42 3.25 l
1.42 0.92 l
1.42 0.47 l
1.42 4.44 l
1.42 -0.35 l
1.42 3.79 l
1.42 2.15 l
1.42 1.39 l
1.42 4.19 l
1.42 0.69 l
1.42 4.31 l
1.42 2.29 l
1.42 2.92 l
1.42 4.03 l
1.42 2.02 l
1.42 4.42 l
1.42 2.46 l
1.42 4.31 l
1.42 3.70 l
1.42 3.14 l
1.42 4.48 l
1.42 3.33 l
1.42 4.60 l
1.42 3.41 l
1.42 4.19 l
1.42 3.94 l
1.42 3.52 l
1.42 3.98 l
1.42 3.19 l
1.42 3.85 l
1.42 2.96 l
1.42 3.37 l
1.42 2.61 l
1.42 2.44 l
1.42 2.34 l
1.42 1.16 l
1.42 1.88 l
1.42 1.19 l
1.42 1.22 l
1.42 0.71 l
1.42 0.70 l
1.42 0.69 l
1.42 -0.07 l
1.42 0.35 l
1.42 0.07 l
1.42 0.24 l
1.42 -0.26 l
1.42 -0.11 l
1.42 -0.03 l
1.42 -0.19 l
1.42 0.09 l
1.42 -0.39 l
1.42 -0.07 l
1.42 -0.21 l
639.90 325.31 lineto
1.42 -0.26 l
1.42 -0.43 l
1.42 0.04 l
1.42 -0.07 l
1.42 -0.14 l
1.42 -0.54 l
1.42 0.04 l
1.42 -0.01 l
1.42 -0.10 l
1.42 -0.14 l
1.42 -0.47 l
1.42 -0.12 l
1.42 -0.20 l
1.42 -0.01 l
1.42 -0.30 l
1.42 -0.16 l
1.42 -0.01 l
1.42 -0.12 l
1.42 -0.03 l
1.43 -0.41 l
1.42 -0.08 l
1.42 -0.22 l
1.42 -0.05 l
1.42 0.03 l
1.42 -0.34 l
1.42 -0.21 l
1.42 -0.21 l
1.42 -0.05 l
1.42 -0.25 l
1.42 -0.28 l
1.42 -0.25 l
1.42 0 l
1.42 0 l
1.42 -0.38 l
1.42 -0.02 l
1.42 -0.03 l
1.42 -0.12 l
1.42 -0.20 l
1.42 -0.05 l
1.42 -0.16 l
1.42 -0.19 l
1.42 0.04 l
1.42 -0.23 l
1.42 -0.20 l
1.42 -0.40 l
1.42 -0.22 l
1.42 -0.04 l
1.42 -0.15 l
1.42 -0.01 l
1.42 -0.04 l
1.42 0 l
1.42 -0.16 l
1.42 -0.04 l
1.42 -0.10 l
1.42 -0.16 l
1.42 -0.03 l
1.42 -0.17 l
1.42 -0.32 l
1.42 -0.30 l
1.42 0.11 l
1.42 -0.12 l
1.42 -0.18 l
1.42 -0.03 l
1.42 -0.22 l
1.42 -0.11 l
1.42 -0.24 l
1.42 -0.22 l
1.42 -0.13 l
1.42 -0.04 l
1.42 0.01 l
1.42 -0.11 l
1.42 -0.15 l
1.42 -0.10 l
1.42 0.05 l
1.42 0.02 l
1.42 -0.02 l
1.42 -0.24 l
1.42 -0.17 l
1.42 -0.23 l
1.42 -0.17 l
1.42 0.15 l
1.42 -0.12 l
1.42 -0.14 l
1.42 -0.07 l
1.42 -0.06 l
1.42 -0.17 l
1.42 -0.13 l
1.42 0.04 l
1.42 -0.14 l
1.42 -0.22 l
1.42 -0.26 l
1.42 -0.16 l
1.42 -0.11 l
1.42 0.28 l
1.42 0 l
1.42 -0.41 l
1.42 0.07 l
1.42 -0.23 l
1.42 -0.24 l
781.91 311.94 lineto
1.42 -0.17 l
1.43 -0.01 l
1.42 -0.14 l
1.42 -0.12 l
1.42 -0.08 l
1.42 0.12 l
1.42 -0.14 l
1.42 -0.33 l
1.42 -0.09 l
1.42 0.03 l
1.42 -0.03 l
1.42 -0.14 l
1.42 -0.01 l
1.42 -0.28 l
1.42 -0.31 l
1.42 -0.17 l
1.42 -0.01 l
o
1 0 0 srgb
np
71.85 63.85 m
1.42 0.24 l
1.42 -0.05 l
1.42 -0.16 l
1.42 0.01 l
1.43 -0.17 l
1.42 0.10 l
1.42 0.22 l
1.42 0.13 l
1.42 -0.10 l
1.42 -0.15 l
1.42 -0.01 l
1.42 0.04 l
1.42 -0.14 l
1.42 -0.02 l
1.42 0.19 l
1.42 -0.02 l
1.42 0.01 l
1.42 -0.01 l
1.42 -0.02 l
1.42 0.12 l
1.42 0.08 l
1.42 -0.06 l
1.42 -0.22 l
1.42 -0.14 l
1.42 0.05 l
1.42 0.11 l
1.42 -0.04 l
1.42 -0.02 l
1.42 0.21 l
1.42 0.19 l
1.42 -0.14 l
1.42 -0.01 l
1.42 0 l
1.42 -0.47 l
1.42 0.06 l
1.42 0.46 l
1.42 0.10 l
1.42 -0.32 l
1.42 -0.14 l
1.42 0.20 l
1.42 -0.13 l
1.42 0.08 l
1.42 0.12 l
1.42 -0.06 l
1.42 -0.02 l
1.42 -0.03 l
1.42 0.04 l
1.42 -0.14 l
1.42 0.15 l
1.42 0.16 l
1.42 -0.09 l
1.42 -0.14 l
1.42 0.02 l
1.42 0.06 l
1.42 -0.27 l
1.42 0.09 l
1.42 0.18 l
1.42 0.07 l
1.42 0.01 l
1.42 -0.08 l
1.42 -0.09 l
1.42 -0.14 l
1.42 0.09 l
1.42 0.12 l
1.42 0.29 l
1.42 -0.05 l
1.42 -0.32 l
1.42 -0.04 l
1.42 -0.03 l
1.42 0.05 l
1.42 -0.14 l
1.42 0.07 l
1.42 0.29 l
1.42 0.14 l
1.42 -0.01 l
1.42 -0.24 l
1.42 -0.26 l
1.42 0.01 l
1.42 0.34 l
1.42 -0.20 l
1.42 -0.13 l
1.42 0.37 l
1.42 0.12 l
1.42 -0.15 l
1.42 -0.29 l
1.42 0.23 l
1.42 0.06 l
1.43 -0.40 l
1.42 -0.15 l
1.42 0.28 l
1.42 0.47 l
1.42 0.08 l
1.42 -0.37 l
1.42 -0.39 l
1.42 0.44 l
1.42 0.39 l
1.42 -0.62 l
1.42 -0.43 l
1.42 0.57 l
213.87 64.46 lineto
1.42 -0.56 l
1.42 -0.51 l
1.42 0.44 l
1.42 0.81 l
1.42 -0.41 l
1.42 -1.08 l
1.42 0.42 l
1.42 1.08 l
1.42 -0.13 l
1.42 -1.15 l
1.42 0.08 l
1.42 1.07 l
1.42 -0.11 l
1.42 -1.17 l
1.42 -0.07 l
1.42 1.40 l
1.42 0.11 l
1.42 -1.26 l
1.42 -0.06 l
1.42 1.39 l
1.42 -0.08 l
1.42 -1.72 l
1.42 0.17 l
1.42 1.69 l
1.42 -0.21 l
1.42 -1.88 l
1.42 0.73 l
1.42 2.12 l
1.42 -1.08 l
1.42 -2.13 l
1.42 1.03 l
1.42 2.17 l
1.42 -1.53 l
1.42 -1.68 l
1.42 1.95 l
1.42 1.06 l
1.42 -2.06 l
1.42 -0.70 l
1.42 2.47 l
1.42 -0.01 l
1.42 -2.58 l
1.42 0.59 l
1.42 2.29 l
1.42 -1.03 l
1.42 -1.89 l
1.42 1.91 l
1.42 1.27 l
1.42 -2.44 l
1.42 -0.73 l
1.42 2.37 l
1.42 -0.15 l
1.42 -1.96 l
1.42 1.31 l
1.42 1.33 l
1.42 -1.81 l
1.42 -0.75 l
1.42 1.87 l
1.42 -0.08 l
1.42 -1.68 l
1.42 0.80 l
1.42 1.06 l
1.42 -0.86 l
1.42 -0.26 l
1.42 0.98 l
1.42 -0.66 l
1.42 -0.97 l
1.42 0.99 l
1.42 0.39 l
1.42 -0.90 l
1.42 -0.23 l
1.43 1.15 l
1.42 0.64 l
1.42 -0.57 l
1.42 -0.89 l
1.42 -0.26 l
1.42 0.64 l
1.42 0.24 l
1.42 -0.07 l
1.42 -0.91 l
1.42 -0.29 l
1.42 1.88 l
1.42 0.94 l
1.42 -1.95 l
1.42 -1.62 l
1.42 1.46 l
1.42 1.20 l
1.42 0.16 l
1.42 -1.37 l
1.42 -2.26 l
1.42 2.49 l
1.42 3.29 l
1.42 -1.88 l
1.42 -3.52 l
1.42 -0.41 l
1.42 3.14 l
1.42 3.21 l
1.42 -2.64 l
1.42 -5.62 l
1.42 2.19 l
355.88 67.66 lineto
1.42 -0.02 l
1.42 -5.62 l
1.42 -3.60 l
1.42 5.69 l
1.42 6.47 l
1.42 -4.56 l
1.42 -8.01 l
1.42 1.26 l
1.42 8.69 l
1.42 2.87 l
1.42 -8.94 l
1.42 -6.32 l
1.42 7.82 l
1.42 8.97 l
1.42 -4.59 l
1.42 -11.53 l
1.42 1.12 l
1.42 13.35 l
1.42 2.45 l
1.42 -13.71 l
1.42 -7.28 l
1.42 12.89 l
1.42 11.83 l
1.42 -10.49 l
1.42 -15.35 l
1.42 6.68 l
1.42 18.14 l
1.42 -2.24 l
1.42 -19.37 l
1.42 -2.27 l
1.42 19.33 l
1.42 6.34 l
1.42 -18.58 l
1.42 -10.25 l
1.42 16.32 l
1.42 13.18 l
1.42 -13.34 l
1.42 -14.60 l
1.42 10.77 l
1.42 16.02 l
1.42 -8.20 l
1.42 -17.50 l
1.42 6.36 l
1.42 19.22 l
1.42 -5.02 l
1.42 -21.54 l
1.42 3.46 l
1.42 22.78 l
1.42 -2.65 l
1.42 -23.28 l
1.42 2.64 l
1.42 23.72 l
1.42 -2.47 l
1.43 -22.94 l
1.42 2.22 l
1.42 20.98 l
1.42 -3.36 l
1.42 -19.31 l
1.42 5.00 l
1.42 18.70 l
1.42 -5.04 l
1.42 -18.02 l
1.42 5.42 l
1.42 17.24 l
1.42 -7.22 l
1.42 -17.12 l
1.42 9.39 l
1.42 16.64 l
1.42 -12.33 l
1.42 -14.65 l
1.42 15.26 l
1.42 11.11 l
1.42 -18.06 l
1.42 -7.00 l
1.42 19.82 l
1.42 2.38 l
1.42 -19.25 l
1.42 3.77 l
1.42 19.17 l
1.42 -8.91 l
1.42 -18.40 l
1.42 10.94 l
1.42 12.56 l
1.42 -13.65 l
1.42 -4.45 l
1.42 18.02 l
1.42 -2.01 l
1.42 -18.20 l
1.42 7.39 l
1.42 12.81 l
1.42 -12.75 l
1.42 -6.35 l
1.42 15.95 l
1.42 -0.16 l
1.42 -14.16 l
1.42 7.31 l
1.42 10.53 l
1.42 -11.13 l
1.42 -4.29 l
497.89 70.52 lineto
1.42 -5.91 l
1.42 -12.96 l
1.42 8.74 l
1.42 5.38 l
1.42 -10.13 l
1.42 3.93 l
1.42 18.04 l
1.42 3.27 l
1.42 -12.85 l
1.42 -8.48 l
1.42 3.28 l
1.42 -1.51 l
1.42 -8.22 l
1.42 6.79 l
1.42 8.32 l
1.42 -5.29 l
1.42 1.94 l
1.42 5.30 l
1.42 -7.90 l
1.42 -2.21 l
1.42 7.16 l
1.42 -4.13 l
1.42 -1.28 l
1.42 6.20 l
1.42 -4.28 l
1.42 -1.97 l
1.42 4.04 l
1.42 -3.23 l
1.42 -0.05 l
1.42 3.83 l
1.42 -3.73 l
1.42 0.92 l
1.42 2.73 l
1.42 -3.84 l
1.42 1.97 l
1.42 0.28 l
1.43 -2.68 l
1.42 3.07 l
1.42 -0.87 l
1.42 -1.37 l
1.42 2.43 l
1.42 -2.28 l
1.42 0.41 l
1.42 2.20 l
1.42 -2.64 l
1.42 1.87 l
1.42 -0.90 l
1.42 -1.25 l
1.42 2.60 l
1.42 -2.48 l
1.42 1.64 l
1.42 -0.09 l
1.42 -1.08 l
1.42 1.72 l
1.42 -2.00 l
1.42 1.39 l
1.42 -0.51 l
1.42 -0.18 l
1.42 0.94 l
1.42 -1.18 l
1.42 0.95 l
1.42 -0.90 l
1.42 0.62 l
1.42 0.04 l
1.42 -0.60 l
1.42 0.60 l
1.42 -0.47 l
1.42 0.60 l
1.42 -0.47 l
1.42 0.24 l
1.42 0.01 l
1.42 -0.28 l
1.42 0.21 l
1.42 -0.37 l
1.42 0.39 l
1.42 -0.22 l
1.42 0.43 l
1.42 -0.12 l
1.42 0.02 l
1.42 0.17 l
1.42 -0.67 l
1.42 0.30 l
1.42 -0.11 l
1.42 0.18 l
1.42 -0.11 l
1.42 0.09 l
1.42 0.21 l
1.42 -0.39 l
1.42 0.13 l
1.42 -0.02 l
1.42 0.20 l
1.42 -0.24 l
1.42 0 l
1.42 0.09 l
1.42 -0.06 l
1.42 0.21 l
1.42 -0.23 l
1.42 0.08 l
1.42 -0.04 l
639.90 64.11 lineto
1.42 -0.10 l
1.42 -0.28 l
1.42 0.20 l
1.42 0.10 l
1.42 0.02 l
1.42 -0.38 l
1.42 0.20 l
1.42 0.16 l
1.42 0.08 l
1.42 0.03 l
1.42 -0.31 l
1.42 0.03 l
1.42 -0.02 l
1.42 0.17 l
1.42 -0.15 l
1.42 -0.01 l
1.42 0.14 l
1.42 0.04 l
1.42 0.11 l
1.43 -0.31 l
1.42 0.04 l
1.42 -0.07 l
1.42 0.13 l
1.42 0.19 l
1.42 -0.17 l
1.42 -0.01 l
1.42 -0.03 l
1.42 0.14 l
1.42 -0.08 l
1.42 -0.11 l
1.42 -0.09 l
1.42 0.18 l
1.42 0.15 l
1.42 -0.25 l
1.42 0.07 l
1.42 0.06 l
1.42 -0.02 l
1.42 -0.09 l
1.42 0.07 l
1.42 -0.01 l
1.42 -0.03 l
1.42 0.23 l
1.42 -0.05 l
1.42 -0.03 l
1.42 -0.24 l
1.42 -0.04 l
1.42 0.11 l
1.42 -0.05 l
1.42 0.09 l
1.42 0.04 l
1.42 0.08 l
1.42 -0.08 l
1.42 0.04 l
1.42 -0.01 l
1.42 -0.05 l
1.42 0.09 l
1.42 -0.02 l
1.42 -0.18 l
1.42 -0.15 l
1.42 0.27 l
1.42 0.03 l
1.42 -0.03 l
1.42 0.11 l
1.42 -0.07 l
1.42 0.05 l
1.42 -0.10 l
1.42 -0.09 l
1.42 -0.02 l
1.42 0.05 l
1.42 0.11 l
1.42 -0.02 l
1.42 -0.09 l
1.42 -0.03 l
1.42 0.12 l
1.42 0.10 l
1.42 0.06 l
1.42 -0.16 l
1.42 -0.05 l
1.42 -0.11 l
1.42 -0.06 l
1.42 0.24 l
1.42 -0.04 l
1.42 -0.04 l
1.42 0.06 l
1.42 0.04 l
1.42 -0.07 l
1.42 -0.01 l
1.42 0.14 l
1.42 -0.02 l
1.42 -0.12 l
1.42 -0.14 l
1.42 -0.06 l
1.42 -0.02 l
1.42 0.38 l
1.42 0.11 l
1.42 -0.28 l
1.42 0.19 l
1.42 -0.12 l
1.42 -0.13 l
781.91 63.85 lineto
1.42 -0.05 l
1.43 0.14 l
1.42 0.01 l
1.42 -0.02 l
1.42 0 l
1.42 0.22 l
1.42 -0.06 l
1.42 -0.25 l
1.42 -0.01 l
1.42 0.11 l
1.42 0.06 l
1.42 -0.05 l
1.42 0.10 l
1.42 -0.14 l
1.42 -0.13 l
1.42 0.05 l
1.42 0.27 l
o
np
71.85 304.39 m
1.42 -0.11 l
1.42 -0.17 l
1.42 -0.21 l
1.42 -0.24 l
1.43 -0.26 l
1.42 -0.28 l
1.42 -0.28 l
1.42 -0.28 l
1.42 -0.27 l
1.42 -0.26 l
1.42 -0.25 l
1.42 -0.23 l
1.42 -0.19 l
1.42 -0.20 l
1.42 -0.20 l
1.42 -0.21 l
1.42 -0.22 l
1.42 -0.20 l
1.42 -0.23 l
1.42 -0.25 l
1.42 -0.27 l
1.42 -0.29 l
1.42 -0.25 l
1.42 -0.20 l
1.42 -0.20 l
1.42 -0.20 l
1.42 -0.17 l
1.42 -0.14 l
1.42 -0.14 l
1.42 -0.13 l
1.42 -0.15 l
1.42 -0.17 l
1.42 -0.20 l
1.42 -0.26 l
1.42 -0.28 l
1.42 -0.30 l
1.42 -0.28 l
1.42 -0.28 l
1.42 -0.28 l
1.42 -0.26 l
1.42 -0.22 l
1.42 -0.19 l
1.42 -0.21 l
1.42 -0.18 l
1.42 -0.18 l
1.42 -0.21 l
1.42 -0.18 l
1.42 -0.20 l
1.42 -0.23 l
1.42 -0.27 l
1.42 -0.26 l
1.42 -0.25 l
1.42 -0.25 l
1.42 -0.25 l
1.42 -0.26 l
1.42 -0.25 l
1.42 -0.22 l
1.42 -0.19 l
1.42 -0.19 l
1.42 -0.18 l
1.42 -0.15 l
1.42 -0.18 l
1.42 -0.23 l
1.42 -0.26 l
1.42 -0.27 l
1.42 -0.26 l
1.42 -0.26 l
1.42 -0.25 l
1.42 -0.25 l
1.42 -0.23 l
1.42 -0.22 l
1.42 -0.24 l
1.42 -0.25 l
1.42 -0.21 l
1.42 -0.18 l
1.42 -0.19 l
1.42 -0.18 l
1.42 -0.18 l
1.42 -0.19 l
1.42 -0.23 l
1.42 -0.27 l
1.42 -0.28 l
1.42 -0.24 l
1.42 -0.20 l
1.42 -0.24 l
1.42 -0.25 l
1.42 -0.19 l
1.43 -0.19 l
1.42 -0.24 l
1.42 -0.24 l
1.42 -0.17 l
1.42 -0.17 l
1.42 -0.25 l
1.42 -0.28 l
1.42 -0.24 l
1.42 -0.20 l
1.42 -0.28 l
1.42 -0.34 l
1.42 -0.30 l
213.87 281.82 lineto
1.42 -0.26 l
1.42 -0.28 l
1.42 -0.20 l
1.42 -0.12 l
1.42 -0.21 l
1.42 -0.32 l
1.42 -0.21 l
1.42 -0.14 l
1.42 -0.29 l
1.42 -0.39 l
1.42 -0.23 l
1.42 -0.15 l
1.42 -0.31 l
1.42 -0.40 l
1.42 -0.22 l
1.42 -0.11 l
1.42 -0.36 l
1.42 -0.48 l
1.42 -0.20 l
1.42 -0.07 l
1.42 -0.36 l
1.42 -0.44 l
1.42 -0.17 l
1.42 -0.12 l
1.42 -0.40 l
1.42 -0.40 l
1.42 -0.11 l
1.42 -0.14 l
1.42 -0.41 l
1.42 -0.34 l
1.42 -0.12 l
1.42 -0.21 l
1.42 -0.42 l
1.42 -0.31 l
1.42 -0.16 l
1.42 -0.29 l
1.42 -0.37 l
1.42 -0.21 l
1.42 -0.11 l
1.42 -0.19 l
1.42 -0.26 l
1.42 -0.21 l
1.42 -0.17 l
1.42 -0.14 l
1.42 -0.19 l
1.42 -0.21 l
1.42 -0.12 l
1.42 -0.11 l
1.42 -0.21 l
1.42 -0.19 l
1.42 -0.04 l
1.42 -0.13 l
1.42 -0.29 l
1.42 -0.12 l
1.42 0.04 l
1.42 -0.12 l
1.42 -0.18 l
1.42 0.03 l
1.42 0.02 l
1.42 -0.15 l
1.42 -0.10 l
1.42 0.03 l
1.42 -0.04 l
1.42 -0.02 l
1.42 0.17 l
1.42 0.12 l
1.42 -0.06 l
1.42 0 l
1.42 0.18 l
1.42 -0.03 l
1.43 -0.33 l
1.42 -0.32 l
1.42 -0.26 l
1.42 -0.42 l
1.42 -0.55 l
1.42 -0.68 l
1.42 -0.91 l
1.42 -0.73 l
1.42 -0.60 l
1.42 -0.92 l
1.42 -1.11 l
1.42 -0.91 l
1.42 -0.59 l
1.42 -0.56 l
1.42 -0.92 l
1.42 -1.18 l
1.42 -0.76 l
1.42 -0.41 l
1.42 -0.71 l
1.42 -1.13 l
1.42 -1.12 l
1.42 -0.57 l
1.42 -0.32 l
1.42 -1.00 l
1.42 -1.50 l
1.42 -1.02 l
1.42 -0.34 l
1.42 -0.58 l
1.42 -1.38 l
355.88 245.75 lineto
1.42 -0.73 l
1.42 -0.20 l
1.42 -0.96 l
1.42 -1.86 l
1.42 -1.37 l
1.42 -0.35 l
1.42 -0.58 l
1.42 -1.70 l
1.42 -1.94 l
1.42 -0.84 l
1.42 -0.19 l
1.42 -1.36 l
1.42 -2.40 l
1.42 -1.58 l
1.42 -0.48 l
1.42 -1.06 l
1.42 -2.49 l
1.42 -2.47 l
1.42 -1.16 l
1.42 -1.09 l
1.42 -2.40 l
1.42 -2.73 l
1.42 -1.72 l
1.42 -1.28 l
1.42 -2.13 l
1.42 -2.64 l
1.42 -1.96 l
1.42 -1.55 l
1.42 -2.08 l
1.42 -2.29 l
1.42 -1.62 l
1.42 -1.29 l
1.42 -1.92 l
1.42 -1.90 l
1.42 -0.76 l
1.42 -0.61 l
1.42 -1.99 l
1.42 -2.19 l
1.42 -0.59 l
1.42 -0.59 l
1.42 -2.94 l
1.42 -3.46 l
1.42 -1.32 l
1.42 -1.11 l
1.42 -3.80 l
1.42 -4.29 l
1.42 -1.44 l
1.42 -0.73 l
1.42 -3.45 l
1.42 -4.05 l
1.42 -0.91 l
1.42 0.34 l
1.42 -2.31 l
1.43 -3.13 l
1.42 0.16 l
1.42 1.37 l
1.42 -1.88 l
1.42 -2.93 l
1.42 0.52 l
1.42 1.27 l
1.42 -2.38 l
1.42 -3.11 l
1.42 0.21 l
1.42 0.32 l
1.42 -3.02 l
1.42 -2.93 l
1.42 0.02 l
1.42 -0.38 l
1.42 -2.70 l
1.42 -1.56 l
1.42 0.95 l
1.42 0.34 l
1.42 -1.07 l
1.42 -0.20 l
1.42 0.67 l
1.42 -0.15 l
1.42 -0.75 l
1.42 -0.37 l
1.42 0.03 l
1.42 -0.14 l
1.42 -0.82 l
1.42 -1.07 l
1.42 -0.32 l
1.42 -0.10 l
1.42 -1.15 l
1.42 -1.09 l
1.42 0.41 l
1.42 0.26 l
1.42 -1.16 l
1.42 -0.15 l
1.42 1.31 l
1.42 -0.35 l
1.42 -1.49 l
1.42 0.49 l
1.42 1.12 l
1.42 -0.64 l
1.42 -0.69 l
1.42 0.93 l
1.42 1.59 l
497.89 135.77 lineto
1.42 4.45 l
1.42 6.18 l
1.42 5.82 l
1.42 5.58 l
1.42 6.07 l
1.42 4.40 l
1.42 1.86 l
1.42 1.26 l
1.42 -0.22 l
1.42 -3.52 l
1.42 -4.61 l
1.42 -4.93 l
1.42 -7.12 l
1.42 -7.42 l
1.42 -5.77 l
1.42 -5.64 l
1.42 -5.02 l
1.42 -2.75 l
1.42 -1.59 l
1.42 -1.75 l
1.42 -2.19 l
1.42 -2.17 l
1.42 -1.33 l
1.42 -1.56 l
1.42 -1.83 l
1.42 -0.59 l
1.42 -0.50 l
1.42 -1.03 l
1.42 -0.29 l
1.42 -0.23 l
1.42 -0.60 l
1.42 0.01 l
1.42 0.25 l
1.42 0.01 l
1.42 0.28 l
1.42 0.56 l
1.43 0.34 l
1.42 0.46 l
1.42 0.94 l
1.42 0.66 l
1.42 0.96 l
1.42 1.30 l
1.42 0.94 l
1.42 1.47 l
1.42 1.55 l
1.42 1.38 l
1.42 1.81 l
1.42 1.73 l
1.42 1.84 l
1.42 2.13 l
1.42 2.14 l
1.42 2.24 l
1.42 2.48 l
1.42 2.47 l
1.42 2.69 l
1.42 2.92 l
1.42 2.80 l
1.42 3.10 l
1.42 3.09 l
1.42 3.19 l
1.42 3.48 l
1.42 3.36 l
1.42 3.69 l
1.42 3.66 l
1.42 3.74 l
1.42 3.89 l
1.42 3.80 l
1.42 3.99 l
1.42 3.88 l
1.42 3.95 l
1.42 3.93 l
1.42 3.80 l
1.42 3.77 l
1.42 3.56 l
1.42 3.46 l
1.42 3.18 l
1.42 2.94 l
1.42 2.73 l
1.42 2.43 l
1.42 2.16 l
1.42 1.82 l
1.42 1.59 l
1.42 1.29 l
1.42 1.05 l
1.42 0.82 l
1.42 0.61 l
1.42 0.47 l
1.42 0.32 l
1.42 0.23 l
1.42 0.09 l
1.42 0.04 l
1.42 -0.02 l
1.42 -0.11 l
1.42 -0.12 l
1.42 -0.13 l
1.42 -0.12 l
1.42 -0.15 l
1.42 -0.16 l
1.42 -0.18 l
639.90 231.02 lineto
1.42 -0.15 l
1.42 -0.15 l
1.42 -0.16 l
1.42 -0.17 l
1.42 -0.16 l
1.42 -0.16 l
1.42 -0.16 l
1.42 -0.17 l
1.42 -0.18 l
1.42 -0.17 l
1.42 -0.16 l
1.42 -0.15 l
1.42 -0.18 l
1.42 -0.18 l
1.42 -0.15 l
1.42 -0.14 l
1.42 -0.16 l
1.42 -0.16 l
1.42 -0.13 l
1.43 -0.11 l
1.42 -0.12 l
1.42 -0.16 l
1.42 -0.17 l
1.42 -0.16 l
1.42 -0.18 l
1.42 -0.18 l
1.42 -0.19 l
1.42 -0.19 l
1.42 -0.17 l
1.42 -0.17 l
1.42 -0.16 l
1.42 -0.18 l
1.42 -0.15 l
1.42 -0.13 l
1.42 -0.10 l
1.42 -0.08 l
1.42 -0.11 l
1.42 -0.10 l
1.42 -0.12 l
1.42 -0.15 l
1.42 -0.16 l
1.42 -0.18 l
1.42 -0.19 l
1.42 -0.17 l
1.42 -0.16 l
1.42 -0.18 l
1.42 -0.15 l
1.42 -0.10 l
1.42 -0.09 l
1.42 -0.09 l
1.42 -0.08 l
1.42 -0.08 l
1.42 -0.08 l
1.42 -0.09 l
1.42 -0.11 l
1.42 -0.12 l
1.42 -0.14 l
1.42 -0.15 l
1.42 -0.14 l
1.42 -0.17 l
1.42 -0.15 l
1.42 -0.15 l
1.42 -0.14 l
1.42 -0.15 l
1.42 -0.16 l
1.42 -0.14 l
1.42 -0.13 l
1.42 -0.11 l
1.42 -0.09 l
1.42 -0.10 l
1.42 -0.09 l
1.42 -0.06 l
1.42 -0.07 l
1.42 -0.08 l
1.42 -0.07 l
1.42 -0.08 l
1.42 -0.09 l
1.42 -0.11 l
1.42 -0.12 l
1.42 -0.11 l
1.42 -0.09 l
1.42 -0.08 l
1.42 -0.10 l
1.42 -0.12 l
1.42 -0.11 l
1.42 -0.11 l
1.42 -0.10 l
1.42 -0.11 l
1.42 -0.11 l
1.42 -0.11 l
1.42 -0.11 l
1.42 -0.11 l
1.42 -0.09 l
1.42 -0.10 l
1.42 -0.11 l
1.42 -0.13 l
1.42 -0.12 l
1.42 -0.11 l
1.42 -0.11 l
781.91 217.92 lineto
1.42 -0.12 l
1.43 -0.15 l
1.42 -0.14 l
1.42 -0.12 l
1.42 -0.08 l
1.42 -0.09 l
1.42 -0.08 l
1.42 -0.08 l
1.42 -0.08 l
1.42 -0.08 l
1.42 -0.08 l
1.42 -0.10 l
1.42 -0.12 l
1.42 -0.14 l
1.42 -0.17 l
1.42 -0.22 l
1.42 -0.27 l
o
0.00 0.00 848.25 421.50 cl
0.00 0.00 848.25 421.50 cl
0.00 0.00 848.25 421.50 cl
0.00 0.00 848.25 421.50 cl
0.00 0.00 848.25 421.50 cl
0.00 0.00 848.25 421.50 cl
/Font1 findfont 9 s
0.3020 0.3020 0.3020 srgb
30.21 60.71 (-1) 1 0 t
30.21 154.82 (0) 1 0 t
30.21 248.93 (1) 1 0 t
30.21 343.04 (2) 1 0 t
0.00 0.00 848.25 421.50 cl
0.00 0.00 848.25 421.50 cl
0.2000 0.2000 0.2000 srgb
1.07 setlinewidth
[] 0 setdash
0 setlinecap
1 setlinejoin
10.00 setmiterlimit
np
32.40 63.94 m
2.74 0 l
o
np
32.40 158.05 m
2.74 0 l
o
np
32.40 252.16 m
2.74 0 l
o
np
32.40 346.27 m
2.74 0 l
o
0.00 0.00 848.25 421.50 cl
0.00 0.00 848.25 421.50 cl
0.00 0.00 848.25 421.50 cl
0.00 0.00 848.25 421.50 cl
0.00 0.00 848.25 421.50 cl
0.00 0.00 848.25 421.50 cl
0.00 0.00 848.25 421.50 cl
0.00 0.00 848.25 421.50 cl
0.2000 0.2000 0.2000 srgb
1.07 setlinewidth
[] 0 setdash
0 setlinecap
1 setlinejoin
10.00 setmiterlimit
np
71.00 28.61 m
0 2.74 l
o
np
218.25 28.61 m
0 2.74 l
o
np
365.50 28.61 m
0 2.74 l
o
np
512.76 28.61 m
0 2.74 l
o
np
660.01 28.61 m
0 2.74 l
o
np
807.26 28.61 m
0 2.74 l
o
0.00 0.00 848.25 421.50 cl
0.00 0.00 848.25 421.50 cl
/Font1 findfont 9 s
0.3020 0.3020 0.3020 srgb
71.00 19.95 (2200) .5 0 t
218.25 19.95 (2250) .5 0 t
365.50 19.95 (2300) .5 0 t
512.76 19.95 (2350) .5 0 t
660.01 19.95 (2400) .5 0 t
807.26 19.95 (2450) .5 0 t
0.00 0.00 848.25 421.50 cl
0.00 0.00 848.25 421.50 cl
0.00 0.00 848.25 421.50 cl
0.00 0.00 848.25 421.50 cl
/Font1 findfont 11 s
0 0 0 srgb
438.96 7.67 (WN) .5 0 t
0.00 0.00 848.25 421.50 cl
0.00 0.00 848.25 421.50 cl
/Font1 findfont 11 s
0 0 0 srgb
15.57 223.68 (Int) .5 90 t
0.00 0.00 848.25 421.50 cl
0.00 0.00 848.25 421.50 cl
0.00 0.00 848.25 421.50 cl
0.00 0.00 848.25 421.50 cl
ep
%%Trailer
%%Pages: 1
%%EOF
