%!PS-Adobe-3.0 EPSF-3.0
%%DocumentNeededResources: font Helvetica
%%+ font Helvetica-Bold
%%+ font Helvetica-Oblique
%%+ font Helvetica-BoldOblique
%%+ font Symbol
%%Title: R Graphics Output
%%Creator: R Software
%%Pages: (atend)
%%BoundingBox: 0 0 1271 615
%%EndComments
%%BeginProlog
/bp  { gs sRGB gs } def
% begin .ps.prolog
/gs  { gsave } bind def
/gr  { grestore } bind def
/ep  { showpage gr gr } bind def
/m   { moveto } bind def
/l  { rlineto } bind def
/np  { newpath } bind def
/cp  { closepath } bind def
/f   { fill } bind def
/o   { stroke } bind def
/c   { newpath 0 360 arc } bind def
/r   { 4 2 roll moveto 1 copy 3 -1 roll exch 0 exch rlineto 0 rlineto -1 mul 0 exch rlineto closepath } bind def
/p1  { stroke } bind def
/p2  { gsave bg fill grestore newpath } bind def
/p3  { gsave bg fill grestore stroke } bind def
/p6  { gsave bg eofill grestore newpath } bind def
/p7  { gsave bg eofill grestore stroke } bind def
/t   { 5 -2 roll moveto gsave rotate
       1 index stringwidth pop
       mul neg 0 rmoveto show grestore } bind def
/ta  { 4 -2 roll moveto gsave rotate show } bind def
/tb  { 2 -1 roll 0 rmoveto show } bind def
/cl  { grestore gsave newpath 3 index 3 index moveto 1 index
       4 -1 roll lineto  exch 1 index lineto lineto
       closepath clip newpath } bind def
/rgb { setrgbcolor } bind def
/s   { scalefont setfont } bind def
% end   .ps.prolog
/sRGB { [ /CIEBasedABC
          << /DecodeLMN
               [ { dup 0.03928 le
                        {12.92321 div}
                        {0.055 add 1.055 div 2.4 exp }
                     ifelse
                 } bind dup dup
               ]
             /MatrixLMN [0.412457 0.212673 0.019334
                         0.357576 0.715152 0.119192
                         0.180437 0.072175 0.950301]
             /WhitePoint [0.9505 1.0 1.0890]
           >>
         ] setcolorspace } bind def
/srgb { setcolor } bind def
% begin encoding
/WinAnsiEncoding [
 /.notdef /.notdef /.notdef /.notdef /.notdef /.notdef /.notdef /.notdef
 /.notdef /.notdef /.notdef /.notdef /.notdef /.notdef /.notdef /.notdef
 /.notdef /.notdef /.notdef /.notdef /.notdef /.notdef /.notdef /.notdef
 /.notdef /.notdef /.notdef /.notdef /.notdef /.notdef /.notdef /.notdef
 /space /exclam /quotedbl /numbersign /dollar /percent /ampersand /quoteright
 /parenleft /parenright /asterisk /plus /comma /minus /period /slash
 /zero /one /two /three /four /five /six /seven
 /eight /nine /colon /semicolon /less /equal /greater /question
 /at /A /B /C /D /E /F /G
 /H /I /J /K /L /M /N /O
 /P /Q /R /S /T /U /V /W
 /X /Y /Z /bracketleft /backslash /bracketright /asciicircum /underscore
 /grave /a /b /c /d /e /f /g
 /h /i /j /k /l /m /n /o
 /p /q /r /s /t /u /v /w
 /x /y /z /braceleft /bar /braceright /asciitilde /.notdef
 /Euro /.notdef /quotesinglbase /florin /quotedblbase /ellipsis /dagger /daggerdbl
 /circumflex /perthousand /Scaron /guilsinglleft /OE /.notdef /Zcaron /.notdef
 /.notdef /quoteleft /quoteright /quotedblleft /quotedblright /bullet /endash /emdash
 /tilde /trademark /scaron /guilsinglright /oe /.notdef /zcaron /Ydieresis
 /space /exclamdown /cent /sterling /currency /yen /brokenbar /section
 /dieresis /copyright /ordfeminine /guillemotleft /logicalnot /hyphen /registered /macron
 /degree /plusminus /twosuperior /threesuperior /acute /mu /paragraph /periodcentered
 /cedilla /onesuperior /ordmasculine /guillemotright /onequarter /onehalf /threequarters /questiondown
 /Agrave /Aacute /Acircumflex /Atilde /Adieresis /Aring /AE /Ccedilla
 /Egrave /Eacute /Ecircumflex /Edieresis /Igrave /Iacute /Icircumflex /Idieresis
 /Eth /Ntilde /Ograve /Oacute /Ocircumflex /Otilde /Odieresis /multiply
 /Oslash /Ugrave /Uacute /Ucircumflex /Udieresis /Yacute /Thorn /germandbls
 /agrave /aacute /acircumflex /atilde /adieresis /aring /ae /ccedilla
 /egrave /eacute /ecircumflex /edieresis /igrave /iacute /icircumflex /idieresis
 /eth /ntilde /ograve /oacute /ocircumflex /otilde /odieresis /divide
 /oslash /ugrave /uacute /ucircumflex /udieresis /yacute /thorn /ydieresis
]
 def
% end encoding
%%IncludeResource: font Helvetica
/Helvetica findfont
dup length dict begin
  {1 index /FID ne {def} {pop pop} ifelse} forall
  /Encoding WinAnsiEncoding def
  currentdict
  end
/Font1 exch definefont pop
%%IncludeResource: font Helvetica-Bold
/Helvetica-Bold findfont
dup length dict begin
  {1 index /FID ne {def} {pop pop} ifelse} forall
  /Encoding WinAnsiEncoding def
  currentdict
  end
/Font2 exch definefont pop
%%IncludeResource: font Helvetica-Oblique
/Helvetica-Oblique findfont
dup length dict begin
  {1 index /FID ne {def} {pop pop} ifelse} forall
  /Encoding WinAnsiEncoding def
  currentdict
  end
/Font3 exch definefont pop
%%IncludeResource: font Helvetica-BoldOblique
/Helvetica-BoldOblique findfont
dup length dict begin
  {1 index /FID ne {def} {pop pop} ifelse} forall
  /Encoding WinAnsiEncoding def
  currentdict
  end
/Font4 exch definefont pop
%%IncludeResource: font Symbol
/Symbol findfont
dup length dict begin
  {1 index /FID ne {def} {pop pop} ifelse} forall
  currentdict
  end
/Font5 exch definefont pop
%%EndProlog
%%Page: 1 1
bp
0.00 0.00 1271.25 615.00 cl
0.00 0.00 1271.25 615.00 cl
0.00 0.00 1271.25 615.00 cl
0.00 0.00 1271.25 615.00 cl
0.00 0.00 1271.25 615.00 cl
0.00 0.00 1271.25 615.00 cl
0.00 0.00 1271.25 615.00 cl
0.00 0.00 1271.25 615.00 cl
0.00 0.00 1271.25 615.00 cl
/bg { 1 1 1 srgb } def
1 1 1 srgb
1.07 setlinewidth
[] 0 setdash
1 setlinecap
1 setlinejoin
10.00 setmiterlimit
-0.00 0.00 1271.25 615.00 r p3
0.00 0.00 1271.25 615.00 cl
0.00 0.00 1271.25 615.00 cl
0.00 0.00 1271.25 615.00 cl
29.89 79.61 1265.77 609.52 cl
/bg { 0.9216 0.9216 0.9216 srgb } def
29.89 79.61 1235.88 529.91 r p2
1 1 1 srgb
0.53 setlinewidth
[] 0 setdash
0 setlinecap
1 setlinejoin
10.00 setmiterlimit
np
29.89 221.54 m
1235.88 0 l
o
np
29.89 374.76 m
1235.88 0 l
o
np
29.89 527.97 m
1235.88 0 l
o
np
226.48 79.61 m
0 529.91 l
o
np
507.40 79.61 m
0 529.91 l
o
np
788.33 79.61 m
0 529.91 l
o
np
1069.25 79.61 m
0 529.91 l
o
1.07 setlinewidth
[] 0 setdash
np
29.89 144.93 m
1235.88 0 l
o
np
29.89 298.15 m
1235.88 0 l
o
np
29.89 451.37 m
1235.88 0 l
o
np
29.89 604.58 m
1235.88 0 l
o
np
86.01 79.61 m
0 529.91 l
o
np
366.94 79.61 m
0 529.91 l
o
np
647.86 79.61 m
0 529.91 l
o
np
928.79 79.61 m
0 529.91 l
o
np
1209.71 79.61 m
0 529.91 l
o
0.9725 0.4627 0.4275 srgb
1.00 setmiterlimit
np
86.06 151.35 m
0.28 -0.34 l
0.27 -0.27 l
0.27 -0.07 l
0.27 0.22 l
0.27 -0.08 l
0.27 -0.35 l
0.27 -0.29 l
0.27 -0.08 l
0.27 -0.13 l
0.27 -0.39 l
0.27 0 l
0.28 -0.13 l
0.27 -0.40 l
0.27 -0.22 l
0.27 -0.08 l
0.27 -0.11 l
0.27 -0.19 l
0.27 -0.09 l
0.27 -0.19 l
0.27 -0.16 l
0.27 -0.16 l
0.27 -0.18 l
0.28 -0.16 l
0.27 -0.08 l
0.27 -0.19 l
0.27 -0.38 l
0.27 -0.09 l
0.27 -0.06 l
0.27 -0.08 l
0.27 -0.22 l
0.27 -0.29 l
0.27 -0.22 l
0.28 -0.15 l
0.27 0.07 l
0.27 -0.15 l
0.27 -0.18 l
0.27 -0.35 l
0.27 -0.26 l
0.27 0.05 l
0.27 -0.03 l
0.27 -0.05 l
0.27 -0.18 l
0.27 0.06 l
0.28 -0.12 l
0.27 -0.23 l
0.27 -0.11 l
0.27 -0.30 l
0.27 -0.23 l
0.27 -0.21 l
0.27 -0.04 l
0.27 -0.16 l
0.27 -0.10 l
0.27 -0.02 l
0.27 -0.29 l
0.28 -0.20 l
0.27 0 l
0.27 0.06 l
0.27 -0.29 l
0.27 -0.17 l
0.27 0.02 l
0.27 -0.02 l
0.27 -0.17 l
0.27 -0.32 l
0.27 -0.11 l
0.27 -0.24 l
0.28 -0.19 l
0.27 -0.22 l
0.27 -0.06 l
0.27 0.09 l
0.27 -0.26 l
0.27 -0.19 l
0.27 -0.12 l
0.27 -0.05 l
0.27 -0.22 l
0.27 -0.22 l
0.27 -0.11 l
0.28 -0.08 l
0.27 -0.24 l
0.27 -0.48 l
0.27 -0.02 l
0.27 -0.11 l
0.27 -0.22 l
0.27 -0.13 l
0.27 -0.10 l
0.27 -0.13 l
0.27 -0.38 l
0.28 -0.06 l
0.27 -0.01 l
0.27 -0.08 l
0.27 -0.17 l
0.27 -0.32 l
0.27 -0.23 l
0.27 -0.25 l
0.27 0.08 l
0.27 0 l
0.27 -0.20 l
0.27 -0.24 l
0.28 -0.18 l
0.27 -0.20 l
113.16 135.90 lineto
0.27 -0.10 l
0.27 -0.07 l
0.27 0.01 l
0.27 -0.23 l
0.27 -0.30 l
0.27 -0.11 l
0.27 -0.08 l
0.27 0.02 l
0.28 -0.03 l
0.27 -0.09 l
0.27 -0.29 l
0.27 -0.36 l
0.27 -0.39 l
0.27 -0.16 l
0.27 -0.02 l
0.27 -0.18 l
0.27 -0.06 l
0.27 -0.09 l
0.27 -0.03 l
0.28 -0.18 l
0.27 -0.32 l
0.27 -0.15 l
0.27 -0.10 l
0.27 -0.07 l
0.27 -0.16 l
0.27 -0.07 l
0.27 -0.14 l
0.27 -0.31 l
0.27 -0.35 l
0.27 0.04 l
0.28 0.28 l
0.27 -0.13 l
0.27 -0.30 l
0.27 -0.30 l
0.27 -0.09 l
0.27 -0.22 l
0.27 -0.17 l
0.27 0.13 l
0.27 -0.15 l
0.27 -0.13 l
0.28 0.02 l
0.27 0.11 l
0.27 -0.17 l
0.27 -0.18 l
0.27 -0.02 l
0.27 -0.15 l
0.27 -0.04 l
0.27 -0.26 l
0.27 -0.16 l
0.27 0.05 l
0.27 -0.06 l
0.28 -0.20 l
0.27 -0.11 l
0.27 0.04 l
0.27 -0.02 l
0.27 0.05 l
0.27 -0.13 l
0.27 -0.15 l
0.27 -0.15 l
0.27 0.05 l
0.27 0.17 l
0.27 -0.17 l
0.28 0.02 l
0.27 0.07 l
0.27 0.09 l
0.27 0.02 l
0.27 -0.09 l
0.27 -0.17 l
0.27 -0.13 l
0.27 0.23 l
0.27 0.17 l
0.27 0.09 l
0.27 -0.02 l
0.28 0.05 l
0.27 -0.03 l
0.27 -0.07 l
0.27 0.05 l
0.27 -0.36 l
0.27 -0.10 l
0.27 0.04 l
0.27 0 l
0.27 0.11 l
0.27 -0.19 l
0.27 -0.22 l
0.28 -0.12 l
0.27 -0.20 l
0.27 -0.40 l
0.27 -0.22 l
0.27 -0.14 l
0.27 -0.06 l
0.27 0.05 l
0.27 -0.08 l
0.27 0.03 l
0.27 -0.23 l
0.27 -0.18 l
0.28 -0.04 l
0.27 0.02 l
0.27 0.06 l
0.27 0.05 l
140.25 127.34 lineto
0.27 0.04 l
0.27 0.10 l
0.27 0.21 l
0.27 0.25 l
0.27 0.24 l
0.28 0.03 l
0.27 0.16 l
0.27 0.34 l
0.27 0.31 l
0.27 0.22 l
0.27 0.41 l
0.27 0.27 l
0.27 0.11 l
0.27 0.12 l
0.27 0.16 l
0.27 0.53 l
0.28 0.23 l
0.27 0.04 l
0.27 0.19 l
0.27 0.38 l
0.27 0.20 l
0.27 -0.15 l
0.27 0.31 l
0.27 0.43 l
0.27 0.20 l
0.27 0.08 l
0.27 0.29 l
0.28 0.48 l
0.27 0.20 l
0.27 0.19 l
0.27 0.22 l
0.27 0.20 l
0.27 0.06 l
0.27 0.19 l
0.27 0.31 l
0.27 0.18 l
0.27 0.10 l
0.27 0.05 l
0.28 0.25 l
0.27 0.35 l
0.27 0.33 l
0.27 0.14 l
0.27 0.21 l
0.27 0.37 l
0.27 0.21 l
0.27 0.25 l
0.27 0.28 l
0.27 0.29 l
0.27 -0.02 l
0.28 -0.06 l
0.27 0.20 l
0.27 0.27 l
0.27 0.35 l
0.27 0.23 l
0.27 0.17 l
0.27 0.17 l
0.27 0.18 l
0.27 0.12 l
0.27 0.38 l
0.28 0.29 l
0.27 0.14 l
0.27 0.40 l
0.27 0.16 l
0.27 0.19 l
0.27 0.10 l
0.27 0.13 l
0.27 0.39 l
0.27 0.21 l
0.27 0.18 l
0.27 0.19 l
0.28 0.39 l
0.27 0.08 l
0.27 0.05 l
0.27 0.19 l
0.27 0.02 l
0.27 0.33 l
0.27 0.43 l
0.27 0.41 l
0.27 0.10 l
0.27 -0.07 l
0.27 0.18 l
0.28 0.26 l
0.27 0.17 l
0.27 0.05 l
0.27 0.09 l
0.27 0.13 l
0.27 0.43 l
0.27 0.28 l
0.27 0.19 l
0.27 0.31 l
0.27 0.05 l
0.27 0.15 l
0.28 0.19 l
0.27 0.21 l
0.27 0.14 l
0.27 0.32 l
0.27 0.36 l
0.27 -0.03 l
0.27 0.08 l
167.34 147.92 lineto
0.27 0.19 l
0.27 0.17 l
0.27 0.19 l
0.28 0.05 l
0.27 0.09 l
0.27 0.25 l
0.27 0.08 l
0.27 0.21 l
0.27 0.07 l
0.27 0.21 l
0.27 0.28 l
0.27 0.05 l
0.27 0.12 l
0.28 0.19 l
0.27 0.21 l
0.27 -0.11 l
0.27 0.16 l
0.27 0.27 l
0.27 0.23 l
0.27 0.28 l
0.27 -0.06 l
0.27 0.10 l
0.27 0.19 l
0.27 0.24 l
0.28 0.17 l
0.27 0.17 l
0.27 0.21 l
0.27 0.03 l
0.27 0.18 l
0.27 0.14 l
0.27 0.21 l
0.27 0.06 l
0.27 0.07 l
0.27 0.24 l
0.27 0.14 l
0.28 0.19 l
0.27 0.15 l
0.27 0.24 l
0.27 0.21 l
0.27 0.19 l
0.27 0.14 l
0.27 0.10 l
0.27 0.21 l
0.27 0.19 l
0.27 0.19 l
0.27 0.14 l
0.28 0.35 l
0.27 0.26 l
0.27 0.12 l
0.27 0.25 l
0.27 0.32 l
0.27 0.20 l
0.27 -0.13 l
0.27 0.19 l
0.27 0.32 l
0.27 0.21 l
0.27 0.21 l
0.28 0.22 l
0.27 0.33 l
0.27 0.12 l
0.27 0.02 l
0.27 0.04 l
0.27 0.38 l
0.27 0.51 l
0.27 0.52 l
0.27 0.30 l
0.27 -0.06 l
0.28 0.26 l
0.27 0.18 l
0.27 0.31 l
0.27 0.43 l
0.27 0.30 l
0.27 0.23 l
0.27 0.15 l
0.27 0.44 l
0.27 0.34 l
0.27 0.28 l
0.27 0.13 l
0.28 0.20 l
0.27 0.37 l
0.27 0.36 l
0.27 0.46 l
0.27 0.07 l
0.27 0.20 l
0.27 0.35 l
0.27 0.31 l
0.27 0.27 l
0.27 0.12 l
0.27 0.39 l
0.28 0.29 l
0.27 0.17 l
0.27 0.28 l
0.27 0.56 l
0.27 0.49 l
0.27 0.32 l
0.27 0.33 l
0.27 0.12 l
0.27 0.42 l
0.27 0.52 l
194.43 169.84 lineto
0.28 0.27 l
0.27 0.32 l
0.27 0.44 l
0.27 0.24 l
0.27 0.25 l
0.27 0.46 l
0.27 0.59 l
0.27 0.36 l
0.27 0.21 l
0.27 0.14 l
0.27 0.27 l
0.28 0.59 l
0.27 0.40 l
0.27 0.36 l
0.27 0.30 l
0.27 0.38 l
0.27 0.43 l
0.27 0.33 l
0.27 0.43 l
0.27 0.32 l
0.27 0.30 l
0.27 0.29 l
0.28 0.39 l
0.27 0.40 l
0.27 0.46 l
0.27 0.41 l
0.27 0.23 l
0.27 0.36 l
0.27 0.28 l
0.27 0.41 l
0.27 0.47 l
0.27 0.40 l
0.28 0.33 l
0.27 0.24 l
0.27 0.40 l
0.27 0.30 l
0.27 0.29 l
0.27 0.23 l
0.27 0.22 l
0.27 0.28 l
0.27 0.50 l
0.27 0.63 l
0.27 0.14 l
0.28 0.15 l
0.27 0.46 l
0.27 0.59 l
0.27 0.41 l
0.27 0.26 l
0.27 0.25 l
0.27 0.27 l
0.27 0.52 l
0.27 0.27 l
0.27 0.17 l
0.27 0.23 l
0.28 0.34 l
0.27 0.52 l
0.27 0.37 l
0.27 0.32 l
0.27 0.25 l
0.27 0.34 l
0.27 0.26 l
0.27 0.38 l
0.27 0.46 l
0.27 0.20 l
0.27 0.19 l
0.28 -0.06 l
0.27 0.20 l
0.27 0.49 l
0.27 0.32 l
0.27 0.43 l
0.27 0.45 l
0.27 0.26 l
0.27 0.23 l
0.27 0.31 l
0.27 0.11 l
0.27 0.32 l
0.28 0.42 l
0.27 0.06 l
0.27 0.13 l
0.27 0.44 l
0.27 0.40 l
0.27 0.13 l
0.27 0.16 l
0.27 0.14 l
0.27 0.25 l
0.27 0.39 l
0.28 0.38 l
0.27 0.41 l
0.27 0.35 l
0.27 0.33 l
0.27 0.18 l
0.27 0.25 l
0.27 0.26 l
0.27 0.18 l
0.27 0.23 l
0.27 0.30 l
0.27 0.51 l
0.28 0.28 l
0.27 0.21 l
221.53 201.80 lineto
0.27 0.31 l
0.27 0.31 l
0.27 0.15 l
0.27 0.14 l
0.27 -0.18 l
0.27 -0.02 l
0.27 0.46 l
0.27 0.49 l
0.28 0.22 l
0.27 0.17 l
0.27 0.28 l
0.27 0.14 l
0.27 0.31 l
0.27 0.12 l
0.27 0.01 l
0.27 0.23 l
0.27 0.26 l
0.27 0.22 l
0.27 0.13 l
0.28 0.31 l
0.27 0.16 l
0.27 0.19 l
0.27 0.20 l
0.27 0.03 l
0.27 0.39 l
0.27 0.31 l
0.27 0.11 l
0.27 0.10 l
0.27 0.12 l
0.27 0.22 l
0.28 0.22 l
0.27 0.04 l
0.27 0.11 l
0.27 0.19 l
0.27 0.03 l
0.27 0.24 l
0.27 0.28 l
0.27 -0.41 l
0.27 -0.98 l
0.27 0.14 l
0.28 1.41 l
0.27 0.76 l
0.27 0.21 l
0.27 0.15 l
0.27 0.33 l
0.27 0.54 l
0.27 0.42 l
0.27 0.29 l
0.27 0.20 l
0.27 0.21 l
0.27 0.25 l
0.28 0.55 l
0.27 0.62 l
0.27 0.64 l
0.27 0.20 l
0.27 -0.13 l
0.27 0.58 l
0.27 0.27 l
0.27 -0.13 l
0.27 0.38 l
0.27 0.74 l
0.27 -0.15 l
0.28 -0.85 l
0.27 0.85 l
0.27 1.69 l
0.27 0.89 l
0.27 0.51 l
0.27 0.46 l
0.27 0.34 l
0.27 0.18 l
0.27 0.36 l
0.27 0.37 l
0.27 0.36 l
0.28 0.39 l
0.27 0.29 l
0.27 0.32 l
0.27 0.50 l
0.27 0.44 l
0.27 0.17 l
0.27 0.11 l
0.27 0.18 l
0.27 0.59 l
0.27 0.72 l
0.27 0.52 l
0.28 0.46 l
0.27 0.36 l
0.27 0.28 l
0.27 0.05 l
0.27 0.23 l
0.27 0.53 l
0.27 0.44 l
0.27 0.33 l
0.27 0.36 l
0.27 0.04 l
0.27 -0.67 l
0.28 -0.16 l
0.27 0.59 l
0.27 0.79 l
0.27 0.97 l
248.62 230.59 lineto
0.27 0.13 l
0.27 -0.15 l
0.27 0.59 l
0.27 0.81 l
0.27 0.43 l
0.28 0.39 l
0.27 0.19 l
0.27 0.36 l
0.27 0.31 l
0.27 0.20 l
0.27 0.30 l
0.27 0.20 l
0.27 0.23 l
0.27 -0.01 l
0.27 0.11 l
0.27 0.60 l
0.28 0.53 l
0.27 0.28 l
0.27 0.31 l
0.27 0.38 l
0.27 0.16 l
0.27 0.12 l
0.27 0.18 l
0.27 0.12 l
0.27 0.27 l
0.27 0.28 l
0.27 0.18 l
0.28 0.02 l
0.27 -0.04 l
0.27 0.28 l
0.27 0.36 l
0.27 0.16 l
0.27 -0.13 l
0.27 0.06 l
0.27 0.40 l
0.27 0.32 l
0.27 -0.09 l
0.27 -0.70 l
0.28 -0.22 l
0.27 0.84 l
0.27 0.97 l
0.27 0.34 l
0.27 0.07 l
0.27 0.04 l
0.27 0.05 l
0.27 -0.47 l
0.27 -2.12 l
0.27 -1.13 l
0.27 0.98 l
0.28 0.84 l
0.27 0.60 l
0.27 0.05 l
0.27 0.64 l
0.27 1.75 l
0.27 0.22 l
0.27 -2.34 l
0.27 -2.14 l
0.27 1.54 l
0.27 1.89 l
0.28 -2.72 l
0.27 -3.15 l
0.27 1.86 l
0.27 2.94 l
0.27 0.89 l
0.27 1.15 l
0.27 0.96 l
0.27 0.65 l
0.27 0.41 l
0.27 -0.25 l
0.27 -0.03 l
0.28 0.46 l
0.27 0.63 l
0.27 0.11 l
0.27 0.07 l
0.27 0.05 l
0.27 0 l
0.27 0.18 l
0.27 -0.10 l
0.27 0.04 l
0.27 0.04 l
0.27 0.17 l
0.28 0.07 l
0.27 -0.26 l
0.27 0.07 l
0.27 0.47 l
0.27 0.49 l
0.27 -0.09 l
0.27 -0.05 l
0.27 0.17 l
0.27 0.09 l
0.27 0.17 l
0.27 -0.01 l
0.28 0.15 l
0.27 0.08 l
0.27 -0.13 l
0.27 -1.37 l
0.27 -5.09 l
0.27 -3.35 l
0.27 4.21 l
275.71 242.92 lineto
0.27 -6.37 l
0.27 -5.41 l
0.27 0.72 l
0.28 0.99 l
0.27 -4.20 l
0.27 1.23 l
0.27 10.15 l
0.27 6.04 l
0.27 1.07 l
0.27 0.36 l
0.27 0.06 l
0.27 0.06 l
0.27 -0.06 l
0.28 0.36 l
0.27 0 l
0.27 0.03 l
0.27 0.08 l
0.27 0.11 l
0.27 0.26 l
0.27 0.01 l
0.27 0.12 l
0.27 -0.21 l
0.27 -1.09 l
0.27 -1.38 l
0.28 0.73 l
0.27 1.63 l
0.27 0.46 l
0.27 0.34 l
0.27 0.12 l
0.27 0.06 l
0.27 -0.17 l
0.27 0.04 l
0.27 0.20 l
0.27 -1.16 l
0.27 -2.52 l
0.28 -0.53 l
0.27 2.97 l
0.27 1.66 l
0.27 0.35 l
0.27 0.29 l
0.27 -0.94 l
0.27 -0.62 l
0.27 0.36 l
0.27 1.45 l
0.27 0.36 l
0.27 -0.35 l
0.28 -5.16 l
0.27 -11.13 l
0.27 -0.22 l
0.27 8.91 l
0.27 -3.39 l
0.27 -16.29 l
0.27 -5.48 l
0.27 16.46 l
0.27 15.55 l
0.27 3.26 l
0.27 0.80 l
0.28 0.23 l
0.27 0.36 l
0.27 0.21 l
0.27 0.05 l
0.27 -0.42 l
0.27 -5.19 l
0.27 -5.05 l
0.27 3.34 l
0.27 6.46 l
0.27 1.98 l
0.28 0.63 l
0.27 0.18 l
0.27 -0.56 l
0.27 -0.34 l
0.27 -0.93 l
0.27 -4.11 l
0.27 -15.25 l
0.27 -8.82 l
0.27 9.14 l
0.27 3.04 l
0.27 1.78 l
0.28 10.47 l
0.27 5.81 l
0.27 1.15 l
0.27 -1.09 l
0.27 -3.28 l
0.27 -0.80 l
0.27 3.00 l
0.27 1.17 l
0.27 -0.81 l
0.27 1.46 l
0.27 1.17 l
0.28 0.31 l
0.27 -0.77 l
0.27 -0.81 l
0.27 -0.46 l
0.27 -0.82 l
0.27 -0.42 l
0.27 -0.98 l
0.27 0.32 l
0.27 0.46 l
0.27 0.39 l
302.80 253.64 lineto
0.28 -5.80 l
0.27 -12.42 l
0.27 -19.04 l
0.27 6.75 l
0.27 26.39 l
0.27 11.38 l
0.27 2.16 l
0.27 -0.03 l
0.27 -0.06 l
0.27 -0.32 l
0.27 0.04 l
0.28 1.53 l
0.27 -0.10 l
0.27 0.50 l
0.27 -1.91 l
0.27 -10.83 l
0.27 -27.89 l
0.27 -12.31 l
0.27 19.46 l
0.27 8.17 l
0.27 3.84 l
0.27 13.01 l
0.28 3.01 l
0.27 -6.82 l
0.27 -3.05 l
0.27 -4.18 l
0.27 -21.13 l
0.27 -2.46 l
0.27 26.00 l
0.27 15.20 l
0.27 3.29 l
0.27 0.32 l
0.28 0.62 l
0.27 0.31 l
0.27 -0.25 l
0.27 0.10 l
0.27 -1.89 l
0.27 -8.33 l
0.27 -18.33 l
0.27 -1.87 l
0.27 18.43 l
0.27 11.12 l
0.27 2.16 l
0.28 0 l
0.27 0.42 l
0.27 0.19 l
0.27 0.04 l
0.27 -0.17 l
0.27 -1.62 l
0.27 -0.57 l
0.27 1.13 l
0.27 -0.10 l
0.27 -2.82 l
0.27 0.15 l
0.28 2.94 l
0.27 2.00 l
0.27 0.61 l
0.27 -0.15 l
0.27 0.04 l
0.27 -0.66 l
0.27 -1.82 l
0.27 -5.39 l
0.27 -2.31 l
0.27 -4.62 l
0.27 -12.49 l
0.28 1.44 l
0.27 3.85 l
0.27 -30.41 l
0.27 -43.58 l
0.27 7.81 l
0.27 50.62 l
0.27 29.94 l
0.27 6.07 l
0.27 1.31 l
0.27 0.28 l
0.27 -0.12 l
0.28 -7.38 l
0.27 -15.76 l
0.27 -7.87 l
0.27 13.94 l
0.27 14.79 l
0.27 3.83 l
0.27 1.20 l
0.27 -0.29 l
0.27 0.60 l
0.27 -0.90 l
0.28 -1.39 l
0.27 -1.22 l
0.27 -1.63 l
0.27 -12.45 l
0.27 -19.33 l
0.27 6.28 l
0.27 20.75 l
0.27 8.04 l
0.27 -0.61 l
0.27 -0.75 l
0.27 -1.45 l
0.28 -3.10 l
0.27 2.58 l
329.90 272.00 lineto
0.27 0.21 l
0.27 -4.03 l
0.27 -13.07 l
0.27 -35.96 l
0.27 -47.89 l
0.27 6.61 l
0.27 54.76 l
0.27 33.14 l
0.28 7.60 l
0.27 1.37 l
0.27 0.59 l
0.27 0.79 l
0.27 0.16 l
0.27 0.50 l
0.27 -0.04 l
0.27 0.50 l
0.27 0.44 l
0.27 0.46 l
0.27 0.40 l
0.28 0.14 l
0.27 -0.17 l
0.27 -0.60 l
0.27 -0.50 l
0.27 -0.08 l
0.27 -0.39 l
0.27 -1.78 l
0.27 -10.94 l
0.27 -25.49 l
0.27 -6.51 l
0.27 25.26 l
0.28 18.29 l
0.27 3.58 l
0.27 0.79 l
0.27 -0.12 l
0.27 -0.70 l
0.27 -6.89 l
0.27 -7.44 l
0.27 3.96 l
0.27 8.75 l
0.27 1.93 l
0.28 -2.30 l
0.27 -7.79 l
0.27 -14.68 l
0.27 -10.63 l
0.27 -13.73 l
0.27 -46.68 l
0.27 -38.94 l
0.27 30.59 l
0.27 35.70 l
0.27 1.64 l
0.27 10.29 l
0.28 16.00 l
0.27 19.34 l
0.27 18.62 l
0.27 6.23 l
0.27 1.62 l
0.27 0.46 l
0.27 0.68 l
0.27 0.05 l
0.27 0.09 l
0.27 -2.51 l
0.27 -15.91 l
0.28 -38.21 l
0.27 -18.82 l
0.27 33.80 l
0.27 33.44 l
0.27 9.13 l
0.27 2.46 l
0.27 0.16 l
0.27 1.65 l
0.27 0.43 l
0.27 1.28 l
0.27 0.06 l
0.28 -0.60 l
0.27 -0.76 l
0.27 -8.27 l
0.27 -28.38 l
0.27 -44.48 l
0.27 -6.40 l
0.27 24.80 l
0.27 -9.26 l
0.27 -4.64 l
0.27 39.88 l
0.27 31.17 l
0.28 3.32 l
0.27 -21.70 l
0.27 -33.57 l
0.27 7.35 l
0.27 36.94 l
0.27 19.68 l
0.27 3.62 l
0.27 0.98 l
0.27 0.95 l
0.27 -0.19 l
0.27 -0.13 l
0.28 -3.69 l
0.27 -9.81 l
0.27 -4.09 l
0.27 9.45 l
currentpoint o m
356.99 303.63 lineto
0.27 1.33 l
0.27 1.17 l
0.27 -0.32 l
0.27 0.62 l
0.27 -0.72 l
0.28 -1.47 l
0.27 -4.34 l
0.27 -7.79 l
0.27 -16.27 l
0.27 -26.63 l
0.27 6.03 l
0.27 28.32 l
0.27 1.11 l
0.27 -22.37 l
0.27 -22.66 l
0.27 -4.95 l
0.28 0.28 l
0.27 12.28 l
0.27 33.47 l
0.27 21.35 l
0.27 4.07 l
0.27 0.51 l
0.27 0.14 l
0.27 0 l
0.27 -0.99 l
0.27 -4.50 l
0.27 -22.09 l
0.28 -50.21 l
0.27 -24.74 l
0.27 41.96 l
0.27 42.35 l
0.27 3.62 l
0.27 -28.58 l
0.27 -31.30 l
0.27 19.54 l
0.27 37.67 l
0.27 13.31 l
0.27 1.22 l
0.28 -3.53 l
0.27 -5.56 l
0.27 1.04 l
0.27 7.83 l
0.27 2.15 l
0.27 -1.40 l
0.27 -4.54 l
0.27 -17.13 l
0.27 -47.74 l
0.27 -53.33 l
0.27 -3.68 l
0.28 -0.63 l
0.27 -21.74 l
0.27 23.15 l
0.27 42.32 l
0.27 12.96 l
0.27 12.93 l
0.27 10.50 l
0.27 1.19 l
0.27 17.22 l
0.27 18.43 l
0.28 1.67 l
0.27 -23.33 l
0.27 -25.12 l
0.27 18.42 l
0.27 30.97 l
0.27 9.00 l
0.27 -7.08 l
0.27 -19.72 l
0.27 -7.76 l
0.27 6.95 l
0.27 -13.89 l
0.28 -30.58 l
0.27 -19.57 l
0.27 4.73 l
0.27 38.30 l
0.27 35.17 l
0.27 4.94 l
0.27 -19.57 l
0.27 -38.40 l
0.27 -26.38 l
0.27 -24.41 l
0.27 -5.41 l
0.28 34.29 l
0.27 8.03 l
0.27 3.42 l
0.27 36.88 l
0.27 24.52 l
0.27 -1.87 l
0.27 -28.05 l
0.27 -34.53 l
0.27 7.77 l
0.27 39.66 l
0.27 8.62 l
0.28 -17.44 l
0.27 2.42 l
0.27 4.58 l
0.27 -0.16 l
0.27 16.29 l
0.27 16.14 l
0.27 3.20 l
384.08 305.28 lineto
0.27 -10.06 l
0.27 -12.83 l
0.27 0.59 l
0.28 -6.94 l
0.27 -34.33 l
0.27 -31.87 l
0.27 4.28 l
0.27 39.95 l
0.27 33.16 l
0.27 5.84 l
0.27 3.15 l
0.27 3.15 l
0.27 -0.56 l
0.28 -5.40 l
0.27 -20.56 l
0.27 -44.16 l
0.27 -54.77 l
0.27 -15.21 l
0.27 12.98 l
0.27 2.46 l
0.27 29.64 l
0.27 31.32 l
0.27 -30.24 l
0.27 -25.69 l
0.28 35.82 l
0.27 35.46 l
0.27 8.05 l
0.27 7.81 l
0.27 -15.42 l
0.27 -30.76 l
0.27 12.52 l
0.27 40.66 l
0.27 22.05 l
0.27 4.74 l
0.27 0.94 l
0.28 -0.11 l
0.27 -1.32 l
0.27 -8.18 l
0.27 -22.30 l
0.27 -21.42 l
0.27 5.55 l
0.27 26.74 l
0.27 17.44 l
0.27 2.35 l
0.27 -0.05 l
0.27 -2.05 l
0.28 -9.65 l
0.27 -36.64 l
0.27 -44.32 l
0.27 11.36 l
0.27 48.67 l
0.27 23.35 l
0.27 -0.03 l
0.27 -16.03 l
0.27 -47.17 l
0.27 -50.58 l
0.27 -24.83 l
0.28 -1.24 l
0.27 20.02 l
0.27 -2.08 l
0.27 -24.17 l
0.27 29.10 l
0.27 68.72 l
0.27 44.08 l
0.27 13.60 l
0.27 3.31 l
0.27 2.24 l
0.28 -0.02 l
0.27 -3.88 l
0.27 -18.02 l
0.27 -18.87 l
0.27 11.30 l
0.27 23.08 l
0.27 8.37 l
0.27 1.71 l
0.27 0.11 l
0.27 -1.67 l
0.27 -9.79 l
0.28 -25.10 l
0.27 -35.12 l
0.27 -25.69 l
0.27 20.10 l
0.27 48.79 l
0.27 24.47 l
0.27 4.66 l
0.27 1.41 l
0.27 -0.55 l
0.27 0.17 l
0.27 -0.72 l
0.28 -0.50 l
0.27 -3.72 l
0.27 -12.87 l
0.27 -41.50 l
0.27 -63.00 l
0.27 -9.43 l
0.27 57.82 l
0.27 47.50 l
0.27 16.03 l
0.27 8.21 l
411.17 312.37 lineto
0.28 2.03 l
0.27 0.79 l
0.27 0.59 l
0.27 0.54 l
0.27 -0.12 l
0.27 0.66 l
0.27 -0.27 l
0.27 0.25 l
0.27 0.16 l
0.27 0.46 l
0.27 0.60 l
0.28 -0.08 l
0.27 0.36 l
0.27 -0.23 l
0.27 0.35 l
0.27 0.04 l
0.27 -0.10 l
0.27 0.15 l
0.27 0.28 l
0.27 0.27 l
0.27 -1.02 l
0.27 -1.44 l
0.28 -1.12 l
0.27 1.35 l
0.27 1.19 l
0.27 -1.09 l
0.27 -0.49 l
0.27 1.42 l
0.27 1.72 l
0.27 -0.47 l
0.27 -3.05 l
0.27 -6.37 l
0.28 -1.01 l
0.27 6.23 l
0.27 1.91 l
0.27 -1.39 l
0.27 1.24 l
0.27 3.03 l
0.27 1.17 l
0.27 0.19 l
0.27 0.20 l
0.27 0.05 l
0.27 0.33 l
0.28 -0.50 l
0.27 -1.34 l
0.27 -2.96 l
0.27 -0.06 l
0.27 2.60 l
0.27 -1.11 l
0.27 -4.40 l
0.27 -1.31 l
0.27 5.12 l
0.27 4.07 l
0.27 1.14 l
0.28 0.19 l
0.27 -0.77 l
0.27 -2.52 l
0.27 -6.21 l
0.27 -2.35 l
0.27 5.04 l
0.27 4.71 l
0.27 -4.04 l
0.27 -10.33 l
0.27 -1.82 l
0.27 10.04 l
0.28 7.23 l
0.27 0.94 l
0.27 0.45 l
0.27 -0.66 l
0.27 0.04 l
0.27 -0.34 l
0.27 -0.07 l
0.27 -0.49 l
0.27 -2.13 l
0.27 -2.98 l
0.27 -12.16 l
0.28 -39.08 l
0.27 -64.19 l
0.27 -15.31 l
0.27 58.78 l
0.27 52.44 l
0.27 17.48 l
0.27 4.10 l
0.27 1.67 l
0.27 0.99 l
0.27 -0.88 l
0.28 -0.46 l
0.27 -0.43 l
0.27 -1.76 l
0.27 -10.17 l
0.27 -21.14 l
0.27 -35.63 l
0.27 -16.01 l
0.27 36.36 l
0.27 39.05 l
0.27 11.14 l
0.27 1.75 l
0.28 0.43 l
0.27 -1.12 l
438.27 309.46 lineto
0.27 -29.15 l
0.27 -9.60 l
0.27 27.35 l
0.27 22.69 l
0.27 4.85 l
0.27 1.62 l
0.27 0.07 l
0.27 0.68 l
0.28 -0.39 l
0.27 0.23 l
0.27 -0.48 l
0.27 -0.85 l
0.27 -1.66 l
0.27 -6.94 l
0.27 -25.69 l
0.27 -56.97 l
0.27 -55.78 l
0.27 -1.59 l
0.27 58.51 l
0.28 49.41 l
0.27 -4.36 l
0.27 -8.20 l
0.27 22.82 l
0.27 24.42 l
0.27 7.25 l
0.27 0.31 l
0.27 -2.83 l
0.27 0.01 l
0.27 4.17 l
0.27 1.39 l
0.28 -1.69 l
0.27 -2.18 l
0.27 2.67 l
0.27 1.83 l
0.27 -0.66 l
0.27 -2.94 l
0.27 -14.74 l
0.27 -44.56 l
0.27 -54.72 l
0.27 6.79 l
0.28 36.92 l
0.27 -2.09 l
0.27 -7.25 l
0.27 11.03 l
0.27 27.37 l
0.27 30.97 l
0.27 10.21 l
0.27 0.93 l
0.27 -2.91 l
0.27 -12.40 l
0.27 -40.22 l
0.28 -75.23 l
0.27 -57.97 l
0.27 -9.69 l
0.27 31.49 l
0.27 38.88 l
0.27 20.35 l
0.27 41.38 l
0.27 48.73 l
0.27 17.09 l
0.27 4.15 l
0.27 0.56 l
0.28 2.56 l
0.27 2.60 l
0.27 0.97 l
0.27 1.19 l
0.27 -0.44 l
0.27 1.06 l
0.27 -1.80 l
0.27 -3.02 l
0.27 -5.45 l
0.27 -8.57 l
0.27 -30.75 l
0.28 -39.22 l
0.27 15.43 l
0.27 46.57 l
0.27 22.23 l
0.27 3.68 l
0.27 1.24 l
0.27 0.25 l
0.27 -0.19 l
0.27 -0.10 l
0.27 -1.88 l
0.27 -7.41 l
0.28 -19.40 l
0.27 -29.03 l
0.27 -43.41 l
0.27 -17.45 l
0.27 47.41 l
0.27 43.89 l
0.27 -9.25 l
0.27 -26.39 l
0.27 9.48 l
0.27 33.33 l
0.28 13.66 l
0.27 2.99 l
0.27 -3.10 l
0.27 -21.16 l
0.27 -57.35 l
465.36 203.11 lineto
0.27 28.96 l
0.27 67.52 l
0.27 33.39 l
0.27 5.89 l
0.27 0.93 l
0.28 0.75 l
0.27 -0.71 l
0.27 -6.78 l
0.27 -16.24 l
0.27 -15.36 l
0.27 1.06 l
0.27 17.63 l
0.27 12.42 l
0.27 -3.85 l
0.27 -26.28 l
0.27 -47.95 l
0.28 -34.02 l
0.27 -16.45 l
0.27 -27.92 l
0.27 -6.23 l
0.27 57.40 l
0.27 69.44 l
0.27 29.90 l
0.27 7.42 l
0.27 -1.62 l
0.27 -11.93 l
0.27 -12.63 l
0.28 6.04 l
0.27 12.26 l
0.27 -8.72 l
0.27 -8.64 l
0.27 13.04 l
0.27 15.77 l
0.27 3.31 l
0.27 -0.61 l
0.27 -0.51 l
0.27 -1.22 l
0.27 -1.69 l
0.28 -4.64 l
0.27 -15.92 l
0.27 -52.25 l
0.27 -75.59 l
0.27 -19.52 l
0.27 62.62 l
0.27 57.92 l
0.27 12.00 l
0.27 8.37 l
0.27 7.78 l
0.27 -17.08 l
0.28 -58.66 l
0.27 -75.72 l
0.27 -35.37 l
0.27 28.60 l
0.27 75.64 l
0.27 66.76 l
0.27 25.07 l
0.27 3.76 l
0.27 -0.06 l
0.27 -14.54 l
0.28 -33.26 l
0.27 -7.55 l
0.27 28.91 l
0.27 2.83 l
0.27 -32.30 l
0.27 -4.36 l
0.27 32.29 l
0.27 25.67 l
0.27 9.86 l
0.27 3.58 l
0.27 -0.49 l
0.28 -6.83 l
0.27 -12.51 l
0.27 -1.07 l
0.27 13.35 l
0.27 7.37 l
0.27 0.18 l
0.27 -1.90 l
0.27 -4.35 l
0.27 -10.31 l
0.27 -20.90 l
0.27 -15.91 l
0.28 -19.37 l
0.27 -9.49 l
0.27 31.03 l
0.27 21.88 l
0.27 -32.76 l
0.27 -59.67 l
0.27 -12.74 l
0.27 23.97 l
0.27 6.73 l
0.27 34.26 l
0.27 49.10 l
0.28 18.49 l
0.27 4.27 l
0.27 -1.16 l
0.27 0.78 l
0.27 0.62 l
0.27 -1.28 l
0.27 -8.77 l
492.45 325.18 lineto
0.27 7.22 l
0.27 10.76 l
0.27 4.67 l
0.28 0.09 l
0.27 0.20 l
0.27 -0.58 l
0.27 0 l
0.27 0.63 l
0.27 -0.46 l
0.27 0.33 l
0.27 -3.63 l
0.27 -14.39 l
0.27 -27.86 l
0.28 -6.15 l
0.27 25.23 l
0.27 18.05 l
0.27 -0.06 l
0.27 -9.41 l
0.27 -26.07 l
0.27 -52.45 l
0.27 -33.34 l
0.27 -12.27 l
0.27 -12.52 l
0.27 43.91 l
0.28 70.65 l
0.27 30.78 l
0.27 6.65 l
0.27 -1.63 l
0.27 -3.46 l
0.27 0.47 l
0.27 1.00 l
0.27 -16.19 l
0.27 -46.06 l
0.27 -30.60 l
0.27 32.96 l
0.28 49.07 l
0.27 16.49 l
0.27 1.98 l
0.27 -7.89 l
0.27 -20.41 l
0.27 -15.86 l
0.27 7.73 l
0.27 18.12 l
0.27 8.33 l
0.27 3.04 l
0.27 -2.67 l
0.28 -3.34 l
0.27 -8.13 l
0.27 -11.57 l
0.27 0.60 l
0.27 -5.17 l
0.27 -18.82 l
0.27 -0.96 l
0.27 23.23 l
0.27 16.04 l
0.27 -20.02 l
0.27 -52.33 l
0.28 -15.73 l
0.27 49.48 l
0.27 44.56 l
0.27 11.82 l
0.27 3.09 l
0.27 2.76 l
0.27 1.00 l
0.27 -0.19 l
0.27 -0.49 l
0.27 -7.68 l
0.28 -26.97 l
0.27 -29.07 l
0.27 14.33 l
0.27 34.60 l
0.27 9.79 l
0.27 0.02 l
0.27 2.47 l
0.27 2.87 l
0.27 -0.79 l
0.27 -6.36 l
0.27 -25.63 l
0.28 -45.12 l
0.27 -6.60 l
0.27 44.28 l
0.27 33.59 l
0.27 6.16 l
0.27 1.32 l
0.27 -0.03 l
0.27 0.75 l
0.27 0.17 l
0.27 -0.28 l
0.27 0.23 l
0.28 -3.95 l
0.27 -17.53 l
0.27 -40.83 l
0.27 -15.21 l
0.27 36.94 l
0.27 32.10 l
0.27 4.41 l
0.27 -9.80 l
0.27 -28.82 l
0.27 -31.88 l
519.54 280.23 lineto
0.28 -13.44 l
0.27 -32.87 l
0.27 26.69 l
0.27 60.72 l
0.27 27.04 l
0.27 2.40 l
0.27 -11.28 l
0.27 -13.43 l
0.27 6.41 l
0.27 17.69 l
0.27 6.76 l
0.28 0.30 l
0.27 -0.70 l
0.27 -3.09 l
0.27 -3.22 l
0.27 -1.34 l
0.27 -6.33 l
0.27 -20.67 l
0.27 -6.30 l
0.27 20.46 l
0.27 15.91 l
0.27 3.41 l
0.28 1.13 l
0.27 0.20 l
0.27 -2.20 l
0.27 -12.07 l
0.27 -23.05 l
0.27 -1.93 l
0.27 24.46 l
0.27 14.58 l
0.27 1.76 l
0.27 0.07 l
0.28 -0.74 l
0.27 -0.72 l
0.27 -0.75 l
0.27 0.07 l
0.27 -1.53 l
0.27 -8.28 l
0.27 -22.43 l
0.27 -17.83 l
0.27 8.89 l
0.27 -8.13 l
0.27 -45.20 l
0.28 -4.64 l
0.27 52.18 l
0.27 37.27 l
0.27 7.19 l
0.27 -1.70 l
0.27 -6.96 l
0.27 -8.40 l
0.27 0.54 l
0.27 9.98 l
0.27 7.05 l
0.27 2.52 l
0.28 -0.43 l
0.27 -8.85 l
0.27 -23.65 l
0.27 -16.41 l
0.27 17.71 l
0.27 17.87 l
0.27 -6.52 l
0.27 -5.25 l
0.27 -1.14 l
0.27 -0.42 l
0.27 12.81 l
0.28 13.55 l
0.27 2.37 l
0.27 -0.60 l
0.27 -1.31 l
0.27 0.41 l
0.27 1.66 l
0.27 0.25 l
0.27 -2.00 l
0.27 -6.09 l
0.27 -2.52 l
0.27 4.99 l
0.28 4.77 l
0.27 -0.10 l
0.27 -7.91 l
0.27 -18.87 l
0.27 -8.71 l
0.27 15.78 l
0.27 12.20 l
0.27 -0.72 l
0.27 2.50 l
0.27 5.21 l
0.28 2.21 l
0.27 0.13 l
0.27 0.20 l
0.27 -0.02 l
0.27 0.17 l
0.27 0 l
0.27 -1.60 l
0.27 -5.35 l
0.27 -4.07 l
0.27 4.59 l
0.27 5.65 l
0.28 1.32 l
0.27 -0.07 l
546.64 360.39 lineto
0.27 -0.15 l
0.27 -0.53 l
0.27 -0.15 l
0.27 -0.89 l
0.27 -2.61 l
0.27 -2.18 l
0.27 1.99 l
0.27 1.56 l
0.28 -9.44 l
0.27 -29.51 l
0.27 -25.72 l
0.27 19.05 l
0.27 34.43 l
0.27 11.17 l
0.27 1.21 l
0.27 -0.86 l
0.27 -3.61 l
0.27 -13.98 l
0.27 -21.41 l
0.28 -20.76 l
0.27 -15.24 l
0.27 18.51 l
0.27 38.15 l
0.27 16.72 l
0.27 2.09 l
0.27 -0.21 l
0.27 -2.25 l
0.27 -0.61 l
0.27 1.89 l
0.27 2.00 l
0.28 -0.01 l
0.27 0.08 l
0.27 -0.19 l
0.27 -2.83 l
0.27 -6.82 l
0.27 -4.36 l
0.27 5.93 l
0.27 6.55 l
0.27 1.39 l
0.27 0 l
0.28 -0.36 l
0.27 0.38 l
0.27 -0.37 l
0.27 -0.95 l
0.27 -4.15 l
0.27 -4.52 l
0.27 0.40 l
0.27 -5.99 l
0.27 -34.92 l
0.27 -53.01 l
0.27 -1.24 l
0.28 53.81 l
0.27 34.84 l
0.27 8.17 l
0.27 3.66 l
0.27 -2.39 l
0.27 -9.64 l
0.27 -6.40 l
0.27 8.08 l
0.27 8.95 l
0.27 2.83 l
0.27 1.28 l
0.28 -0.05 l
0.27 0.31 l
0.27 -0.30 l
0.27 0.04 l
0.27 -0.31 l
0.27 -0.21 l
0.27 0.24 l
0.27 -0.21 l
0.27 0.07 l
0.27 -0.46 l
0.27 0.08 l
0.28 -0.19 l
0.27 -0.40 l
0.27 -0.09 l
0.27 -0.12 l
0.27 -0.26 l
0.27 -1.92 l
0.27 -1.57 l
0.27 0.74 l
0.27 1.61 l
0.27 0.40 l
0.27 -0.28 l
0.28 -1.04 l
0.27 -1.38 l
0.27 0.76 l
0.27 1.30 l
0.27 0.53 l
0.27 -0.50 l
0.27 -0.62 l
0.27 -0.08 l
0.27 -0.10 l
0.27 -0.98 l
0.28 -5.42 l
0.27 -7.45 l
0.27 -1.75 l
0.27 -2.69 l
0.27 -13.13 l
573.73 316.57 lineto
0.27 -2.19 l
0.27 -21.11 l
0.27 -1.06 l
0.27 31.81 l
0.27 19.55 l
0.28 3.30 l
0.27 3.03 l
0.27 1.98 l
0.27 0.45 l
0.27 -0.09 l
0.27 -0.06 l
0.27 -0.08 l
0.27 0.04 l
0.27 -0.11 l
0.27 -0.21 l
0.27 -0.02 l
0.28 -0.10 l
0.27 -0.23 l
0.27 -0.18 l
0.27 -0.05 l
0.27 -0.03 l
0.27 -0.36 l
0.27 -0.64 l
0.27 0.14 l
0.27 0.45 l
0.27 0.25 l
0.27 0.08 l
0.28 -0.15 l
0.27 0.04 l
0.27 -0.11 l
0.27 -0.22 l
0.27 -0.77 l
0.27 -1.91 l
0.27 -1.85 l
0.27 0.60 l
0.27 2.12 l
0.27 0.95 l
0.27 0.46 l
0.28 -0.15 l
0.27 -0.38 l
0.27 -0.25 l
0.27 -2.73 l
0.27 -13.17 l
0.27 -21.06 l
0.27 -0.57 l
0.27 21.83 l
0.27 13.50 l
0.27 1.79 l
0.27 0.34 l
0.28 -0.07 l
0.27 0 l
0.27 -0.42 l
0.27 -0.30 l
0.27 -1.65 l
0.27 -6.74 l
0.27 -6.96 l
0.27 3.56 l
0.27 8.78 l
0.27 3.21 l
0.28 0.31 l
0.27 -0.22 l
0.27 -0.12 l
0.27 0.23 l
0.27 -0.07 l
0.27 0.08 l
0.27 -0.19 l
0.27 0.29 l
0.27 -0.03 l
0.27 -0.30 l
0.27 -0.06 l
0.28 0.08 l
0.27 0.20 l
0.27 -0.43 l
0.27 -0.63 l
0.27 -0.85 l
0.27 0.49 l
0.27 1.10 l
0.27 0.18 l
0.27 -0.01 l
0.27 -0.53 l
0.27 -2.29 l
0.28 -4.58 l
0.27 -0.88 l
0.27 3.88 l
0.27 -0.12 l
0.27 -7.13 l
0.27 -3.86 l
0.27 6.63 l
0.27 6.67 l
0.27 1.54 l
0.27 0.16 l
0.27 -0.29 l
0.28 -0.01 l
0.27 -0.22 l
0.27 0.04 l
0.27 -0.21 l
0.27 -0.17 l
0.27 -0.10 l
0.27 -0.05 l
600.82 347.30 lineto
0.27 -3.35 l
0.27 -16.47 l
0.27 -27.03 l
0.28 -0.85 l
0.27 28.09 l
0.27 16.81 l
0.27 1.91 l
0.27 0.32 l
0.27 -0.22 l
0.27 -0.62 l
0.27 -3.91 l
0.27 -7.71 l
0.27 -8.65 l
0.28 -3.22 l
0.27 8.15 l
0.27 11.51 l
0.27 4.13 l
0.27 0.14 l
0.27 0.10 l
0.27 -0.21 l
0.27 -0.10 l
0.27 -0.35 l
0.27 0.09 l
0.27 -0.19 l
0.28 -0.18 l
0.27 0.05 l
0.27 0.03 l
0.27 0.22 l
0.27 -0.37 l
0.27 -0.10 l
0.27 -0.10 l
0.27 -0.24 l
0.27 -0.47 l
0.27 -0.92 l
0.27 -0.27 l
0.28 0.49 l
0.27 0.50 l
0.27 -0.04 l
0.27 -0.14 l
0.27 -0.27 l
0.27 -0.03 l
0.27 0.02 l
0.27 -0.24 l
0.27 -0.11 l
0.27 -0.23 l
0.27 -0.09 l
0.28 -0.38 l
0.27 -0.09 l
0.27 -0.20 l
0.27 -0.54 l
0.27 -0.76 l
0.27 -3.77 l
0.27 -12.45 l
0.27 -16.78 l
0.27 1.98 l
0.27 18.99 l
0.27 10.61 l
0.28 0.81 l
0.27 -1.88 l
0.27 -2.30 l
0.27 -0.48 l
0.27 0.36 l
0.27 1.37 l
0.27 1.88 l
0.27 0.86 l
0.27 -0.09 l
0.27 -0.16 l
0.28 -0.25 l
0.27 -0.09 l
0.27 0.11 l
0.27 -0.27 l
0.27 -0.24 l
0.27 -0.13 l
0.27 -0.14 l
0.27 -0.22 l
0.27 -0.12 l
0.27 -0.18 l
0.27 -0.38 l
0.28 -1.35 l
0.27 -1.73 l
0.27 0.50 l
0.27 1.28 l
0.27 0.26 l
0.27 -0.05 l
0.27 -0.04 l
0.27 -0.06 l
0.27 -0.12 l
0.27 0 l
0.27 -0.13 l
0.28 -0.09 l
0.27 -0.40 l
0.27 -1.01 l
0.27 -0.49 l
0.27 0.51 l
0.27 0.63 l
0.27 0.02 l
0.27 -0.13 l
0.27 -0.19 l
0.27 -0.16 l
currentpoint o m
627.91 335.33 lineto
0.28 -0.32 l
0.27 -1.50 l
0.27 -3.06 l
0.27 -2.60 l
0.27 -4.18 l
0.27 -3.10 l
0.27 5.15 l
0.27 6.86 l
0.27 1.76 l
0.27 0.01 l
0.27 -0.28 l
0.28 -0.14 l
0.27 0.12 l
0.27 -0.20 l
0.27 -0.13 l
0.27 -0.27 l
0.27 -0.06 l
0.27 -0.12 l
0.27 -0.20 l
0.27 0.12 l
0.27 -0.06 l
0.27 0.04 l
0.28 -0.07 l
0.27 -0.30 l
0.27 -0.29 l
0.27 -0.02 l
0.27 0.15 l
0.27 -0.21 l
0.27 -0.04 l
0.27 -0.05 l
0.27 -0.18 l
0.27 -0.16 l
0.28 -0.08 l
0.27 0 l
0.27 -0.21 l
0.27 0.09 l
0.27 0.09 l
0.27 -0.07 l
0.27 -0.16 l
0.27 -0.28 l
0.27 -0.05 l
0.27 -0.14 l
0.27 0.04 l
0.28 -0.08 l
0.27 -0.23 l
0.27 -0.11 l
0.27 -0.64 l
0.27 -2.11 l
0.27 -3.09 l
0.27 0.21 l
0.27 3.30 l
0.27 1.76 l
0.27 0.12 l
0.27 -0.84 l
0.28 -4.88 l
0.27 -10.29 l
0.27 -4.95 l
0.27 7.32 l
0.27 8.22 l
0.27 3.08 l
0.27 1.11 l
0.27 0.10 l
0.27 0.20 l
0.27 0.04 l
0.27 -0.13 l
0.28 -0.07 l
0.27 -0.16 l
0.27 -0.01 l
0.27 -0.38 l
0.27 -0.56 l
0.27 -0.47 l
0.27 0.23 l
0.27 0.56 l
0.27 0.03 l
0.27 -0.07 l
0.27 -0.15 l
0.28 -0.04 l
0.27 -0.16 l
0.27 -0.13 l
0.27 -0.01 l
0.27 -0.28 l
0.27 -0.27 l
0.27 -0.26 l
0.27 0.06 l
0.27 0.09 l
0.27 -0.22 l
0.28 -0.27 l
0.27 -0.33 l
0.27 -0.37 l
0.27 -0.17 l
0.27 0.16 l
0.27 -0.07 l
0.27 -0.13 l
0.27 -0.12 l
0.27 -0.07 l
0.27 0.05 l
0.27 -0.13 l
0.28 -0.05 l
0.27 -0.13 l
655.01 325.38 lineto
0.27 -0.13 l
0.27 -0.35 l
0.27 -0.34 l
0.27 -0.17 l
0.27 -0.07 l
0.27 -1.06 l
0.27 -3.41 l
0.27 -4.64 l
0.28 0.32 l
0.27 4.36 l
0.27 1.06 l
0.27 -0.69 l
0.27 0.64 l
0.27 1.15 l
0.27 0.59 l
0.27 -0.14 l
0.27 0.10 l
0.27 -0.01 l
0.27 -0.37 l
0.28 -0.71 l
0.27 -0.74 l
0.27 0.06 l
0.27 0.40 l
0.27 0.04 l
0.27 0 l
0.27 -0.06 l
0.27 -0.42 l
0.27 -0.46 l
0.27 -0.32 l
0.27 0.09 l
0.28 0.04 l
0.27 -0.30 l
0.27 -0.15 l
0.27 -0.12 l
0.27 -0.26 l
0.27 -0.24 l
0.27 -0.05 l
0.27 -0.18 l
0.27 -0.31 l
0.27 -0.14 l
0.28 0.08 l
0.27 -0.13 l
0.27 -0.54 l
0.27 -0.24 l
0.27 -0.16 l
0.27 -0.23 l
0.27 -0.25 l
0.27 -0.17 l
0.27 -0.16 l
0.27 -0.40 l
0.27 -0.30 l
0.28 -0.17 l
0.27 0.25 l
0.27 -0.04 l
0.27 -0.43 l
0.27 -0.26 l
0.27 -0.78 l
0.27 -1.86 l
0.27 -1.99 l
0.27 0.74 l
0.27 2.05 l
0.27 0.52 l
0.28 -0.37 l
0.27 -0.56 l
0.27 0 l
0.27 0.26 l
0.27 0.11 l
0.27 -0.21 l
0.27 -0.47 l
0.27 -0.28 l
0.27 -0.12 l
0.27 0.18 l
0.27 -0.18 l
0.28 -0.28 l
0.27 -0.08 l
0.27 -0.11 l
0.27 -0.30 l
0.27 -0.49 l
0.27 -0.11 l
0.27 -0.08 l
0.27 -0.08 l
0.27 -0.15 l
0.27 -0.24 l
0.27 -0.22 l
0.28 -0.29 l
0.27 -0.17 l
0.27 -0.20 l
0.27 0.02 l
0.27 0.05 l
0.27 -0.19 l
0.27 -0.22 l
0.27 -0.14 l
0.27 -0.10 l
0.27 -0.29 l
0.28 -0.08 l
0.27 -0.05 l
0.27 -0.25 l
0.27 -0.58 l
0.27 -0.48 l
682.10 307.26 lineto
0.27 0.12 l
0.27 0.10 l
0.27 -0.06 l
0.27 -0.11 l
0.27 -0.16 l
0.28 -0.92 l
0.27 -2.31 l
0.27 -1.86 l
0.27 0.90 l
0.27 1.62 l
0.27 0.84 l
0.27 0.55 l
0.27 0.20 l
0.27 -0.01 l
0.27 -0.23 l
0.27 -0.27 l
0.28 -0.11 l
0.27 -0.11 l
0.27 -0.24 l
0.27 -0.01 l
0.27 0.09 l
0.27 -0.24 l
0.27 -0.39 l
0.27 -0.26 l
0.27 -0.10 l
0.27 -0.28 l
0.27 -0.36 l
0.28 -0.06 l
0.27 0.18 l
0.27 0.17 l
0.27 -0.01 l
0.27 -0.23 l
0.27 -0.46 l
0.27 -0.25 l
0.27 -0.10 l
0.27 -0.13 l
0.27 0 l
0.27 0.03 l
0.28 -0.02 l
0.27 -0.06 l
0.27 -0.21 l
0.27 -0.34 l
0.27 -0.23 l
0.27 -0.09 l
0.27 0.02 l
0.27 0 l
0.27 -0.07 l
0.27 -0.03 l
0.27 -0.15 l
0.28 -0.22 l
0.27 -0.26 l
0.27 -0.07 l
0.27 -0.16 l
0.27 -0.40 l
0.27 0 l
0.27 0.08 l
0.27 -0.16 l
0.27 -0.40 l
0.27 -0.83 l
0.28 -1.02 l
0.27 -0.09 l
0.27 0.87 l
0.27 0.56 l
0.27 0.23 l
0.27 -0.10 l
0.27 -0.31 l
0.27 -0.12 l
0.27 -0.16 l
0.27 -0.20 l
0.27 -0.22 l
0.28 -0.23 l
0.27 -0.24 l
0.27 -0.17 l
0.27 0.02 l
0.27 -0.05 l
0.27 -0.27 l
0.27 -0.19 l
0.27 -0.25 l
0.27 -0.27 l
0.27 -0.13 l
0.27 -0.24 l
0.28 -0.14 l
0.27 -0.15 l
0.27 -0.01 l
0.27 -0.11 l
0.27 -0.63 l
0.27 -0.38 l
0.27 -0.09 l
0.27 0.15 l
0.27 0.10 l
0.27 0 l
0.27 -0.09 l
0.28 -0.42 l
0.27 -0.36 l
0.27 -0.37 l
0.27 -0.32 l
0.27 -0.08 l
0.27 0.11 l
0.27 0.04 l
709.19 293.81 lineto
0.27 -0.17 l
0.27 -0.50 l
0.27 -0.29 l
0.28 -0.24 l
0.27 -0.12 l
0.27 0.08 l
0.27 -0.12 l
0.27 -0.14 l
0.27 -0.32 l
0.27 -0.40 l
0.27 -0.47 l
0.27 -0.37 l
0.27 -0.06 l
0.28 0.24 l
0.27 0.10 l
0.27 -0.32 l
0.27 -0.13 l
0.27 -0.26 l
0.27 -0.37 l
0.27 -0.32 l
0.27 -0.25 l
0.27 -0.08 l
0.27 -0.09 l
0.27 -0.10 l
0.28 -0.33 l
0.27 0 l
0.27 0.05 l
0.27 -0.42 l
0.27 -0.57 l
0.27 -0.36 l
0.27 -0.01 l
0.27 -0.17 l
0.27 -0.12 l
0.27 0 l
0.27 -0.09 l
0.28 -0.18 l
0.27 -0.25 l
0.27 -0.24 l
0.27 -0.31 l
0.27 -0.15 l
0.27 -0.24 l
0.27 -0.13 l
0.27 -0.10 l
0.27 -0.30 l
0.27 -0.19 l
0.27 -0.25 l
0.28 -0.10 l
0.27 -0.15 l
0.27 -0.12 l
0.27 -0.07 l
0.27 -0.24 l
0.27 -0.20 l
0.27 -0.24 l
0.27 -0.35 l
0.27 -0.54 l
0.27 -0.13 l
0.27 0.30 l
0.28 0.04 l
0.27 -0.28 l
0.27 -0.18 l
0.27 -0.05 l
0.27 -0.37 l
0.27 -0.20 l
0.27 -0.08 l
0.27 -0.23 l
0.27 -0.03 l
0.27 0.01 l
0.28 -0.09 l
0.27 -0.22 l
0.27 -0.20 l
0.27 -0.25 l
0.27 -0.33 l
0.27 -0.26 l
0.27 -0.11 l
0.27 -0.09 l
0.27 -0.15 l
0.27 -0.11 l
0.27 -0.27 l
0.28 -0.22 l
0.27 -0.01 l
0.27 0.10 l
0.27 0 l
0.27 -0.22 l
0.27 -0.31 l
0.27 -0.26 l
0.27 -0.10 l
0.27 -0.33 l
0.27 -0.17 l
0.27 0.04 l
0.28 -0.06 l
0.27 -0.08 l
0.27 -0.28 l
0.27 -0.13 l
0.27 -0.22 l
0.27 -0.12 l
0.27 0.19 l
0.27 -0.20 l
0.27 -0.26 l
0.27 0.01 l
736.28 276.72 lineto
0.28 -0.50 l
0.27 -0.34 l
0.27 -0.01 l
0.27 0.09 l
0.27 0.05 l
0.27 -0.13 l
0.27 -0.18 l
0.27 -0.36 l
0.27 -0.29 l
0.27 -0.04 l
0.27 0.16 l
0.28 0.05 l
0.27 -0.09 l
0.27 -0.07 l
0.27 -0.32 l
0.27 -0.21 l
0.27 -0.16 l
0.27 -0.14 l
0.27 0 l
0.27 0.14 l
0.27 0.18 l
0.27 -0.34 l
0.28 -0.53 l
0.27 -0.37 l
0.27 -0.17 l
0.27 -0.04 l
0.27 0 l
0.27 0.05 l
0.27 -0.12 l
0.27 -0.37 l
0.27 -0.46 l
0.27 0.02 l
0.28 0.23 l
0.27 0.04 l
0.27 -0.04 l
0.27 -0.13 l
0.27 -0.01 l
0.27 -0.24 l
0.27 -0.55 l
0.27 -0.23 l
0.27 0.23 l
0.27 0.01 l
0.27 -0.21 l
0.28 0.03 l
0.27 -0.21 l
0.27 -0.37 l
0.27 -0.26 l
0.27 0.13 l
0.27 0.10 l
0.27 -0.28 l
0.27 -0.19 l
0.27 -0.18 l
0.27 -0.18 l
0.27 -0.10 l
0.28 -0.07 l
0.27 -0.16 l
0.27 -0.30 l
0.27 -0.32 l
0.27 -0.16 l
0.27 -0.05 l
0.27 -0.14 l
0.27 -0.07 l
0.27 -0.19 l
0.27 -0.12 l
0.27 0 l
0.28 -0.17 l
0.27 -0.34 l
0.27 -0.30 l
0.27 -0.02 l
0.27 -0.03 l
0.27 0.07 l
0.27 -0.06 l
0.27 -0.30 l
0.27 -0.33 l
0.27 -0.38 l
0.27 -0.13 l
0.28 -0.16 l
0.27 -0.14 l
0.27 -0.12 l
0.27 -0.27 l
0.27 -0.16 l
0.27 0.05 l
0.27 0.10 l
0.27 -0.30 l
0.27 -0.33 l
0.27 -0.24 l
0.28 -0.13 l
0.27 -0.24 l
0.27 -0.32 l
0.27 0.10 l
0.27 -0.18 l
0.27 -0.29 l
0.27 -0.20 l
0.27 -0.35 l
0.27 -0.14 l
0.27 -0.05 l
0.27 -0.12 l
0.28 -0.30 l
0.27 -0.34 l
763.38 261.91 lineto
0.27 -0.16 l
0.27 -0.28 l
0.27 -0.17 l
0.27 -0.01 l
0.27 -0.19 l
0.27 -0.16 l
0.27 -0.18 l
0.27 -0.20 l
0.28 -0.11 l
0.27 -0.15 l
0.27 -0.29 l
0.27 -0.38 l
0.27 -0.28 l
0.27 -0.12 l
0.27 -0.07 l
0.27 -0.17 l
0.27 -0.13 l
0.27 0.05 l
0.27 0.05 l
0.28 -0.23 l
0.27 -0.15 l
0.27 -0.17 l
0.27 -0.59 l
0.27 -0.17 l
0.27 0.13 l
0.27 -0.15 l
0.27 -0.49 l
0.27 -0.34 l
0.27 -0.05 l
0.27 -0.29 l
0.28 -0.09 l
0.27 -0.07 l
0.27 -0.20 l
0.27 -0.16 l
0.27 -0.19 l
0.27 -0.12 l
0.27 -0.27 l
0.27 -0.07 l
0.27 -0.09 l
0.27 -0.29 l
0.28 -0.31 l
0.27 -0.19 l
0.27 -0.15 l
0.27 -0.44 l
0.27 -0.12 l
0.27 -0.03 l
0.27 -0.10 l
0.27 -0.15 l
0.27 -0.21 l
0.27 -0.20 l
0.27 -0.26 l
0.28 -0.11 l
0.27 -0.11 l
0.27 0.01 l
0.27 -0.25 l
0.27 -0.47 l
0.27 -0.24 l
0.27 -0.24 l
0.27 -0.14 l
0.27 -0.29 l
0.27 -0.14 l
0.27 0.04 l
0.28 -0.06 l
0.27 -0.15 l
0.27 -0.35 l
0.27 -0.36 l
0.27 -0.15 l
0.27 0.13 l
0.27 -0.35 l
0.27 -0.32 l
0.27 0.07 l
0.27 -0.10 l
0.27 -0.29 l
0.28 -0.43 l
0.27 -0.01 l
0.27 -0.10 l
0.27 -0.49 l
0.27 -0.32 l
0.27 0.03 l
0.27 0.25 l
0.27 -0.08 l
0.27 -0.50 l
0.27 -0.54 l
0.27 0.16 l
0.28 0.16 l
0.27 -0.74 l
0.27 -0.63 l
0.27 0.23 l
0.27 0.23 l
0.27 -0.67 l
0.27 -0.64 l
0.27 0.19 l
0.27 0.57 l
0.27 -0.51 l
0.28 -1.14 l
0.27 0.17 l
0.27 0.77 l
0.27 -0.34 l
0.27 -1.25 l
790.47 243.12 lineto
0.27 0.75 l
0.27 -0.34 l
0.27 -1.28 l
0.27 -0.23 l
0.27 1.05 l
0.28 -0.21 l
0.27 -1.41 l
0.27 -0.21 l
0.27 1.07 l
0.27 -0.36 l
0.27 -1.76 l
0.27 0 l
0.27 1.27 l
0.27 -0.48 l
0.27 -1.86 l
0.27 0.50 l
0.28 1.62 l
0.27 -1.22 l
0.27 -2.02 l
0.27 0.76 l
0.27 1.59 l
0.27 -1.59 l
0.27 -1.62 l
0.27 1.46 l
0.27 0.62 l
0.27 -1.97 l
0.27 -0.75 l
0.28 1.93 l
0.27 -0.17 l
0.27 -2.31 l
0.27 0.30 l
0.27 1.74 l
0.27 -0.95 l
0.27 -1.70 l
0.27 1.38 l
0.27 0.94 l
0.27 -2.08 l
0.27 -0.76 l
0.28 1.78 l
0.27 -0.16 l
0.27 -1.71 l
0.27 0.84 l
0.27 0.98 l
0.27 -1.44 l
0.27 -0.71 l
0.27 1.38 l
0.27 -0.04 l
0.27 -1.35 l
0.27 0.52 l
0.28 0.79 l
0.27 -0.68 l
0.27 -0.25 l
0.27 0.80 l
0.27 -0.41 l
0.27 -0.69 l
0.27 0.76 l
0.27 0.31 l
0.27 -0.58 l
0.27 -0.21 l
0.28 0.66 l
0.27 0.27 l
0.27 -0.68 l
0.27 -1.07 l
0.27 -0.65 l
0.27 -0.04 l
0.27 -0.54 l
0.27 -0.66 l
0.27 -1.23 l
0.27 -0.98 l
0.27 0.63 l
0.28 0.02 l
0.27 -2.07 l
0.27 -1.77 l
0.27 0.43 l
0.27 0.03 l
0.27 -0.49 l
0.27 -1.45 l
0.27 -2.42 l
0.27 1.11 l
0.27 1.76 l
0.27 -1.99 l
0.28 -3.13 l
0.27 -1.15 l
0.27 1.34 l
0.27 1.78 l
0.27 -2.42 l
0.27 -5.05 l
0.27 0.66 l
0.27 3.69 l
0.27 -0.61 l
0.27 -4.73 l
0.27 -3.71 l
0.28 3.11 l
0.27 4.15 l
0.27 -3.99 l
0.27 -6.99 l
0.27 -0.36 l
0.27 5.49 l
0.27 1.66 l
817.56 205.93 lineto
0.27 -6.26 l
0.27 4.41 l
0.27 6.01 l
0.28 -4.12 l
0.27 -10.25 l
0.27 -1.12 l
0.27 8.86 l
0.27 1.05 l
0.27 -12.05 l
0.27 -7.88 l
0.27 8.27 l
0.27 8.24 l
0.27 -9.59 l
0.28 -14.22 l
0.27 3.29 l
0.27 13.17 l
0.27 -3.09 l
0.27 -17.46 l
0.27 -3.71 l
0.27 14.42 l
0.27 4.10 l
0.27 -16.68 l
0.27 -9.89 l
0.27 12.66 l
0.28 10.23 l
0.27 -12.47 l
0.27 -13.67 l
0.27 8.28 l
0.27 12.56 l
0.27 -9.06 l
0.27 -17.06 l
0.27 4.10 l
0.27 14.75 l
0.27 -7.19 l
0.27 -21.03 l
0.28 1.65 l
0.27 17.95 l
0.27 -4.97 l
0.27 -22.25 l
0.27 1.41 l
0.27 19.59 l
0.27 -3.89 l
0.27 -21.22 l
0.27 1.93 l
0.27 18.19 l
0.27 -4.26 l
0.28 -18.10 l
0.27 4.49 l
0.27 16.26 l
0.27 -6.05 l
0.27 -17.20 l
0.27 4.59 l
0.27 14.29 l
0.27 -8.33 l
0.27 -16.32 l
0.27 7.66 l
0.27 13.23 l
0.28 -12.23 l
0.27 -13.20 l
0.27 13.19 l
0.27 9.33 l
0.27 -15.57 l
0.27 -5.87 l
0.27 16.69 l
0.27 1.81 l
0.27 -16.28 l
0.27 2.77 l
0.28 15.63 l
0.27 -7.37 l
0.27 -15.64 l
0.27 8.03 l
0.27 9.96 l
0.27 -11.19 l
0.27 -4.55 l
0.27 13.77 l
0.27 -1.30 l
0.27 -14.61 l
0.27 5.07 l
0.28 10.31 l
0.27 -9.31 l
0.27 -5.46 l
0.27 11.78 l
0.27 0.27 l
0.27 -10.62 l
0.27 5.43 l
0.27 8.01 l
0.27 -8.30 l
0.27 -2.20 l
0.27 11.61 l
0.28 -1.18 l
0.27 -5.52 l
0.27 11.85 l
0.27 8.92 l
0.27 -3.30 l
0.27 6.78 l
0.27 16.20 l
0.27 3.69 l
0.27 -10.65 l
0.27 -9.76 l
844.65 148.08 lineto
0.28 -5.23 l
0.27 -12.49 l
0.27 -0.52 l
0.27 2.08 l
0.27 -8.90 l
0.27 -2.51 l
0.27 2.08 l
0.27 -7.73 l
0.27 -3.21 l
0.27 4.03 l
0.27 -5.12 l
0.28 -2.13 l
0.27 3.78 l
0.27 -4.97 l
0.27 -2.09 l
0.27 2.88 l
0.27 -3.46 l
0.27 -0.28 l
0.27 2.93 l
0.27 -3.53 l
0.27 0.76 l
0.27 2.43 l
0.28 -3.12 l
0.27 1.82 l
0.27 0.70 l
0.27 -1.90 l
0.27 2.87 l
0.27 0.05 l
0.27 -0.57 l
0.27 2.75 l
0.27 -0.79 l
0.27 1.09 l
0.28 3.00 l
0.27 -0.90 l
0.27 2.65 l
0.27 0.74 l
0.27 0.39 l
0.27 3.61 l
0.27 -0.28 l
0.27 3.08 l
0.27 1.75 l
0.27 1.13 l
0.27 3.42 l
0.28 0.56 l
0.27 3.51 l
0.27 1.86 l
0.27 2.38 l
0.27 3.28 l
0.27 1.64 l
0.27 3.60 l
0.27 2.01 l
0.27 3.50 l
0.27 3.02 l
0.27 2.55 l
0.28 3.65 l
0.27 2.71 l
0.27 3.75 l
0.27 2.77 l
0.27 3.41 l
0.27 3.21 l
0.27 2.86 l
0.27 3.24 l
0.27 2.60 l
0.27 3.13 l
0.27 2.41 l
0.28 2.75 l
0.27 2.12 l
0.27 1.99 l
0.27 1.90 l
0.27 0.94 l
0.27 1.53 l
0.27 0.97 l
0.27 1.00 l
0.27 0.58 l
0.27 0.56 l
0.27 0.56 l
0.28 -0.05 l
0.27 0.29 l
0.27 0.05 l
0.27 0.20 l
0.27 -0.22 l
0.27 -0.08 l
0.27 -0.03 l
0.27 -0.15 l
0.27 0.07 l
0.27 -0.31 l
0.28 -0.06 l
0.27 -0.18 l
0.27 0.02 l
0.27 -0.21 l
0.27 -0.35 l
0.27 0.03 l
0.27 -0.05 l
0.27 -0.12 l
0.27 -0.44 l
0.27 0.04 l
0.27 -0.01 l
0.28 -0.09 l
0.27 -0.11 l
871.75 202.78 lineto
0.27 -0.10 l
0.27 -0.16 l
0.27 -0.01 l
0.27 -0.25 l
0.27 -0.12 l
0.27 -0.01 l
0.27 -0.10 l
0.27 -0.02 l
0.28 -0.34 l
0.27 -0.06 l
0.27 -0.19 l
0.27 -0.03 l
0.27 0.02 l
0.27 -0.28 l
0.27 -0.16 l
0.27 -0.18 l
0.27 -0.04 l
0.27 -0.20 l
0.27 -0.23 l
0.28 -0.21 l
0.27 0.01 l
0.27 0 l
0.27 -0.31 l
0.27 -0.02 l
0.27 -0.02 l
0.27 -0.10 l
0.27 -0.17 l
0.27 -0.04 l
0.27 -0.12 l
0.27 -0.16 l
0.28 0.04 l
0.27 -0.20 l
0.27 -0.15 l
0.27 -0.33 l
0.27 -0.19 l
0.27 -0.02 l
0.27 -0.13 l
0.27 0 l
0.27 -0.04 l
0.27 0 l
0.28 -0.13 l
0.27 -0.03 l
0.27 -0.08 l
0.27 -0.13 l
0.27 -0.03 l
0.27 -0.13 l
0.27 -0.26 l
0.27 -0.25 l
0.27 0.09 l
0.27 -0.10 l
0.27 -0.14 l
0.28 -0.03 l
0.27 -0.18 l
0.27 -0.08 l
0.27 -0.20 l
0.27 -0.18 l
0.27 -0.11 l
0.27 -0.03 l
0.27 0 l
0.27 -0.08 l
0.27 -0.13 l
0.27 -0.07 l
0.28 0.03 l
0.27 0.02 l
0.27 -0.01 l
0.27 -0.20 l
0.27 -0.14 l
0.27 -0.18 l
0.27 -0.15 l
0.27 0.13 l
0.27 -0.10 l
0.27 -0.11 l
0.27 -0.06 l
0.28 -0.05 l
0.27 -0.14 l
0.27 -0.10 l
0.27 0.03 l
0.27 -0.11 l
0.27 -0.18 l
0.27 -0.21 l
0.27 -0.14 l
0.27 -0.08 l
0.27 0.23 l
0.27 -0.01 l
0.28 -0.33 l
0.27 0.06 l
0.27 -0.19 l
0.27 -0.19 l
0.27 -0.11 l
0.27 -0.14 l
0.27 -0.01 l
0.27 -0.11 l
0.27 -0.10 l
0.27 -0.07 l
0.28 0.10 l
0.27 -0.11 l
0.27 -0.27 l
0.27 -0.08 l
0.27 0.03 l
currentpoint o m
898.84 192.81 lineto
0.27 -0.12 l
0.27 -0.01 l
0.27 -0.22 l
0.27 -0.26 l
0.27 -0.13 l
0.28 -0.01 l
0.27 0.02 l
0.27 -0.22 l
0.27 -0.10 l
0.27 -0.15 l
0.27 -0.02 l
0.27 0.02 l
0.27 -0.17 l
0.27 0.03 l
0.27 0.03 l
0.27 -0.21 l
0.28 -0.31 l
0.27 -0.05 l
0.27 0.06 l
0.27 0.08 l
0.27 -0.05 l
0.27 -0.21 l
0.27 -0.11 l
0.27 -0.23 l
0.27 -0.16 l
0.27 -0.11 l
0.27 -0.23 l
0.28 -0.19 l
0.27 0.03 l
0.27 0.15 l
0.27 -0.13 l
0.27 -0.23 l
0.27 -0.09 l
0.27 -0.06 l
0.27 -0.12 l
0.27 -0.12 l
0.27 -0.15 l
0.27 -0.02 l
0.28 -0.13 l
0.27 -0.37 l
0.27 -0.11 l
0.27 -0.04 l
0.27 0.08 l
0.27 0.02 l
0.27 -0.27 l
0.27 -0.21 l
0.27 -0.07 l
0.27 0.05 l
0.27 -0.19 l
0.28 -0.18 l
0.27 0.06 l
0.27 0.07 l
0.27 -0.06 l
0.27 -0.24 l
0.27 -0.18 l
0.27 -0.14 l
0.27 -0.05 l
0.27 -0.19 l
0.27 -0.21 l
0.28 -0.02 l
0.27 -0.01 l
0.27 -0.04 l
0.27 -0.12 l
0.27 -0.06 l
0.27 -0.08 l
0.27 -0.03 l
0.27 -0.14 l
0.27 -0.21 l
0.27 0.07 l
0.27 -0.09 l
0.28 -0.10 l
0.27 0.01 l
0.27 0.02 l
0.27 0.06 l
0.27 -0.05 l
0.27 -0.15 l
0.27 -0.26 l
0.27 -0.16 l
0.27 -0.10 l
0.27 -0.11 l
0.27 -0.15 l
0.28 -0.13 l
0.27 -0.09 l
0.27 -0.13 l
0.27 -0.07 l
0.27 -0.02 l
0.27 0.21 l
0.27 -0.04 l
0.27 -0.40 l
0.27 -0.07 l
0.27 -0.01 l
0.27 -0.21 l
0.28 -0.03 l
0.27 0.01 l
0.27 -0.23 l
0.27 -0.09 l
0.27 -0.02 l
0.27 -0.01 l
0.27 -0.08 l
925.93 183.40 lineto
0.27 -0.06 l
0.27 -0.27 l
0.27 -0.18 l
0.28 -0.02 l
0.27 -0.05 l
0.27 -0.09 l
0.27 -0.11 l
0.27 0.17 l
0.27 -0.11 l
0.27 -0.33 l
0.27 -0.08 l
0.27 -0.10 l
0.27 -0.10 l
0.28 -0.10 l
0.27 -0.06 l
0.27 -0.02 l
0.27 -0.05 l
0.27 -0.07 l
0.27 -0.06 l
0.27 -0.03 l
0.27 -0.10 l
0.27 -0.07 l
0.27 -0.12 l
0.27 -0.18 l
0.28 0.15 l
0.27 0.04 l
0.27 -0.32 l
0.27 -0.13 l
0.27 -0.19 l
0.27 -0.09 l
0.27 0.11 l
0.27 -0.07 l
0.27 0.16 l
0.27 0.06 l
0.27 -0.26 l
0.28 -0.08 l
0.27 0.02 l
0.27 -0.06 l
0.27 -0.12 l
0.27 -0.19 l
0.27 -0.35 l
0.27 -0.13 l
0.27 0.12 l
0.27 0.04 l
0.27 -0.03 l
0.27 0.03 l
0.28 0.09 l
0.27 -0.07 l
0.27 -0.24 l
0.27 -0.21 l
0.27 0.03 l
0.27 -0.03 l
0.27 -0.06 l
0.27 0.16 l
0.27 0.01 l
0.27 -0.10 l
0.27 -0.21 l
0.28 -0.19 l
0.27 0.10 l
0.27 0.15 l
0.27 0.13 l
0.27 -0.07 l
0.27 -0.27 l
0.27 -0.19 l
0.27 0.01 l
0.27 0.08 l
0.27 0.08 l
0.28 -0.08 l
0.27 -0.16 l
0.27 -0.04 l
0.27 -0.11 l
0.27 -0.01 l
0.27 0.03 l
0.27 -0.05 l
0.27 -0.10 l
0.27 0.05 l
0.27 0.18 l
0.27 -0.18 l
0.28 -0.01 l
0.27 0.17 l
0.27 -0.18 l
0.27 -0.22 l
0.27 -0.04 l
0.27 0.01 l
0.27 -0.01 l
0.27 -0.05 l
0.27 -0.12 l
0.27 0.06 l
0.27 0.11 l
0.28 -0.16 l
0.27 -0.03 l
0.27 0.13 l
0.27 0.01 l
0.27 -0.04 l
0.27 0.04 l
0.27 -0.14 l
0.27 -0.18 l
0.27 -0.03 l
0.27 -0.06 l
953.02 177.94 lineto
0.28 0.15 l
0.27 0.07 l
0.27 -0.06 l
0.27 -0.14 l
0.27 -0.17 l
0.27 -0.02 l
0.27 0.14 l
0.27 -0.10 l
0.27 -0.14 l
0.27 0.07 l
0.27 0.13 l
0.28 -0.01 l
0.27 -0.18 l
0.27 -0.12 l
0.27 0.18 l
0.27 0.02 l
0.27 -0.40 l
0.27 -0.07 l
0.27 0.05 l
0.27 -0.14 l
0.27 -0.11 l
0.28 0 l
0.27 0.18 l
0.27 -0.11 l
0.27 -0.27 l
0.27 -0.06 l
0.27 0.03 l
0.27 0.12 l
0.27 0.12 l
0.27 -0.02 l
0.27 -0.15 l
0.27 -0.06 l
0.28 -0.05 l
0.27 -0.16 l
0.27 -0.24 l
0.27 -0.09 l
0.27 0.21 l
0.27 0.02 l
0.27 -0.18 l
0.27 -0.12 l
0.27 -0.16 l
0.27 -0.09 l
0.27 0.10 l
0.28 0.11 l
0.27 -0.08 l
0.27 -0.10 l
0.27 -0.03 l
0.27 -0.22 l
0.27 -0.25 l
0.27 0.11 l
0.27 0.29 l
0.27 0.13 l
0.27 -0.15 l
0.27 -0.19 l
0.28 -0.23 l
0.27 -0.22 l
0.27 -0.03 l
0.27 0.08 l
0.27 0.11 l
0.27 -0.19 l
0.27 -0.13 l
0.27 0.10 l
0.27 -0.03 l
0.27 0.06 l
0.27 -0.15 l
0.28 -0.13 l
0.27 0.04 l
0.27 0 l
0.27 -0.06 l
0.27 -0.29 l
0.27 0.01 l
0.27 0.14 l
0.27 -0.03 l
0.27 -0.14 l
0.27 -0.08 l
0.27 -0.05 l
0.28 -0.13 l
0.27 0 l
0.27 -0.17 l
0.27 -0.02 l
0.27 0.06 l
0.27 -0.22 l
0.27 -0.02 l
0.27 0.08 l
0.27 0.05 l
0.27 -0.17 l
0.28 -0.17 l
0.27 -0.05 l
0.27 -0.11 l
0.27 0.01 l
0.27 0.05 l
0.27 0.03 l
0.27 0 l
0.27 -0.13 l
0.27 -0.21 l
0.27 0.02 l
0.27 0.13 l
0.28 -0.05 l
0.27 -0.08 l
980.12 173.34 lineto
0.27 -0.06 l
0.27 -0.07 l
0.27 0.11 l
0.27 -0.05 l
0.27 -0.19 l
0.27 0.19 l
0.27 0.09 l
0.27 -0.13 l
0.28 -0.07 l
0.27 0.08 l
0.27 0.21 l
0.27 0.25 l
0.27 -0.04 l
0.27 -0.28 l
0.27 -0.10 l
0.27 -0.12 l
0.27 -0.11 l
0.27 0.01 l
0.27 0.19 l
0.28 0.12 l
0.27 -0.08 l
0.27 0.14 l
0.27 -0.01 l
0.27 -0.20 l
0.27 -0.06 l
0.27 -0.09 l
0.27 -0.23 l
0.27 -0.05 l
0.27 0.30 l
0.27 0.04 l
0.28 -0.17 l
0.27 -0.01 l
0.27 -0.02 l
0.27 -0.05 l
0.27 0 l
0.27 0.10 l
0.27 0.02 l
0.27 0.04 l
0.27 0.13 l
0.27 -0.02 l
0.28 -0.08 l
0.27 0.07 l
0.27 0.04 l
0.27 -0.15 l
0.27 -0.07 l
0.27 0.14 l
0.27 0.12 l
0.27 -0.01 l
0.27 0.04 l
0.27 0.04 l
0.27 0.04 l
0.28 0.01 l
0.27 -0.07 l
0.27 0 l
0.27 0.07 l
0.27 0.03 l
0.27 -0.22 l
0.27 -0.08 l
0.27 0.12 l
0.27 -0.03 l
0.27 -0.07 l
0.27 -0.06 l
0.28 0.12 l
0.27 0.20 l
0.27 0.16 l
0.27 -0.03 l
0.27 -0.20 l
0.27 -0.03 l
0.27 0.01 l
0.27 0.04 l
0.27 0.07 l
0.27 0.04 l
0.27 -0.05 l
0.28 -0.05 l
0.27 0.04 l
0.27 -0.02 l
0.27 0.06 l
0.27 0 l
0.27 -0.10 l
0.27 0.05 l
0.27 0.28 l
0.27 -0.07 l
0.27 -0.26 l
0.27 0.14 l
0.28 0.06 l
0.27 0 l
0.27 -0.11 l
0.27 -0.11 l
0.27 -0.01 l
0.27 -0.16 l
0.27 0.17 l
0.27 0.23 l
0.27 0.08 l
0.27 -0.04 l
0.28 -0.10 l
0.27 0.15 l
0.27 0 l
0.27 -0.13 l
0.27 -0.01 l
1007.21 173.51 lineto
0.27 0.15 l
0.27 0.06 l
0.27 -0.13 l
0.27 -0.04 l
0.27 0.04 l
0.28 0.09 l
0.27 0.15 l
0.27 -0.11 l
0.27 -0.16 l
0.27 -0.05 l
0.27 -0.03 l
0.27 0.05 l
0.27 0.05 l
0.27 0.02 l
0.27 0 l
0.27 -0.06 l
0.28 -0.07 l
0.27 0.07 l
0.27 0.06 l
0.27 0.16 l
0.27 0.04 l
0.27 -0.25 l
0.27 0.10 l
0.27 0.14 l
0.27 -0.08 l
0.27 -0.11 l
0.27 -0.11 l
0.28 0.08 l
0.27 0.04 l
0.27 -0.04 l
0.27 -0.09 l
0.27 -0.04 l
0.27 0.13 l
0.27 0.13 l
0.27 -0.15 l
0.27 -0.16 l
0.27 0.15 l
0.27 0.07 l
0.28 0.03 l
0.27 0.05 l
0.27 0.08 l
0.27 -0.16 l
0.27 -0.23 l
0.27 0.23 l
0.27 0.09 l
0.27 -0.14 l
0.27 0.03 l
0.27 0.09 l
0.27 -0.06 l
0.28 -0.04 l
0.27 0.13 l
0.27 -0.07 l
0.27 -0.27 l
0.27 0 l
0.27 0.29 l
0.27 0.02 l
0.27 -0.07 l
0.27 0.08 l
0.27 0.02 l
0.28 0.09 l
0.27 -0.14 l
0.27 -0.22 l
0.27 0.02 l
0.27 0.11 l
0.27 0.05 l
0.27 0.10 l
0.27 -0.03 l
0.27 -0.21 l
0.27 0.04 l
0.27 -0.04 l
0.28 0.07 l
0.27 0.19 l
0.27 -0.16 l
0.27 -0.06 l
0.27 0.11 l
0.27 0.08 l
0.27 -0.19 l
0.27 -0.11 l
0.27 0.18 l
0.27 0.09 l
0.27 -0.10 l
0.28 -0.05 l
0.27 0.13 l
0.27 0.10 l
0.27 0.02 l
0.27 -0.23 l
0.27 -0.18 l
0.27 0.16 l
0.27 0.24 l
0.27 0.15 l
0.27 -0.06 l
0.27 0.12 l
0.28 0.09 l
0.27 -0.06 l
0.27 -0.10 l
0.27 -0.08 l
0.27 0.10 l
0.27 -0.02 l
0.27 0.08 l
1034.30 173.98 lineto
0.27 -0.03 l
0.27 0.21 l
0.27 0.06 l
0.28 -0.01 l
0.27 -0.15 l
0.27 -0.10 l
0.27 -0.03 l
0.27 -0.01 l
0.27 0.02 l
0.27 0.06 l
0.27 0.14 l
0.27 -0.05 l
0.27 -0.07 l
0.28 -0.05 l
0.27 0.10 l
0.27 0.12 l
0.27 -0.07 l
0.27 0.11 l
0.27 0.17 l
0.27 0.03 l
0.27 -0.03 l
0.27 -0.08 l
0.27 -0.18 l
0.27 0.04 l
0.28 0.21 l
0.27 0.08 l
0.27 0.08 l
0.27 -0.01 l
0.27 -0.03 l
0.27 -0.07 l
0.27 0.02 l
0.27 0.18 l
0.27 0.16 l
0.27 -0.03 l
0.27 -0.26 l
0.28 -0.20 l
0.27 0.02 l
0.27 0.19 l
0.27 0.13 l
0.27 0.13 l
0.27 0.01 l
0.27 0.01 l
0.27 0.08 l
0.27 -0.05 l
0.27 0.18 l
0.27 -0.15 l
0.28 -0.15 l
0.27 0.20 l
0.27 0.02 l
0.27 0.08 l
0.27 0 l
0.27 0.06 l
0.27 -0.05 l
0.27 -0.09 l
0.27 0.13 l
0.27 0.05 l
0.27 0.09 l
0.28 0.01 l
0.27 0.05 l
0.27 -0.05 l
0.27 -0.06 l
0.27 0.05 l
0.27 0 l
0.27 0.24 l
0.27 0 l
0.27 -0.23 l
0.27 0.11 l
0.28 0.16 l
0.27 -0.07 l
0.27 -0.01 l
0.27 -0.06 l
0.27 -0.02 l
0.27 0.17 l
0.27 0.04 l
0.27 0.09 l
0.27 0 l
0.27 -0.05 l
0.27 0.02 l
0.28 0 l
0.27 0.06 l
0.27 -0.07 l
0.27 0.17 l
0.27 0.16 l
0.27 0.02 l
0.27 0.16 l
0.27 0.06 l
0.27 -0.10 l
0.27 -0.17 l
0.27 0.20 l
0.28 0.11 l
0.27 0.04 l
0.27 0.18 l
0.27 -0.17 l
0.27 -0.19 l
0.27 0.10 l
0.27 0.30 l
0.27 0.01 l
0.27 -0.04 l
0.27 0.10 l
1061.39 176.52 lineto
0.28 0.21 l
0.27 0.03 l
0.27 -0.22 l
0.27 -0.08 l
0.27 0.14 l
0.27 0.20 l
0.27 -0.04 l
0.27 -0.13 l
0.27 0.14 l
0.27 0.23 l
0.27 -0.03 l
0.28 -0.10 l
0.27 -0.07 l
0.27 0.11 l
0.27 0.22 l
0.27 0.01 l
0.27 0 l
0.27 0.01 l
0.27 -0.13 l
0.27 -0.05 l
0.27 0.19 l
0.28 0.19 l
0.27 0.09 l
0.27 -0.10 l
0.27 -0.07 l
0.27 0.08 l
0.27 -0.02 l
0.27 0.21 l
0.27 -0.03 l
0.27 -0.07 l
0.27 0.14 l
0.27 -0.11 l
0.28 0.06 l
0.27 0.02 l
0.27 0.04 l
0.27 0.27 l
0.27 0.19 l
0.27 0.05 l
0.27 -0.06 l
0.27 -0.01 l
0.27 0.10 l
0.27 -0.05 l
0.27 -0.12 l
0.28 0.07 l
0.27 -0.06 l
0.27 -0.02 l
0.27 0.10 l
0.27 0.04 l
0.27 0.23 l
0.27 -0.01 l
0.27 -0.04 l
0.27 -0.06 l
0.27 -0.07 l
0.27 0.24 l
0.28 0.13 l
0.27 0.15 l
0.27 0.05 l
0.27 0.03 l
0.27 0 l
0.27 -0.22 l
0.27 0.01 l
0.27 0.10 l
0.27 0.17 l
0.27 0.10 l
0.27 -0.07 l
0.28 -0.06 l
0.27 -0.09 l
0.27 0.01 l
0.27 0.11 l
0.27 0.18 l
0.27 0.05 l
0.27 -0.04 l
0.27 -0.04 l
0.27 -0.09 l
0.27 0.07 l
0.27 0.25 l
0.28 0.12 l
0.27 0 l
0.27 -0.06 l
0.27 -0.15 l
0.27 -0.06 l
0.27 -0.04 l
0.27 0.06 l
0.27 0.20 l
0.27 0.02 l
0.27 0 l
0.28 0.08 l
0.27 0.03 l
0.27 -0.13 l
0.27 -0.13 l
0.27 0.06 l
0.27 0.08 l
0.27 0.02 l
0.27 -0.03 l
0.27 -0.02 l
0.27 0.13 l
0.27 0.35 l
0.28 0.18 l
0.27 0.04 l
1088.49 179.91 lineto
0.27 -0.14 l
0.27 -0.06 l
0.27 -0.07 l
0.27 -0.06 l
0.27 -0.06 l
0.27 0.09 l
0.27 0.18 l
0.27 -0.04 l
0.28 -0.06 l
0.27 -0.11 l
0.27 0.06 l
0.27 0.04 l
0.27 -0.07 l
0.27 0.13 l
0.27 -0.01 l
0.27 -0.11 l
0.27 0.17 l
0.27 0.32 l
0.27 -0.06 l
0.28 -0.26 l
0.27 -0.03 l
0.27 -0.03 l
0.27 0.10 l
0.27 0.15 l
0.27 0.03 l
0.27 0.01 l
0.27 -0.06 l
0.27 -0.13 l
0.27 0.05 l
0.27 0.11 l
0.28 -0.02 l
0.27 0 l
0.27 0.11 l
0.27 0.12 l
0.27 -0.02 l
0.27 -0.13 l
0.27 -0.14 l
0.27 0.08 l
0.27 0.24 l
0.27 0.08 l
0.28 0.01 l
0.27 -0.02 l
0.27 -0.03 l
0.27 -0.01 l
0.27 0.01 l
0.27 0.02 l
0.27 -0.09 l
0.27 0.02 l
0.27 0.07 l
0.27 0.02 l
0.27 0.15 l
0.28 0.23 l
0.27 -0.09 l
0.27 -0.32 l
0.27 -0.07 l
0.27 -0.01 l
0.27 0.11 l
0.27 0.16 l
0.27 -0.02 l
0.27 0.07 l
0.27 -0.03 l
0.27 -0.15 l
0.28 0.07 l
0.27 0.14 l
0.27 0 l
0.27 0.01 l
0.27 0.08 l
0.27 -0.01 l
0.27 -0.08 l
0.27 -0.03 l
0.27 0.11 l
0.27 0.08 l
0.27 -0.04 l
0.28 -0.18 l
0.27 0.10 l
0.27 0.34 l
0.27 -0.06 l
0.27 -0.21 l
0.27 -0.03 l
0.27 -0.13 l
0.27 -0.03 l
0.27 0.24 l
0.27 0.13 l
0.27 0.07 l
0.28 -0.04 l
0.27 -0.14 l
0.27 0.02 l
0.27 -0.01 l
0.27 0.06 l
0.27 0.07 l
0.27 0.05 l
0.27 0.20 l
0.27 -0.06 l
0.27 -0.22 l
0.28 -0.10 l
0.27 -0.06 l
0.27 0.01 l
0.27 0.22 l
0.27 0.01 l
1115.58 180.69 lineto
0.27 -0.01 l
0.27 0.01 l
0.27 0.01 l
0.27 -0.05 l
0.27 -0.07 l
0.28 -0.04 l
0.27 -0.08 l
0.27 0 l
0.27 -0.13 l
0.27 -0.21 l
0.27 -0.19 l
0.27 -0.09 l
0.27 -0.11 l
0.27 -0.29 l
0.27 -0.26 l
0.27 -0.24 l
0.28 -0.02 l
0.27 0.08 l
0.27 -0.10 l
0.27 -0.18 l
0.27 -0.14 l
0.27 -0.16 l
0.27 -0.33 l
0.27 -0.18 l
0.27 -0.18 l
0.27 -0.28 l
0.27 -0.26 l
0.28 -0.32 l
0.27 -0.34 l
0.27 -0.33 l
0.27 -0.29 l
0.27 -0.34 l
0.27 -0.20 l
0.27 0.01 l
0.27 -0.20 l
0.27 -0.52 l
0.27 -0.33 l
0.27 -0.05 l
0.28 -0.03 l
0.27 -0.07 l
0.27 -0.36 l
0.27 -0.19 l
0.27 0.21 l
0.27 0.10 l
0.27 -0.12 l
0.27 -0.10 l
0.27 0.18 l
0.27 0.29 l
0.27 0.16 l
0.28 0.12 l
0.27 0.19 l
0.27 0.11 l
0.27 0.21 l
0.27 0.43 l
0.27 0.32 l
0.27 0.22 l
0.27 0.04 l
0.27 0.21 l
0.27 0.38 l
0.28 0.31 l
0.27 0.29 l
0.27 0.08 l
0.27 0.11 l
0.27 0.17 l
0.27 0.07 l
0.27 -0.03 l
0.27 0.15 l
0.27 0.39 l
0.27 0.06 l
0.27 -0.05 l
0.28 0.08 l
0.27 0.15 l
0.27 0.01 l
0.27 -0.07 l
0.27 0.14 l
0.27 0.04 l
0.27 -0.01 l
0.27 0.03 l
0.27 0.02 l
0.27 -0.03 l
0.27 0.05 l
0.28 0.13 l
0.27 0.06 l
0.27 0.05 l
0.27 -0.01 l
0.27 0.18 l
0.27 0.20 l
0.27 0.24 l
0.27 0.30 l
0.27 0.01 l
0.27 0.03 l
0.27 0.17 l
0.28 0.32 l
0.27 0.26 l
0.27 -0.01 l
0.27 -0.13 l
0.27 -0.02 l
0.27 0.21 l
0.27 0.17 l
1142.67 180.97 lineto
0.27 0.14 l
0.27 -0.15 l
0.27 -0.04 l
0.28 0.15 l
0.27 -0.05 l
0.27 -0.30 l
0.27 -0.03 l
0.27 0 l
0.27 -0.07 l
0.27 0.03 l
0.27 0.10 l
0.27 0.09 l
0.27 -0.12 l
0.28 -0.21 l
0.27 -0.15 l
0.27 0.05 l
0.27 -0.07 l
0.27 -0.25 l
0.27 -0.07 l
0.27 0.01 l
0.27 -0.09 l
0.27 -0.25 l
0.27 -0.15 l
0.27 0.03 l
0.28 0.09 l
0.27 0 l
0.27 -0.20 l
0.27 -0.24 l
0.27 -0.17 l
0.27 -0.22 l
0.27 -0.28 l
0.27 -0.05 l
0.27 0 l
0.27 0.06 l
0.27 0.09 l
0.28 -0.11 l
0.27 -0.04 l
0.27 -0.26 l
0.27 -0.36 l
0.27 -0.13 l
0.27 -0.06 l
0.27 -0.10 l
0.27 -0.17 l
0.27 -0.05 l
0.27 -0.01 l
0.27 -0.03 l
0.28 -0.05 l
0.27 -0.15 l
0.27 -0.36 l
0.27 -0.30 l
0.27 0 l
0.27 -0.09 l
0.27 -0.28 l
0.27 -0.39 l
0.27 -0.04 l
0.27 0.28 l
0.27 -0.24 l
0.28 -0.38 l
0.27 0.02 l
0.27 -0.22 l
0.27 -0.46 l
0.27 -0.09 l
0.27 -0.06 l
0.27 -0.25 l
0.27 -0.25 l
0.27 -0.31 l
0.27 -0.46 l
0.28 -0.53 l
0.27 -0.38 l
0.27 -0.42 l
0.27 -0.22 l
0.27 -0.06 l
0.27 -0.27 l
0.27 -0.37 l
0.27 -0.56 l
0.27 -0.44 l
0.27 -0.29 l
0.27 -0.36 l
0.28 -0.33 l
0.27 -0.24 l
0.27 -0.15 l
0.27 -0.18 l
0.27 -0.34 l
0.27 -0.38 l
0.27 -0.21 l
0.27 -0.20 l
0.27 -0.12 l
0.27 -0.08 l
0.27 -0.19 l
0.28 -0.08 l
0.27 0.18 l
0.27 0.37 l
0.27 0.07 l
0.27 -0.07 l
0.27 0.09 l
0.27 0.12 l
0.27 0.26 l
0.27 0.34 l
0.27 0.25 l
currentpoint o m
1169.76 168.54 lineto
0.28 0.29 l
0.27 0.28 l
0.27 0.29 l
0.27 0.51 l
0.27 0.41 l
0.27 0.46 l
0.27 0.17 l
0.27 0.10 l
0.27 0.38 l
0.27 0.38 l
0.27 0.29 l
0.28 0.30 l
0.27 0.62 l
0.27 0.43 l
0.27 0.26 l
0.27 0.40 l
0.27 0.30 l
0.27 0.14 l
0.27 0.24 l
0.27 0.49 l
0.27 0.22 l
0.28 0.43 l
0.27 0.48 l
0.27 0.09 l
0.27 0.22 l
0.27 0.26 l
0.27 0.49 l
0.27 0.20 l
0.27 -0.33 l
0.27 0 l
0.27 0.28 l
0.27 0.16 l
0.28 -0.01 l
0.27 0.14 l
0.27 0.20 l
0.27 -0.05 l
0.27 -0.15 l
0.27 -0.07 l
0.27 0.09 l
0.27 0.15 l
0.27 -0.04 l
0.27 -0.17 l
0.27 -0.16 l
0.28 -0.10 l
0.27 0.08 l
0.27 -0.04 l
0.27 -0.18 l
0.27 -0.23 l
0.27 -0.20 l
0.27 0.08 l
0.27 -0.18 l
0.27 -0.23 l
0.27 0.21 l
0.27 0.19 l
0.28 -0.04 l
0.27 0.06 l
0.27 0.24 l
0.27 0.07 l
0.27 -0.08 l
0.27 -0.07 l
0.27 0.10 l
0.27 0.20 l
0.27 0.24 l
0.27 0.38 l
0.27 0.12 l
0.28 -0.10 l
0.27 0.20 l
0.27 0.27 l
0.27 0.07 l
0.27 0.15 l
0.27 0.18 l
0.27 0.33 l
0.27 0.47 l
0.27 0.22 l
0.27 0.15 l
0.27 0.18 l
0.28 0.26 l
0.27 0.38 l
0.27 0.23 l
0.27 0.18 l
0.27 0.23 l
0.27 0.23 l
0.27 0.32 l
0.27 0.42 l
0.27 0.45 l
0.27 0.33 l
0.28 0.05 l
0.27 0.14 l
0.27 0.31 l
0.27 0.14 l
0.27 0.09 l
0.27 0.14 l
0.27 0.26 l
0.27 0.19 l
0.27 0.08 l
0.27 0.16 l
0.27 0.17 l
0.28 0.29 l
0.27 0.09 l
1196.86 185.54 lineto
0.27 0.06 l
0.27 0.19 l
0.27 0.22 l
0.27 -0.07 l
0.27 -0.04 l
0.27 -0.03 l
0.27 0.15 l
0.27 0.35 l
0.28 -0.01 l
0.27 -0.06 l
0.27 0.09 l
0.27 0.21 l
0.27 0.28 l
0.27 0.26 l
0.27 0.11 l
0.27 -0.05 l
0.27 0.04 l
0.27 0.01 l
0.27 -0.01 l
0.28 -0.02 l
0.27 -0.08 l
0.27 -0.05 l
0.27 0.11 l
0.27 0.10 l
0.27 0.11 l
0.27 0.23 l
0.27 0 l
0.27 -0.12 l
0.27 -0.04 l
0.27 0.10 l
0.28 0.14 l
0.27 -0.10 l
0.27 -0.07 l
0.27 -0.04 l
0.27 0.04 l
0.27 0.17 l
0.27 0.06 l
0.27 0.03 l
0.27 0.14 l
0.27 0.10 l
0.28 0 l
0.27 -0.04 l
0.27 0 l
0.27 0.07 l
0.27 -0.08 l
0.27 -0.04 l
0.27 0.20 l
o
0.4863 0.6824 0 srgb
np
86.61 227.28 m
1.08 -0.65 l
1.08 -0.59 l
1.09 -0.62 l
1.08 -0.58 l
1.08 -0.75 l
1.09 -0.58 l
1.08 -0.84 l
1.09 -0.70 l
1.08 -0.54 l
1.08 -0.48 l
1.09 -0.46 l
1.08 -0.62 l
1.08 -0.39 l
1.09 -0.59 l
1.08 -0.56 l
1.09 -0.62 l
1.08 -0.61 l
1.08 -0.61 l
1.09 -0.75 l
1.08 -0.51 l
1.08 -0.65 l
1.09 -0.51 l
1.08 -0.62 l
1.09 -0.64 l
1.08 -0.65 l
1.08 -0.73 l
1.09 -0.55 l
1.08 -0.61 l
1.08 -0.48 l
1.09 -0.64 l
1.08 -0.58 l
1.08 -0.61 l
1.09 -0.52 l
1.08 -0.38 l
1.09 -0.33 l
1.08 -0.18 l
1.08 -0.49 l
1.09 -0.26 l
1.08 -0.27 l
1.08 -0.18 l
1.09 0.02 l
1.08 -0.06 l
1.09 0.18 l
1.08 -0.04 l
1.08 -0.25 l
1.09 -0.56 l
1.08 -0.54 l
1.08 -0.37 l
1.09 -0.10 l
1.08 0.34 l
1.09 0.47 l
1.08 0.98 l
1.08 1.08 l
1.09 1.02 l
1.08 0.88 l
1.08 0.94 l
1.09 0.95 l
1.08 0.72 l
1.08 0.92 l
1.09 0.87 l
1.08 0.90 l
1.09 0.74 l
1.08 0.79 l
1.08 0.89 l
1.09 0.84 l
1.08 0.92 l
1.08 0.76 l
1.09 0.85 l
1.08 0.64 l
1.09 0.84 l
1.08 0.92 l
1.08 0.67 l
1.09 0.69 l
1.08 0.64 l
1.08 0.75 l
1.09 0.57 l
1.08 0.64 l
1.09 0.55 l
1.08 0.51 l
1.08 0.64 l
1.09 0.55 l
1.08 0.76 l
1.08 0.64 l
1.09 0.68 l
1.08 0.70 l
1.08 0.78 l
1.09 0.75 l
1.08 0.67 l
1.09 0.86 l
1.08 0.95 l
1.08 1.14 l
1.09 1.00 l
1.08 1.05 l
1.08 1.12 l
1.09 1.15 l
1.08 1.21 l
1.09 1.21 l
1.08 1.38 l
1.08 1.28 l
194.98 246.92 lineto
1.08 1.36 l
1.08 1.35 l
1.09 1.51 l
1.08 1.43 l
1.08 1.57 l
1.09 1.35 l
1.08 1.35 l
1.09 1.30 l
1.08 1.38 l
1.08 1.44 l
1.09 1.45 l
1.08 1.37 l
1.08 1.16 l
1.09 1.45 l
1.08 1.23 l
1.09 1.12 l
1.08 1.13 l
1.08 1.07 l
1.09 1.07 l
1.08 1.01 l
1.08 1.17 l
1.09 1.08 l
1.08 1.20 l
1.09 1.02 l
1.08 0.87 l
1.08 0.79 l
1.09 0.84 l
1.08 1.06 l
1.08 0.74 l
1.09 0.80 l
1.08 0.70 l
1.08 0.76 l
1.09 0.47 l
1.08 0.20 l
1.09 1.02 l
1.08 1.49 l
1.08 1.45 l
1.09 1.30 l
1.08 1.18 l
1.08 1.24 l
1.09 1.96 l
1.08 2.06 l
1.09 1.48 l
1.08 1.34 l
1.08 1.27 l
1.09 1.61 l
1.08 1.35 l
1.08 0.93 l
1.09 1.10 l
1.08 1.71 l
1.09 1.78 l
1.08 1.09 l
1.08 1.11 l
1.09 1.08 l
1.08 1.07 l
1.08 0.75 l
1.09 0.64 l
1.08 0.62 l
1.08 0.43 l
1.09 0.59 l
1.08 -0.60 l
1.09 -0.18 l
1.08 0.68 l
1.08 -0.66 l
1.09 0.22 l
1.08 2.50 l
1.08 2.07 l
1.09 0.70 l
1.08 0.57 l
1.09 0.26 l
1.08 0.43 l
1.08 0.37 l
1.09 -1.33 l
1.08 -4.38 l
1.08 -5.24 l
1.09 1.91 l
1.08 7.33 l
1.09 3.29 l
1.08 0.09 l
1.08 -0.23 l
1.09 0.08 l
1.08 0.69 l
1.08 -0.50 l
1.09 0.56 l
1.08 0.68 l
1.08 -4.40 l
1.09 -7.38 l
1.08 2.29 l
1.09 10.55 l
1.08 1.85 l
1.08 0.52 l
1.09 -0.50 l
1.08 -8.20 l
1.08 1.38 l
1.09 7.83 l
1.08 3.34 l
1.09 0.84 l
1.08 -0.66 l
1.08 -5.22 l
303.35 320.38 lineto
1.08 6.43 l
1.08 11.04 l
1.09 -7.47 l
1.08 -12.32 l
1.08 1.41 l
1.09 2.54 l
1.08 6.97 l
1.09 10.06 l
1.08 -5.29 l
1.08 2.40 l
1.09 7.71 l
1.08 -0.40 l
1.08 1.44 l
1.09 -1.02 l
1.08 -6.88 l
1.09 -23.45 l
1.08 -6.02 l
1.08 21.86 l
1.09 7.54 l
1.08 4.94 l
1.08 2.67 l
1.09 -7.40 l
1.08 2.04 l
1.09 3.72 l
1.08 -19.22 l
1.08 -12.87 l
1.09 25.18 l
1.08 16.97 l
1.08 0.69 l
1.09 -0.52 l
1.08 -11.30 l
1.08 -0.98 l
1.09 8.01 l
1.08 1.34 l
1.09 -21.31 l
1.08 -38.75 l
1.08 3.67 l
1.09 43.85 l
1.08 16.36 l
1.08 -12.86 l
1.09 2.23 l
1.08 19.60 l
1.09 -7.81 l
1.08 -32.88 l
1.08 -3.41 l
1.09 20.34 l
1.08 21.03 l
1.08 13.79 l
1.09 1.10 l
1.08 3.52 l
1.09 -6.70 l
1.08 -20.39 l
1.08 -15.47 l
1.09 8.98 l
1.08 23.88 l
1.08 -11.70 l
1.09 -21.01 l
1.08 10.62 l
1.08 19.68 l
1.09 4.98 l
1.08 -42.42 l
1.09 -48.22 l
1.08 21.08 l
1.08 39.69 l
1.09 15.03 l
1.08 -0.86 l
1.08 -18.55 l
1.09 -7.44 l
1.08 -13.76 l
1.09 -10.80 l
1.08 22.68 l
1.08 10.60 l
1.09 10.30 l
1.08 17.07 l
1.08 -12.44 l
1.09 -16.75 l
1.08 11.80 l
1.09 -11.90 l
1.08 -53.21 l
1.08 -3.88 l
1.09 28.29 l
1.08 24.01 l
1.08 27.07 l
1.09 -0.47 l
1.08 -0.71 l
1.08 -6.65 l
1.09 -16.07 l
1.08 -27.80 l
1.09 -44.28 l
1.08 27.21 l
1.08 62.81 l
1.09 16.81 l
1.08 1.05 l
1.08 -14.64 l
1.09 -8.24 l
1.08 25.63 l
1.09 -7.89 l
1.08 -31.72 l
1.08 20.49 l
411.72 386.68 lineto
1.08 6.31 l
1.08 0.95 l
1.09 0.36 l
1.08 0.66 l
1.08 -1.30 l
1.09 0.06 l
1.08 -1.51 l
1.09 -0.72 l
1.08 3.32 l
1.08 1.61 l
1.09 -1.03 l
1.08 -1.66 l
1.08 2.06 l
1.09 -2.41 l
1.08 -2.31 l
1.09 3.31 l
1.08 3.04 l
1.08 -19.84 l
1.09 -32.37 l
1.08 19.00 l
1.08 25.71 l
1.09 -17.34 l
1.08 -4.33 l
1.09 11.99 l
1.08 3.74 l
1.08 10.68 l
1.09 5.06 l
1.08 -38.32 l
1.08 -33.11 l
1.09 28.88 l
1.08 37.60 l
1.08 10.31 l
1.09 -10.91 l
1.08 -39.12 l
1.09 -15.93 l
1.08 29.26 l
1.08 -27.94 l
1.09 -52.92 l
1.08 44.18 l
1.08 66.24 l
1.09 15.74 l
1.08 -13.48 l
1.09 -16.48 l
1.08 15.91 l
1.08 3.90 l
1.09 -34.86 l
1.08 -6.37 l
1.08 18.72 l
1.09 -10.37 l
1.08 2.07 l
1.09 26.99 l
1.08 -2.32 l
1.08 -35.18 l
1.09 -42.18 l
1.08 21.74 l
1.08 50.52 l
1.09 4.66 l
1.08 12.38 l
1.08 -22.07 l
1.09 -44.53 l
1.08 -2.35 l
1.09 -22.18 l
1.08 8.04 l
1.08 45.14 l
1.09 4.05 l
1.08 9.31 l
1.08 21.00 l
1.09 3.41 l
1.08 -11.44 l
1.09 -31.54 l
1.08 -27.84 l
1.08 11.08 l
1.09 46.04 l
1.08 21.56 l
1.08 -1.01 l
1.09 7.76 l
1.08 -10.89 l
1.09 -12.67 l
1.08 -31.31 l
1.08 -31.15 l
1.09 37.32 l
1.08 23.90 l
1.08 -10.46 l
1.09 9.04 l
1.08 7.63 l
1.08 -0.02 l
1.09 -11.48 l
1.08 -15.58 l
1.09 4.40 l
1.08 27.64 l
1.08 7.94 l
1.09 -8.77 l
1.08 6.85 l
1.08 -12.59 l
1.09 4.34 l
1.08 19.46 l
1.09 -13.78 l
1.08 -12.25 l
1.08 -20.51 l
520.09 370.55 lineto
1.08 27.84 l
1.08 23.76 l
1.09 1.53 l
1.08 -5.98 l
1.08 2.26 l
1.09 0.17 l
1.08 2.65 l
1.09 6.42 l
1.08 -19.85 l
1.08 -24.43 l
1.09 12.03 l
1.08 22.65 l
1.08 0.13 l
1.09 -9.11 l
1.08 0.08 l
1.09 12.93 l
1.08 8.08 l
1.08 -1.92 l
1.09 -5.93 l
1.08 -3.47 l
1.08 9.47 l
1.09 3.98 l
1.08 -1.02 l
1.09 1.08 l
1.08 0.65 l
1.08 -7.19 l
1.09 -14.54 l
1.08 2.21 l
1.08 -7.21 l
1.09 -4.31 l
1.08 21.46 l
1.08 7.85 l
1.09 -1.51 l
1.08 -0.23 l
1.09 0.82 l
1.08 -17.17 l
1.08 -24.10 l
1.09 13.75 l
1.08 19.07 l
1.08 6.19 l
1.09 3.79 l
1.08 -1.30 l
1.09 0.25 l
1.08 -2.02 l
1.08 -0.79 l
1.09 0.07 l
1.08 -0.88 l
1.08 -5.78 l
1.09 -18.26 l
1.08 -8.59 l
1.09 15.65 l
1.08 14.92 l
1.08 1.04 l
1.09 -0.14 l
1.08 -0.67 l
1.08 -0.41 l
1.09 -0.36 l
1.08 -1.58 l
1.08 -1.04 l
1.09 -8.78 l
1.08 -1.89 l
1.09 8.38 l
1.08 -0.56 l
1.08 -0.23 l
1.09 3.49 l
1.08 0.86 l
1.08 -0.09 l
1.09 -0.81 l
1.08 -0.57 l
1.09 -3.74 l
1.08 -1.95 l
1.08 3.08 l
1.09 2.95 l
1.08 -4.43 l
1.08 -11.97 l
1.09 1.55 l
1.08 5.82 l
1.09 -2.46 l
1.08 5.51 l
1.08 4.10 l
1.09 -0.48 l
1.08 -0.14 l
1.08 -1.59 l
1.09 0.53 l
1.08 -0.90 l
1.08 -0.35 l
1.09 -6.12 l
1.08 -7.94 l
1.09 3.73 l
1.08 5.00 l
1.08 1.51 l
1.09 0.30 l
1.08 -0.77 l
1.08 -1.05 l
1.09 -0.92 l
1.08 0.24 l
1.09 -0.71 l
1.08 -0.47 l
1.08 -0.75 l
628.46 407.11 lineto
1.08 -2.61 l
1.08 2.75 l
1.09 2.29 l
1.08 -0.51 l
1.08 -0.08 l
1.09 -0.74 l
1.08 -0.17 l
1.09 -0.44 l
1.08 -0.39 l
1.08 -0.20 l
1.09 -1.63 l
1.08 -1.54 l
1.08 -3.89 l
1.09 -1.44 l
1.08 4.30 l
1.09 2.02 l
1.08 -0.71 l
1.08 -0.20 l
1.09 -0.17 l
1.08 -0.37 l
1.08 -0.70 l
1.09 -0.76 l
1.08 -0.43 l
1.09 -0.39 l
1.08 -1.00 l
1.08 -2.75 l
1.09 -1.74 l
1.08 1.42 l
1.08 0.58 l
1.09 -0.65 l
1.08 -0.63 l
1.08 -0.68 l
1.09 -0.44 l
1.08 -0.90 l
1.09 -0.76 l
1.08 -0.80 l
1.08 -0.73 l
1.09 -1.10 l
1.08 -1.72 l
1.08 -0.67 l
1.09 -0.10 l
1.08 -0.34 l
1.09 -0.63 l
1.08 -0.72 l
1.08 -0.59 l
1.09 -0.64 l
1.08 -0.55 l
1.08 -0.64 l
1.09 -0.66 l
1.08 -0.83 l
1.09 -1.55 l
1.08 -0.79 l
1.08 0.59 l
1.09 -0.02 l
1.08 -0.60 l
1.08 -0.61 l
1.09 -0.72 l
1.08 -0.39 l
1.08 -0.38 l
1.09 -0.40 l
1.08 -0.50 l
1.09 -0.54 l
1.08 -0.67 l
1.08 -0.96 l
1.09 -0.53 l
1.08 -0.24 l
1.08 -0.43 l
1.09 -0.64 l
1.08 -0.58 l
1.09 -0.64 l
1.08 -0.67 l
1.08 -0.68 l
1.09 -0.78 l
1.08 -0.64 l
1.08 -0.74 l
1.09 -0.83 l
1.08 -0.96 l
1.09 -0.72 l
1.08 -0.49 l
1.08 -0.75 l
1.09 -0.69 l
1.08 -0.84 l
1.08 -0.79 l
1.09 -0.66 l
1.08 -0.69 l
1.08 -0.72 l
1.09 -0.87 l
1.08 -0.87 l
1.09 -0.73 l
1.08 -0.46 l
1.08 -0.57 l
1.09 -0.65 l
1.08 -0.64 l
1.08 -0.64 l
1.09 -0.52 l
1.08 -0.64 l
1.09 -0.61 l
1.08 -0.57 l
1.08 -0.46 l
736.83 351.86 lineto
1.08 -0.60 l
1.08 -0.46 l
1.09 -0.45 l
1.08 -0.42 l
1.08 -0.62 l
1.09 -0.53 l
1.08 -0.46 l
1.09 -0.54 l
1.08 -0.39 l
1.08 -0.41 l
1.09 -0.52 l
1.08 -0.64 l
1.08 -0.55 l
1.09 -0.55 l
1.08 -0.60 l
1.09 -0.56 l
1.08 -0.59 l
1.08 -0.66 l
1.09 -0.79 l
1.08 -0.67 l
1.08 -0.65 l
1.09 -0.69 l
1.08 -0.74 l
1.09 -0.77 l
1.08 -0.70 l
1.08 -0.76 l
1.09 -0.78 l
1.08 -0.76 l
1.08 -0.63 l
1.09 -0.73 l
1.08 -0.73 l
1.08 -0.58 l
1.09 -0.74 l
1.08 -0.81 l
1.09 -0.80 l
1.08 -0.65 l
1.08 -0.73 l
1.09 -0.83 l
1.08 -0.79 l
1.08 -0.71 l
1.09 -0.65 l
1.08 -0.75 l
1.09 -0.70 l
1.08 -0.74 l
1.08 -0.73 l
1.09 -0.73 l
1.08 -0.75 l
1.08 -0.73 l
1.09 -0.81 l
1.08 -0.80 l
1.09 -0.97 l
1.08 -0.90 l
1.08 -0.86 l
1.09 -0.85 l
1.08 -0.82 l
1.08 -0.87 l
1.09 -0.69 l
1.08 -0.63 l
1.08 -0.55 l
1.09 -0.47 l
1.08 -0.30 l
1.09 -0.11 l
1.08 -0.06 l
1.08 -0.09 l
1.09 -0.79 l
1.08 -1.92 l
1.08 -2.55 l
1.09 -2.50 l
1.08 -2.58 l
1.09 -2.77 l
1.08 -2.92 l
1.08 -3.07 l
1.09 -3.33 l
1.08 -3.67 l
1.08 -3.98 l
1.09 -5.07 l
1.08 -6.05 l
1.09 -6.25 l
1.08 -6.19 l
1.08 -5.58 l
1.09 -4.75 l
1.08 -5.57 l
1.08 -7.49 l
1.09 -7.44 l
1.08 -5.71 l
1.08 -3.48 l
1.09 -2.97 l
1.08 -4.17 l
1.09 -3.77 l
1.08 -1.82 l
1.08 -0.43 l
1.09 -1.36 l
1.08 -1.50 l
1.08 -1.01 l
1.09 -0.26 l
1.08 1.69 l
1.09 6.79 l
1.08 14.33 l
1.08 4.69 l
845.20 213.73 lineto
1.08 -14.63 l
1.08 -8.99 l
1.09 -5.34 l
1.08 -2.54 l
1.08 -0.63 l
1.09 1.22 l
1.08 2.30 l
1.09 4.18 l
1.08 5.52 l
1.08 7.13 l
1.09 8.94 l
1.08 10.24 l
1.08 11.58 l
1.09 12.33 l
1.08 12.34 l
1.09 10.35 l
1.08 7.29 l
1.08 4.07 l
1.09 1.54 l
1.08 0.24 l
1.08 -0.47 l
1.09 -0.52 l
1.08 -0.70 l
1.09 -0.50 l
1.08 -0.48 l
1.08 -0.57 l
1.09 -0.41 l
1.08 -0.48 l
1.08 -0.46 l
1.09 -0.53 l
1.08 -0.38 l
1.08 -0.47 l
1.09 -0.48 l
1.08 -0.46 l
1.09 -0.50 l
1.08 -0.36 l
1.08 -0.41 l
1.09 -0.35 l
1.08 -0.39 l
1.08 -0.24 l
1.09 -0.32 l
1.08 -0.44 l
1.09 -0.37 l
1.08 -0.39 l
1.08 -0.20 l
1.09 -0.35 l
1.08 -0.33 l
1.08 -0.35 l
1.09 -0.39 l
1.08 -0.33 l
1.09 -0.41 l
1.08 -0.33 l
1.08 -0.48 l
1.09 -0.43 l
1.08 -0.31 l
1.08 -0.35 l
1.09 -0.39 l
1.08 -0.43 l
1.08 -0.44 l
1.09 -0.48 l
1.08 -0.34 l
1.09 -0.40 l
1.08 -0.43 l
1.08 -0.39 l
1.09 -0.30 l
1.08 -0.29 l
1.08 -0.40 l
1.09 -0.30 l
1.08 -0.36 l
1.09 -0.31 l
1.08 -0.34 l
1.08 -0.29 l
1.09 -0.31 l
1.08 -0.40 l
1.08 -0.29 l
1.09 -0.44 l
1.08 -0.42 l
1.09 -0.33 l
1.08 -0.28 l
1.08 -0.27 l
1.09 -0.36 l
1.08 -0.30 l
1.08 -0.34 l
1.09 -0.17 l
1.08 -0.21 l
1.08 -0.19 l
1.09 -0.17 l
1.08 -0.32 l
1.09 -0.15 l
1.08 -0.10 l
1.08 -0.07 l
1.09 -0.14 l
1.08 -0.14 l
1.08 -0.12 l
1.09 -0.16 l
1.08 -0.13 l
1.09 -0.18 l
1.08 -0.06 l
1.08 -0.05 l
953.57 253.86 lineto
1.08 -0.11 l
1.08 -0.16 l
1.09 -0.11 l
1.08 -0.15 l
1.09 -0.18 l
1.08 -0.21 l
1.08 -0.23 l
1.09 -0.29 l
1.08 -0.18 l
1.08 -0.06 l
1.09 -0.17 l
1.08 -0.29 l
1.08 -0.26 l
1.09 -0.13 l
1.08 -0.20 l
1.09 -0.14 l
1.08 -0.24 l
1.08 -0.34 l
1.09 -0.20 l
1.08 -0.17 l
1.08 -0.09 l
1.09 -0.07 l
1.08 -0.10 l
1.09 -0.19 l
1.08 -0.19 l
1.08 -0.11 l
1.09 -0.11 l
1.08 -0.03 l
1.08 -0.05 l
1.09 0.08 l
1.08 0.13 l
1.08 -0.01 l
1.09 -0.10 l
1.08 -0.04 l
1.09 0.07 l
1.08 -0.02 l
1.08 0.03 l
1.09 0.01 l
1.08 0.02 l
1.08 0.04 l
1.09 0.08 l
1.08 0.13 l
1.09 0.05 l
1.08 0.03 l
1.08 -0.02 l
1.09 0.04 l
1.08 0.03 l
1.08 -0.01 l
1.09 0 l
1.08 0.08 l
1.09 0.07 l
1.08 -0.09 l
1.08 0.02 l
1.09 0.06 l
1.08 0.04 l
1.08 0.02 l
1.09 -0.03 l
1.08 0.09 l
1.08 0.01 l
1.09 -0.05 l
1.08 -0.05 l
1.09 0.04 l
1.08 0.03 l
1.08 -0.05 l
1.09 -0.03 l
1.08 0 l
1.08 0.10 l
1.09 -0.01 l
1.08 -0.01 l
1.09 0.01 l
1.08 0.01 l
1.08 0.12 l
1.09 0.08 l
1.08 0.08 l
1.08 0.08 l
1.09 0.05 l
1.08 -0.04 l
1.09 0.13 l
1.08 0.17 l
1.08 -0.01 l
1.09 0.09 l
1.08 0.13 l
1.08 0.24 l
1.09 0.10 l
1.08 0 l
1.08 0.02 l
1.09 0.12 l
1.08 0.20 l
1.09 0.06 l
1.08 0.13 l
1.08 0.07 l
1.09 0.15 l
1.08 0.18 l
1.08 0.02 l
1.09 0.16 l
1.08 0.19 l
1.09 0.14 l
1.08 0.04 l
1.08 0.07 l
1061.94 252.87 lineto
1.08 0.29 l
1.08 0.21 l
1.09 0.09 l
1.08 0.17 l
1.09 0.05 l
1.08 0.07 l
1.08 0.23 l
1.09 0.16 l
1.08 0.09 l
1.08 0.12 l
1.09 0.23 l
1.08 0.21 l
1.08 0.18 l
1.09 0.04 l
1.08 0.10 l
1.09 0.17 l
1.08 0.03 l
1.08 0.06 l
1.09 0.06 l
1.08 0.15 l
1.08 0.10 l
1.09 0.12 l
1.08 0.14 l
1.09 -0.02 l
1.08 0.11 l
1.08 0.12 l
1.09 0.03 l
1.08 0.05 l
1.08 0.11 l
1.09 0.02 l
1.08 -0.04 l
1.08 0.07 l
1.09 0.04 l
1.08 0.06 l
1.09 0.10 l
1.08 0.16 l
1.08 0.08 l
1.09 -0.04 l
1.08 0.06 l
1.08 0.14 l
1.09 0.05 l
1.08 -0.01 l
1.09 0.12 l
1.08 0.11 l
1.08 0.01 l
1.09 0.01 l
1.08 0.03 l
1.08 0.06 l
1.09 -0.06 l
1.08 -0.15 l
1.09 -0.23 l
1.08 -0.34 l
1.08 -0.56 l
1.09 -0.63 l
1.08 -0.68 l
1.08 -0.92 l
1.09 -1.00 l
1.08 -1.15 l
1.08 -0.89 l
1.09 -0.34 l
1.08 0.13 l
1.09 0.58 l
1.08 0.81 l
1.08 0.89 l
1.09 0.73 l
1.08 0.56 l
1.08 0.44 l
1.09 0.25 l
1.08 0.12 l
1.09 0.15 l
1.08 0.46 l
1.08 0.68 l
1.09 0.55 l
1.08 0.32 l
1.08 0.25 l
1.09 0.07 l
1.08 -0.23 l
1.09 -0.32 l
1.08 -0.34 l
1.08 -0.30 l
1.09 -0.41 l
1.08 -0.45 l
1.08 -0.43 l
1.09 -0.40 l
1.08 -0.45 l
1.08 -0.54 l
1.09 -0.52 l
1.08 -0.60 l
1.09 -0.58 l
1.08 -0.73 l
1.08 -1.15 l
1.09 -1.30 l
1.08 -1.39 l
1.08 -1.35 l
1.09 -1.10 l
1.08 -0.74 l
1.09 -0.36 l
1.08 0.25 l
1.08 0.65 l
currentpoint o m
1170.31 245.44 lineto
1.08 1.23 l
1.08 1.52 l
1.09 1.59 l
1.08 1.43 l
1.09 1.22 l
1.08 0.86 l
1.08 0.51 l
1.09 0.33 l
1.08 0.01 l
1.08 -0.06 l
1.09 -0.19 l
1.08 -0.28 l
1.08 -0.03 l
1.09 0.18 l
1.08 0.39 l
1.09 0.57 l
1.08 0.77 l
1.08 0.90 l
1.09 1.01 l
1.08 1.09 l
1.08 1.11 l
1.09 0.87 l
1.08 0.71 l
1.09 0.65 l
1.08 0.26 l
1.08 0.22 l
1.09 0.40 l
1.08 0.48 l
1.08 0.44 l
1.09 0.17 l
1.08 0.09 l
1.08 -0.01 l
1.09 0.11 l
1.08 0.27 l
1.09 0.10 l
1.08 0.08 l
o
0 0.7490 0.7686 srgb
np
87.69 299.94 m
4.33 -2.78 l
4.34 -2.06 l
4.33 -2.49 l
4.34 -1.43 l
4.33 -2.95 l
4.34 -1.86 l
4.33 -2.80 l
4.34 -2.05 l
4.33 -1.68 l
4.34 -1.29 l
4.33 -0.27 l
4.34 -0.81 l
4.33 2.93 l
4.34 2.94 l
4.33 4.45 l
4.34 3.50 l
4.33 3.42 l
4.34 3.24 l
4.33 1.65 l
4.34 2.66 l
4.33 1.27 l
4.34 3.44 l
4.33 3.33 l
4.34 5.18 l
4.33 5.77 l
4.33 5.90 l
4.34 6.83 l
4.33 4.80 l
4.34 5.83 l
4.33 3.23 l
4.34 4.21 l
4.33 2.58 l
4.34 2.58 l
4.33 4.47 l
4.34 5.09 l
4.33 7.54 l
4.34 5.10 l
4.33 6.55 l
4.34 3.28 l
4.33 2.12 l
4.34 2.08 l
4.33 1.21 l
4.34 -0.09 l
4.33 -1.32 l
4.34 4.10 l
4.33 -1.64 l
4.34 1.85 l
4.33 3.87 l
4.34 1.97 l
4.33 1.03 l
4.33 -1.70 l
4.34 9.08 l
4.33 -0.73 l
4.34 -3.63 l
4.33 1.69 l
4.34 1.67 l
4.33 6.30 l
4.34 -6.02 l
4.33 -3.98 l
4.34 7.42 l
4.33 11.71 l
4.34 9.38 l
4.33 0.33 l
4.34 -9.85 l
4.33 -11.94 l
4.34 -5.39 l
4.33 -0.39 l
4.34 6.84 l
4.33 -8.27 l
4.34 -3.46 l
4.33 6.26 l
4.34 -3.12 l
4.33 17.34 l
4.34 18.09 l
4.33 15.56 l
4.33 13.28 l
4.34 0.08 l
4.33 -0.39 l
4.34 -11.25 l
4.33 -6.04 l
4.34 0.73 l
4.33 -1.45 l
4.34 -8.42 l
4.33 -8.50 l
4.34 17.34 l
4.33 12.39 l
4.34 -10.15 l
4.33 -3.94 l
4.34 -3.65 l
4.33 -9.16 l
4.34 8.40 l
4.33 12.58 l
4.34 8.77 l
4.33 4.69 l
4.34 -6.42 l
4.33 5.55 l
4.34 9.20 l
4.33 6.10 l
4.34 -1.66 l
521.17 484.16 lineto
4.33 10.98 l
4.34 -3.45 l
4.33 1.02 l
4.34 9.90 l
4.33 5.38 l
4.34 -1.04 l
4.33 -6.50 l
4.34 2.25 l
4.33 -2.10 l
4.34 5.04 l
4.33 1.88 l
4.34 -9.12 l
4.33 3.55 l
4.34 0.95 l
4.33 -1.39 l
4.34 0.86 l
4.33 0.27 l
4.34 -3.21 l
4.33 -2.62 l
4.34 3.48 l
4.33 -2.58 l
4.34 -3.15 l
4.33 -0.92 l
4.34 -1.87 l
4.33 -2.41 l
4.33 -1.13 l
4.34 -0.90 l
4.33 -3.08 l
4.34 0.42 l
4.33 -0.89 l
4.34 -2.58 l
4.33 -2.63 l
4.34 -2.78 l
4.33 -2.88 l
4.34 -3.90 l
4.33 -2.25 l
4.34 -3.14 l
4.33 -1.96 l
4.34 -1.62 l
4.33 -1.98 l
4.34 -1.76 l
4.33 -2.75 l
4.34 -2.29 l
4.33 -3.51 l
4.34 -2.98 l
4.33 -3.40 l
4.34 -3.16 l
4.33 -2.45 l
4.34 -2.69 l
4.33 -1.72 l
4.33 -2.24 l
4.34 -1.62 l
4.33 -2.27 l
4.34 -2.46 l
4.33 -2.69 l
4.34 -3.33 l
4.33 -2.91 l
4.34 -3.44 l
4.33 -2.89 l
4.34 -3.12 l
4.33 -2.85 l
4.34 -3.02 l
4.33 -3.57 l
4.34 -2.86 l
4.33 -2.39 l
4.34 -3.59 l
4.33 -8.64 l
4.34 -13.66 l
4.33 -18.86 l
4.34 -23.34 l
4.33 -21.65 l
4.34 -15.01 l
4.33 -4.14 l
4.34 3.38 l
4.33 -6.90 l
4.33 -11.15 l
4.34 12.44 l
4.33 33.92 l
4.34 32.00 l
4.33 12.20 l
4.34 -1.55 l
4.33 -2.13 l
4.34 -2.67 l
4.33 -1.47 l
4.34 -1.70 l
4.33 -1.45 l
4.34 -1.28 l
4.33 -1.91 l
4.34 -1.29 l
4.33 -2.07 l
4.34 -1.17 l
4.33 -1.70 l
4.34 -1.44 l
4.33 -1.42 l
4.34 -1.62 l
4.33 -0.74 l
4.34 -1.05 l
4.33 -0.27 l
4.34 -0.63 l
954.65 328.78 lineto
4.34 -0.70 l
4.33 -0.94 l
4.33 -0.73 l
4.34 -1.23 l
4.33 -0.61 l
4.34 -0.93 l
4.33 -0.04 l
4.34 -0.09 l
4.33 0.16 l
4.34 0.39 l
4.33 0.07 l
4.34 0.42 l
4.33 -0.16 l
4.34 0.20 l
4.33 -0.11 l
4.34 0.07 l
4.33 0 l
4.34 -0.02 l
4.33 0.41 l
4.34 0.08 l
4.33 0.61 l
4.34 0.28 l
4.33 0.72 l
4.34 0.61 l
4.33 0.67 l
4.34 0.87 l
4.33 0.57 l
4.33 0.90 l
4.34 0.34 l
4.33 0.59 l
4.34 0.31 l
4.33 0.23 l
4.34 0.26 l
4.33 0.12 l
4.34 0.40 l
4.33 0.03 l
4.34 -0.04 l
4.33 -1.63 l
4.34 -2.57 l
4.33 -1.19 l
4.34 1.55 l
4.33 2.34 l
4.34 1.50 l
4.33 0.76 l
4.34 -1.30 l
4.33 -2.04 l
4.34 -3.24 l
4.33 -4.31 l
4.34 -2.45 l
4.33 1.95 l
4.34 4.59 l
4.33 2.39 l
4.33 0.97 l
4.34 1.96 l
4.33 3.60 l
4.34 3.07 l
4.33 1.60 l
4.34 1.01 l
o
0.7804 0.4863 1 srgb
np
87.69 373.17 m
8.67 -5.19 l
8.67 -4.65 l
8.67 -4.74 l
8.67 -4.49 l
8.67 -2.87 l
8.67 0.48 l
8.67 4.80 l
8.67 7.63 l
8.67 6.24 l
8.67 4.95 l
8.67 5.40 l
8.67 8.48 l
8.66 11.16 l
8.67 11.15 l
8.67 8.84 l
8.67 6.87 l
8.67 8.08 l
8.67 11.14 l
8.67 11.30 l
8.67 6.79 l
8.67 3.00 l
8.67 1.23 l
8.67 1.98 l
8.67 3.91 l
8.67 3.78 l
8.67 4.13 l
8.67 1.92 l
8.67 1.93 l
8.67 1.26 l
8.67 6.04 l
8.67 11.92 l
8.67 -4.36 l
8.67 -11.22 l
8.67 -3.40 l
8.67 -2.21 l
8.67 8.41 l
8.67 24.71 l
8.66 23.70 l
8.67 2.36 l
8.67 -8.79 l
8.67 -7.39 l
8.67 -1.52 l
8.67 7.56 l
8.67 -2.82 l
8.67 -4.46 l
8.67 10.95 l
8.67 10.85 l
8.67 7.16 l
8.67 7.99 l
8.67 5.68 l
8.67 5.02 l
8.67 7.90 l
8.67 3.67 l
8.67 -1.11 l
8.67 0.87 l
8.67 -0.58 l
8.67 -0.64 l
8.67 0.16 l
8.67 -1.75 l
8.67 -1.76 l
8.67 -2.80 l
8.67 -3.81 l
8.66 -3.41 l
8.67 -2.90 l
8.67 -2.68 l
8.67 -4.28 l
8.67 -5.95 l
8.67 -5.88 l
8.67 -5.02 l
8.67 -3.93 l
8.67 -4.67 l
8.67 -5.90 l
8.67 -6.35 l
8.67 -5.98 l
8.67 -4.46 l
8.67 -4.50 l
8.67 -4.82 l
8.67 -6.24 l
8.67 -6.74 l
8.67 -6.62 l
8.67 -7.05 l
8.67 -6.21 l
8.67 -10.74 l
8.67 -23.37 l
8.67 -37.66 l
8.67 -30.16 l
8.67 -12.33 l
8.66 1.54 l
8.67 32.80 l
8.67 35.40 l
8.67 5.09 l
8.67 -4.44 l
8.67 -4.19 l
8.67 -3.69 l
8.67 -3.65 l
8.67 -3.84 l
8.67 -2.74 l
8.67 -2.89 l
8.67 -1.18 l
954.65 403.01 lineto
8.67 -1.44 l
8.67 -1.89 l
8.67 -1.69 l
8.67 0 l
8.67 0.19 l
8.67 0.72 l
8.67 0 l
8.67 0.04 l
8.67 -0.02 l
8.67 0.31 l
8.67 0.80 l
8.67 1.20 l
8.67 1.78 l
8.66 1.50 l
8.67 1.47 l
8.67 0.86 l
8.67 0.56 l
8.67 0.12 l
8.67 -1.97 l
8.67 -1.47 l
8.67 1.66 l
8.67 1.52 l
8.67 -3.07 l
8.67 -5.21 l
8.67 -0.46 l
8.67 4.58 l
8.67 4.95 l
8.67 5.19 l
8.67 3.58 l
o
0.00 0.00 1271.25 615.00 cl
0.00 0.00 1271.25 615.00 cl
0.00 0.00 1271.25 615.00 cl
0.00 0.00 1271.25 615.00 cl
0.00 0.00 1271.25 615.00 cl
0.00 0.00 1271.25 615.00 cl
/Font1 findfont 9 s
0.3020 0.3020 0.3020 srgb
24.96 141.70 (2) 1 0 t
24.96 294.92 (4) 1 0 t
24.96 448.13 (6) 1 0 t
24.96 601.35 (8) 1 0 t
0.00 0.00 1271.25 615.00 cl
0.00 0.00 1271.25 615.00 cl
0.2000 0.2000 0.2000 srgb
1.07 setlinewidth
[] 0 setdash
0 setlinecap
1 setlinejoin
10.00 setmiterlimit
np
27.15 144.93 m
2.74 0 l
o
np
27.15 298.15 m
2.74 0 l
o
np
27.15 451.37 m
2.74 0 l
o
np
27.15 604.58 m
2.74 0 l
o
0.00 0.00 1271.25 615.00 cl
0.00 0.00 1271.25 615.00 cl
0.00 0.00 1271.25 615.00 cl
0.00 0.00 1271.25 615.00 cl
0.00 0.00 1271.25 615.00 cl
0.00 0.00 1271.25 615.00 cl
0.00 0.00 1271.25 615.00 cl
0.00 0.00 1271.25 615.00 cl
0.2000 0.2000 0.2000 srgb
1.07 setlinewidth
[] 0 setdash
0 setlinecap
1 setlinejoin
10.00 setmiterlimit
np
86.01 76.87 m
0 2.74 l
o
np
366.94 76.87 m
0 2.74 l
o
np
647.86 76.87 m
0 2.74 l
o
np
928.79 76.87 m
0 2.74 l
o
np
1209.71 76.87 m
0 2.74 l
o
0.00 0.00 1271.25 615.00 cl
0.00 0.00 1271.25 615.00 cl
/Font1 findfont 9 s
0.3020 0.3020 0.3020 srgb
86.01 68.21 (1000) .5 0 t
366.94 68.21 (1500) .5 0 t
647.86 68.21 (2000) .5 0 t
928.79 68.21 (2500) .5 0 t
1209.71 68.21 (3000) .5 0 t
0.00 0.00 1271.25 615.00 cl
0.00 0.00 1271.25 615.00 cl
0.00 0.00 1271.25 615.00 cl
0.00 0.00 1271.25 615.00 cl
/Font1 findfont 11 s
0 0 0 srgb
597.19 52.74 (W) 0 ta
-0.440 (a) tb
-0.220 (v) tb
-0.275 (en) tb
-0.110 (umber \(cm) tb gr
/Font1 findfont 8 s
682.93 58.21 (-1) 0 0 t
/Font5 findfont 11 s
692.05 52.74 ( ) 0 0 t
/Font1 findfont 11 s
694.80 52.74 (\)) 0 0 t
0.00 0.00 1271.25 615.00 cl
0.00 0.00 1271.25 615.00 cl
/Font1 findfont 11 s
0 0 0 srgb
15.57 344.56 (Intensity) .5 90 t
0.00 0.00 1271.25 615.00 cl
0.00 0.00 1271.25 615.00 cl
0.00 0.00 1271.25 615.00 cl
0.00 0.00 1271.25 615.00 cl
/bg { 1 1 1 srgb } def
534.42 13.98 226.81 25.78 r p2
0.00 0.00 1271.25 615.00 cl
0.00 0.00 1271.25 615.00 cl
/Font1 findfont 11 s
0 0 0 srgb
538.67 22.47 (Resolution \(cm) 0 0 t
/Font1 findfont 8 s
612.02 27.93 (-1) 0 0 t
/Font5 findfont 11 s
621.14 22.47 ( ) 0 0 t
/Font1 findfont 11 s
623.89 22.47 (\)) 0 0 t
0.00 0.00 1271.25 615.00 cl
0.00 0.00 1271.25 615.00 cl
/bg { 0.9490 0.9490 0.9490 srgb } def
1 1 1 srgb
1.07 setlinewidth
[] 0 setdash
1 setlinecap
1 setlinejoin
10.00 setmiterlimit
630.74 18.24 17.28 17.28 r p3
0.00 0.00 1271.25 615.00 cl
0.00 0.00 1271.25 615.00 cl
0.9725 0.4627 0.4275 srgb
1.07 setlinewidth
[] 0 setdash
0 setlinecap
1 setlinejoin
10.00 setmiterlimit
np
632.47 26.88 m
13.82 0 l
o
0.00 0.00 1271.25 615.00 cl
0.00 0.00 1271.25 615.00 cl
/bg { 0.9490 0.9490 0.9490 srgb } def
1 1 1 srgb
1.07 setlinewidth
[] 0 setdash
1 setlinecap
1 setlinejoin
10.00 setmiterlimit
662.84 18.24 17.28 17.28 r p3
0.00 0.00 1271.25 615.00 cl
0.00 0.00 1271.25 615.00 cl
0.4863 0.6824 0 srgb
1.07 setlinewidth
[] 0 setdash
0 setlinecap
1 setlinejoin
10.00 setmiterlimit
np
664.57 26.88 m
13.82 0 l
o
0.00 0.00 1271.25 615.00 cl
0.00 0.00 1271.25 615.00 cl
/bg { 0.9490 0.9490 0.9490 srgb } def
1 1 1 srgb
1.07 setlinewidth
[] 0 setdash
1 setlinecap
1 setlinejoin
10.00 setmiterlimit
694.94 18.24 17.28 17.28 r p3
0.00 0.00 1271.25 615.00 cl
0.00 0.00 1271.25 615.00 cl
0 0.7490 0.7686 srgb
1.07 setlinewidth
[] 0 setdash
0 setlinecap
1 setlinejoin
10.00 setmiterlimit
np
696.67 26.88 m
13.82 0 l
o
0.00 0.00 1271.25 615.00 cl
0.00 0.00 1271.25 615.00 cl
/bg { 0.9490 0.9490 0.9490 srgb } def
1 1 1 srgb
1.07 setlinewidth
[] 0 setdash
1 setlinecap
1 setlinejoin
10.00 setmiterlimit
727.04 18.24 17.28 17.28 r p3
0.00 0.00 1271.25 615.00 cl
0.00 0.00 1271.25 615.00 cl
0.7804 0.4863 1 srgb
1.07 setlinewidth
[] 0 setdash
0 setlinecap
1 setlinejoin
10.00 setmiterlimit
np
728.77 26.88 m
13.82 0 l
o
0.00 0.00 1271.25 615.00 cl
0.00 0.00 1271.25 615.00 cl
/Font1 findfont 9 s
0 0 0 srgb
650.18 23.64 (01) 0 0 t
0.00 0.00 1271.25 615.00 cl
0.00 0.00 1271.25 615.00 cl
/Font1 findfont 9 s
0 0 0 srgb
682.28 23.64 (04) 0 0 t
0.00 0.00 1271.25 615.00 cl
0.00 0.00 1271.25 615.00 cl
/Font1 findfont 9 s
0 0 0 srgb
714.38 23.64 (16) 0 0 t
0.00 0.00 1271.25 615.00 cl
0.00 0.00 1271.25 615.00 cl
/Font1 findfont 9 s
0 0 0 srgb
746.48 23.64 (32) 0 0 t
0.00 0.00 1271.25 615.00 cl
0.00 0.00 1271.25 615.00 cl
0.00 0.00 1271.25 615.00 cl
0.00 0.00 1271.25 615.00 cl
0.00 0.00 1271.25 615.00 cl
0.00 0.00 1271.25 615.00 cl
ep
%%Trailer
%%Pages: 1
%%EOF
