%!PS-Adobe-3.0 EPSF-3.0
%%DocumentNeededResources: font Helvetica
%%+ font Helvetica-Bold
%%+ font Helvetica-Oblique
%%+ font Helvetica-BoldOblique
%%+ font Symbol
%%Title: R Graphics Output
%%Creator: R Software
%%Pages: (atend)
%%BoundingBox: 0 0 541 422
%%EndComments
%%BeginProlog
/bp  { gs sRGB gs } def
% begin .ps.prolog
/gs  { gsave } bind def
/gr  { grestore } bind def
/ep  { showpage gr gr } bind def
/m   { moveto } bind def
/l  { rlineto } bind def
/np  { newpath } bind def
/cp  { closepath } bind def
/f   { fill } bind def
/o   { stroke } bind def
/c   { newpath 0 360 arc } bind def
/r   { 4 2 roll moveto 1 copy 3 -1 roll exch 0 exch rlineto 0 rlineto -1 mul 0 exch rlineto closepath } bind def
/p1  { stroke } bind def
/p2  { gsave bg fill grestore newpath } bind def
/p3  { gsave bg fill grestore stroke } bind def
/p6  { gsave bg eofill grestore newpath } bind def
/p7  { gsave bg eofill grestore stroke } bind def
/t   { 5 -2 roll moveto gsave rotate
       1 index stringwidth pop
       mul neg 0 rmoveto show grestore } bind def
/ta  { 4 -2 roll moveto gsave rotate show } bind def
/tb  { 2 -1 roll 0 rmoveto show } bind def
/cl  { grestore gsave newpath 3 index 3 index moveto 1 index
       4 -1 roll lineto  exch 1 index lineto lineto
       closepath clip newpath } bind def
/rgb { setrgbcolor } bind def
/s   { scalefont setfont } bind def
% end   .ps.prolog
/sRGB { [ /CIEBasedABC
          << /DecodeLMN
               [ { dup 0.03928 le
                        {12.92321 div}
                        {0.055 add 1.055 div 2.4 exp }
                     ifelse
                 } bind dup dup
               ]
             /MatrixLMN [0.412457 0.212673 0.019334
                         0.357576 0.715152 0.119192
                         0.180437 0.072175 0.950301]
             /WhitePoint [0.9505 1.0 1.0890]
           >>
         ] setcolorspace } bind def
/srgb { setcolor } bind def
% begin encoding
/WinAnsiEncoding [
 /.notdef /.notdef /.notdef /.notdef /.notdef /.notdef /.notdef /.notdef
 /.notdef /.notdef /.notdef /.notdef /.notdef /.notdef /.notdef /.notdef
 /.notdef /.notdef /.notdef /.notdef /.notdef /.notdef /.notdef /.notdef
 /.notdef /.notdef /.notdef /.notdef /.notdef /.notdef /.notdef /.notdef
 /space /exclam /quotedbl /numbersign /dollar /percent /ampersand /quoteright
 /parenleft /parenright /asterisk /plus /comma /minus /period /slash
 /zero /one /two /three /four /five /six /seven
 /eight /nine /colon /semicolon /less /equal /greater /question
 /at /A /B /C /D /E /F /G
 /H /I /J /K /L /M /N /O
 /P /Q /R /S /T /U /V /W
 /X /Y /Z /bracketleft /backslash /bracketright /asciicircum /underscore
 /grave /a /b /c /d /e /f /g
 /h /i /j /k /l /m /n /o
 /p /q /r /s /t /u /v /w
 /x /y /z /braceleft /bar /braceright /asciitilde /.notdef
 /Euro /.notdef /quotesinglbase /florin /quotedblbase /ellipsis /dagger /daggerdbl
 /circumflex /perthousand /Scaron /guilsinglleft /OE /.notdef /Zcaron /.notdef
 /.notdef /quoteleft /quoteright /quotedblleft /quotedblright /bullet /endash /emdash
 /tilde /trademark /scaron /guilsinglright /oe /.notdef /zcaron /Ydieresis
 /space /exclamdown /cent /sterling /currency /yen /brokenbar /section
 /dieresis /copyright /ordfeminine /guillemotleft /logicalnot /hyphen /registered /macron
 /degree /plusminus /twosuperior /threesuperior /acute /mu /paragraph /periodcentered
 /cedilla /onesuperior /ordmasculine /guillemotright /onequarter /onehalf /threequarters /questiondown
 /Agrave /Aacute /Acircumflex /Atilde /Adieresis /Aring /AE /Ccedilla
 /Egrave /Eacute /Ecircumflex /Edieresis /Igrave /Iacute /Icircumflex /Idieresis
 /Eth /Ntilde /Ograve /Oacute /Ocircumflex /Otilde /Odieresis /multiply
 /Oslash /Ugrave /Uacute /Ucircumflex /Udieresis /Yacute /Thorn /germandbls
 /agrave /aacute /acircumflex /atilde /adieresis /aring /ae /ccedilla
 /egrave /eacute /ecircumflex /edieresis /igrave /iacute /icircumflex /idieresis
 /eth /ntilde /ograve /oacute /ocircumflex /otilde /odieresis /divide
 /oslash /ugrave /uacute /ucircumflex /udieresis /yacute /thorn /ydieresis
]
 def
% end encoding
%%IncludeResource: font Helvetica
/Helvetica findfont
dup length dict begin
  {1 index /FID ne {def} {pop pop} ifelse} forall
  /Encoding WinAnsiEncoding def
  currentdict
  end
/Font1 exch definefont pop
%%IncludeResource: font Helvetica-Bold
/Helvetica-Bold findfont
dup length dict begin
  {1 index /FID ne {def} {pop pop} ifelse} forall
  /Encoding WinAnsiEncoding def
  currentdict
  end
/Font2 exch definefont pop
%%IncludeResource: font Helvetica-Oblique
/Helvetica-Oblique findfont
dup length dict begin
  {1 index /FID ne {def} {pop pop} ifelse} forall
  /Encoding WinAnsiEncoding def
  currentdict
  end
/Font3 exch definefont pop
%%IncludeResource: font Helvetica-BoldOblique
/Helvetica-BoldOblique findfont
dup length dict begin
  {1 index /FID ne {def} {pop pop} ifelse} forall
  /Encoding WinAnsiEncoding def
  currentdict
  end
/Font4 exch definefont pop
%%IncludeResource: font Symbol
/Symbol findfont
dup length dict begin
  {1 index /FID ne {def} {pop pop} ifelse} forall
  currentdict
  end
/Font5 exch definefont pop
%%EndProlog
%%Page: 1 1
bp
0.00 0.00 541.50 421.50 cl
0.00 0.00 541.50 421.50 cl
0.00 0.00 541.50 421.50 cl
0.00 0.00 541.50 421.50 cl
0.00 0.00 541.50 421.50 cl
0.00 0.00 541.50 421.50 cl
/bg { 1 1 1 srgb } def
1 1 1 srgb
1.07 setlinewidth
[] 0 setdash
1 setlinecap
1 setlinejoin
10.00 setmiterlimit
0.00 0.00 541.50 421.50 r p3
0.00 0.00 541.50 421.50 cl
30.13 291.79 536.02 397.56 cl
/bg { 0.9216 0.9216 0.9216 srgb } def
30.13 291.79 505.89 105.77 r p2
1 1 1 srgb
0.53 setlinewidth
[] 0 setdash
0 setlinecap
1 setlinejoin
10.00 setmiterlimit
np
30.13 308.62 m
505.89 0 l
o
np
30.13 332.66 m
505.89 0 l
o
np
30.13 356.70 m
505.89 0 l
o
np
30.13 380.74 m
505.89 0 l
o
np
80.18 291.79 m
0 105.77 l
o
np
176.80 291.79 m
0 105.77 l
o
np
273.42 291.79 m
0 105.77 l
o
np
370.03 291.79 m
0 105.77 l
o
np
466.65 291.79 m
0 105.77 l
o
1.07 setlinewidth
[] 0 setdash
np
30.13 296.60 m
505.89 0 l
o
np
30.13 320.64 m
505.89 0 l
o
np
30.13 344.68 m
505.89 0 l
o
np
30.13 368.72 m
505.89 0 l
o
np
30.13 392.75 m
505.89 0 l
o
np
31.87 291.79 m
0 105.77 l
o
np
128.49 291.79 m
0 105.77 l
o
np
225.11 291.79 m
0 105.77 l
o
np
321.72 291.79 m
0 105.77 l
o
np
418.34 291.79 m
0 105.77 l
o
np
514.96 291.79 m
0 105.77 l
o
/bg { 0.3490 0.3490 0.3490 srgb } def
91.78 296.60 34.78 24.04 r p2
130.42 296.60 34.78 24.04 r p2
207.72 296.60 34.78 24.04 r p2
285.01 296.60 34.78 24.04 r p2
323.66 296.60 34.78 48.08 r p2
400.95 296.60 34.78 72.11 r p2
478.24 296.60 34.78 24.04 r p2
0.00 0.00 541.50 421.50 cl
30.13 162.09 536.02 267.86 cl
/bg { 0.9216 0.9216 0.9216 srgb } def
30.13 162.09 505.89 105.77 r p2
1 1 1 srgb
0.53 setlinewidth
[] 0 setdash
0 setlinecap
1 setlinejoin
10.00 setmiterlimit
np
30.13 178.92 m
505.89 0 l
o
np
30.13 202.95 m
505.89 0 l
o
np
30.13 226.99 m
505.89 0 l
o
np
30.13 251.03 m
505.89 0 l
o
np
80.18 162.09 m
0 105.77 l
o
np
176.80 162.09 m
0 105.77 l
o
np
273.42 162.09 m
0 105.77 l
o
np
370.03 162.09 m
0 105.77 l
o
np
466.65 162.09 m
0 105.77 l
o
1.07 setlinewidth
[] 0 setdash
np
30.13 166.90 m
505.89 0 l
o
np
30.13 190.94 m
505.89 0 l
o
np
30.13 214.97 m
505.89 0 l
o
np
30.13 239.01 m
505.89 0 l
o
np
30.13 263.05 m
505.89 0 l
o
np
31.87 162.09 m
0 105.77 l
o
np
128.49 162.09 m
0 105.77 l
o
np
225.11 162.09 m
0 105.77 l
o
np
321.72 162.09 m
0 105.77 l
o
np
418.34 162.09 m
0 105.77 l
o
np
514.96 162.09 m
0 105.77 l
o
/bg { 0.3490 0.3490 0.3490 srgb } def
53.13 166.90 34.78 24.04 r p2
207.72 166.90 34.78 48.08 r p2
246.36 166.90 34.78 24.04 r p2
285.01 166.90 34.78 96.15 r p2
323.66 166.90 34.78 24.04 r p2
362.30 166.90 34.78 24.04 r p2
0.00 0.00 541.50 421.50 cl
30.13 32.38 536.02 138.15 cl
/bg { 0.9216 0.9216 0.9216 srgb } def
30.13 32.38 505.89 105.77 r p2
1 1 1 srgb
0.53 setlinewidth
[] 0 setdash
0 setlinecap
1 setlinejoin
10.00 setmiterlimit
np
30.13 49.21 m
505.89 0 l
o
np
30.13 73.25 m
505.89 0 l
o
np
30.13 97.29 m
505.89 0 l
o
np
30.13 121.32 m
505.89 0 l
o
np
80.18 32.38 m
0 105.77 l
o
np
176.80 32.38 m
0 105.77 l
o
np
273.42 32.38 m
0 105.77 l
o
np
370.03 32.38 m
0 105.77 l
o
np
466.65 32.38 m
0 105.77 l
o
1.07 setlinewidth
[] 0 setdash
np
30.13 37.19 m
505.89 0 l
o
np
30.13 61.23 m
505.89 0 l
o
np
30.13 85.27 m
505.89 0 l
o
np
30.13 109.31 m
505.89 0 l
o
np
30.13 133.34 m
505.89 0 l
o
np
31.87 32.38 m
0 105.77 l
o
np
128.49 32.38 m
0 105.77 l
o
np
225.11 32.38 m
0 105.77 l
o
np
321.72 32.38 m
0 105.77 l
o
np
418.34 32.38 m
0 105.77 l
o
np
514.96 32.38 m
0 105.77 l
o
/bg { 0.3490 0.3490 0.3490 srgb } def
169.07 37.19 34.78 24.04 r p2
207.72 37.19 34.78 48.08 r p2
246.36 37.19 34.78 72.11 r p2
285.01 37.19 34.78 72.11 r p2
323.66 37.19 34.78 24.04 r p2
0.00 0.00 541.50 421.50 cl
0.00 0.00 541.50 421.50 cl
30.13 397.56 536.02 416.02 cl
/bg { 0.8510 0.8510 0.8510 srgb } def
30.13 397.56 505.89 18.46 r p2
/Font1 findfont 9 s
0.1020 0.1020 0.1020 srgb
283.08 403.56 (0.1s) .5 0 t
30.13 397.56 536.02 416.02 cl
0.00 0.00 541.50 421.50 cl
0.00 0.00 541.50 421.50 cl
0.00 0.00 541.50 421.50 cl
30.13 267.86 536.02 286.32 cl
/bg { 0.8510 0.8510 0.8510 srgb } def
30.13 267.86 505.89 18.46 r p2
/Font1 findfont 9 s
0.1020 0.1020 0.1020 srgb
283.08 273.86 (0.5s) .5 0 t
30.13 267.86 536.02 286.32 cl
0.00 0.00 541.50 421.50 cl
0.00 0.00 541.50 421.50 cl
0.00 0.00 541.50 421.50 cl
30.13 138.15 536.02 156.61 cl
/bg { 0.8510 0.8510 0.8510 srgb } def
30.13 138.15 505.89 18.46 r p2
/Font1 findfont 9 s
0.1020 0.1020 0.1020 srgb
283.08 144.15 (2s) .5 0 t
30.13 138.15 536.02 156.61 cl
0.00 0.00 541.50 421.50 cl
0.00 0.00 541.50 421.50 cl
0.00 0.00 541.50 421.50 cl
0.00 0.00 541.50 421.50 cl
0.00 0.00 541.50 421.50 cl
0.00 0.00 541.50 421.50 cl
0.00 0.00 541.50 421.50 cl
/Font1 findfont 9 s
0.3020 0.3020 0.3020 srgb
25.20 293.37 (0) 1 0 t
25.20 317.41 (1) 1 0 t
25.20 341.45 (2) 1 0 t
25.20 365.49 (3) 1 0 t
25.20 389.52 (4) 1 0 t
0.00 0.00 541.50 421.50 cl
0.00 0.00 541.50 421.50 cl
0.2000 0.2000 0.2000 srgb
1.07 setlinewidth
[] 0 setdash
0 setlinecap
1 setlinejoin
10.00 setmiterlimit
np
27.39 296.60 m
2.74 0 l
o
np
27.39 320.64 m
2.74 0 l
o
np
27.39 344.68 m
2.74 0 l
o
np
27.39 368.72 m
2.74 0 l
o
np
27.39 392.75 m
2.74 0 l
o
0.00 0.00 541.50 421.50 cl
0.00 0.00 541.50 421.50 cl
0.00 0.00 541.50 421.50 cl
0.00 0.00 541.50 421.50 cl
0.00 0.00 541.50 421.50 cl
0.00 0.00 541.50 421.50 cl
0.00 0.00 541.50 421.50 cl
0.00 0.00 541.50 421.50 cl
/Font1 findfont 9 s
0.3020 0.3020 0.3020 srgb
25.20 163.67 (0) 1 0 t
25.20 187.70 (1) 1 0 t
25.20 211.74 (2) 1 0 t
25.20 235.78 (3) 1 0 t
25.20 259.82 (4) 1 0 t
0.00 0.00 541.50 421.50 cl
0.00 0.00 541.50 421.50 cl
0.2000 0.2000 0.2000 srgb
1.07 setlinewidth
[] 0 setdash
0 setlinecap
1 setlinejoin
10.00 setmiterlimit
np
27.39 166.90 m
2.74 0 l
o
np
27.39 190.94 m
2.74 0 l
o
np
27.39 214.97 m
2.74 0 l
o
np
27.39 239.01 m
2.74 0 l
o
np
27.39 263.05 m
2.74 0 l
o
0.00 0.00 541.50 421.50 cl
0.00 0.00 541.50 421.50 cl
0.00 0.00 541.50 421.50 cl
0.00 0.00 541.50 421.50 cl
0.00 0.00 541.50 421.50 cl
0.00 0.00 541.50 421.50 cl
0.00 0.00 541.50 421.50 cl
0.00 0.00 541.50 421.50 cl
/Font1 findfont 9 s
0.3020 0.3020 0.3020 srgb
25.20 33.96 (0) 1 0 t
25.20 58.00 (1) 1 0 t
25.20 82.04 (2) 1 0 t
25.20 106.07 (3) 1 0 t
25.20 130.11 (4) 1 0 t
0.00 0.00 541.50 421.50 cl
0.00 0.00 541.50 421.50 cl
0.2000 0.2000 0.2000 srgb
1.07 setlinewidth
[] 0 setdash
0 setlinecap
1 setlinejoin
10.00 setmiterlimit
np
27.39 37.19 m
2.74 0 l
o
np
27.39 61.23 m
2.74 0 l
o
np
27.39 85.27 m
2.74 0 l
o
np
27.39 109.31 m
2.74 0 l
o
np
27.39 133.34 m
2.74 0 l
o
0.00 0.00 541.50 421.50 cl
0.00 0.00 541.50 421.50 cl
0.00 0.00 541.50 421.50 cl
0.00 0.00 541.50 421.50 cl
0.00 0.00 541.50 421.50 cl
0.00 0.00 541.50 421.50 cl
0.00 0.00 541.50 421.50 cl
0.00 0.00 541.50 421.50 cl
0.00 0.00 541.50 421.50 cl
0.00 0.00 541.50 421.50 cl
0.00 0.00 541.50 421.50 cl
0.00 0.00 541.50 421.50 cl
0.2000 0.2000 0.2000 srgb
1.07 setlinewidth
[] 0 setdash
0 setlinecap
1 setlinejoin
10.00 setmiterlimit
np
31.87 29.64 m
0 2.74 l
o
np
128.49 29.64 m
0 2.74 l
o
np
225.11 29.64 m
0 2.74 l
o
np
321.72 29.64 m
0 2.74 l
o
np
418.34 29.64 m
0 2.74 l
o
np
514.96 29.64 m
0 2.74 l
o
0.00 0.00 541.50 421.50 cl
0.00 0.00 541.50 421.50 cl
/Font1 findfont 9 s
0.3020 0.3020 0.3020 srgb
31.87 20.99 (0.4050) .5 0 t
128.49 20.99 (0.4075) .5 0 t
225.11 20.99 (0.4100) .5 0 t
321.72 20.99 (0.4125) .5 0 t
418.34 20.99 (0.4150) .5 0 t
514.96 20.99 (0.4175) .5 0 t
0.00 0.00 541.50 421.50 cl
0.00 0.00 541.50 421.50 cl
0.00 0.00 541.50 421.50 cl
0.00 0.00 541.50 421.50 cl
/Font1 findfont 11 s
0 0 0 srgb
283.08 7.67 (Abs) .5 0 t
0.00 0.00 541.50 421.50 cl
0.00 0.00 541.50 421.50 cl
/Font1 findfont 11 s
0 0 0 srgb
15.57 214.97 (count) .5 90 t
0.00 0.00 541.50 421.50 cl
0.00 0.00 541.50 421.50 cl
0.00 0.00 541.50 421.50 cl
0.00 0.00 541.50 421.50 cl
ep
%%Trailer
%%Pages: 1
%%EOF
