%!PS-Adobe-3.0 EPSF-3.0
%%DocumentNeededResources: font Helvetica
%%+ font Helvetica-Bold
%%+ font Helvetica-Oblique
%%+ font Helvetica-BoldOblique
%%+ font Symbol
%%Title: R Graphics Output
%%Creator: R Software
%%Pages: (atend)
%%BoundingBox: 0 0 541 422
%%EndComments
%%BeginProlog
/bp  { gs sRGB gs } def
% begin .ps.prolog
/gs  { gsave } bind def
/gr  { grestore } bind def
/ep  { showpage gr gr } bind def
/m   { moveto } bind def
/l  { rlineto } bind def
/np  { newpath } bind def
/cp  { closepath } bind def
/f   { fill } bind def
/o   { stroke } bind def
/c   { newpath 0 360 arc } bind def
/r   { 4 2 roll moveto 1 copy 3 -1 roll exch 0 exch rlineto 0 rlineto -1 mul 0 exch rlineto closepath } bind def
/p1  { stroke } bind def
/p2  { gsave bg fill grestore newpath } bind def
/p3  { gsave bg fill grestore stroke } bind def
/p6  { gsave bg eofill grestore newpath } bind def
/p7  { gsave bg eofill grestore stroke } bind def
/t   { 5 -2 roll moveto gsave rotate
       1 index stringwidth pop
       mul neg 0 rmoveto show grestore } bind def
/ta  { 4 -2 roll moveto gsave rotate show } bind def
/tb  { 2 -1 roll 0 rmoveto show } bind def
/cl  { grestore gsave newpath 3 index 3 index moveto 1 index
       4 -1 roll lineto  exch 1 index lineto lineto
       closepath clip newpath } bind def
/rgb { setrgbcolor } bind def
/s   { scalefont setfont } bind def
% end   .ps.prolog
/sRGB { [ /CIEBasedABC
          << /DecodeLMN
               [ { dup 0.03928 le
                        {12.92321 div}
                        {0.055 add 1.055 div 2.4 exp }
                     ifelse
                 } bind dup dup
               ]
             /MatrixLMN [0.412457 0.212673 0.019334
                         0.357576 0.715152 0.119192
                         0.180437 0.072175 0.950301]
             /WhitePoint [0.9505 1.0 1.0890]
           >>
         ] setcolorspace } bind def
/srgb { setcolor } bind def
% begin encoding
/WinAnsiEncoding [
 /.notdef /.notdef /.notdef /.notdef /.notdef /.notdef /.notdef /.notdef
 /.notdef /.notdef /.notdef /.notdef /.notdef /.notdef /.notdef /.notdef
 /.notdef /.notdef /.notdef /.notdef /.notdef /.notdef /.notdef /.notdef
 /.notdef /.notdef /.notdef /.notdef /.notdef /.notdef /.notdef /.notdef
 /space /exclam /quotedbl /numbersign /dollar /percent /ampersand /quoteright
 /parenleft /parenright /asterisk /plus /comma /minus /period /slash
 /zero /one /two /three /four /five /six /seven
 /eight /nine /colon /semicolon /less /equal /greater /question
 /at /A /B /C /D /E /F /G
 /H /I /J /K /L /M /N /O
 /P /Q /R /S /T /U /V /W
 /X /Y /Z /bracketleft /backslash /bracketright /asciicircum /underscore
 /grave /a /b /c /d /e /f /g
 /h /i /j /k /l /m /n /o
 /p /q /r /s /t /u /v /w
 /x /y /z /braceleft /bar /braceright /asciitilde /.notdef
 /Euro /.notdef /quotesinglbase /florin /quotedblbase /ellipsis /dagger /daggerdbl
 /circumflex /perthousand /Scaron /guilsinglleft /OE /.notdef /Zcaron /.notdef
 /.notdef /quoteleft /quoteright /quotedblleft /quotedblright /bullet /endash /emdash
 /tilde /trademark /scaron /guilsinglright /oe /.notdef /zcaron /Ydieresis
 /space /exclamdown /cent /sterling /currency /yen /brokenbar /section
 /dieresis /copyright /ordfeminine /guillemotleft /logicalnot /hyphen /registered /macron
 /degree /plusminus /twosuperior /threesuperior /acute /mu /paragraph /periodcentered
 /cedilla /onesuperior /ordmasculine /guillemotright /onequarter /onehalf /threequarters /questiondown
 /Agrave /Aacute /Acircumflex /Atilde /Adieresis /Aring /AE /Ccedilla
 /Egrave /Eacute /Ecircumflex /Edieresis /Igrave /Iacute /Icircumflex /Idieresis
 /Eth /Ntilde /Ograve /Oacute /Ocircumflex /Otilde /Odieresis /multiply
 /Oslash /Ugrave /Uacute /Ucircumflex /Udieresis /Yacute /Thorn /germandbls
 /agrave /aacute /acircumflex /atilde /adieresis /aring /ae /ccedilla
 /egrave /eacute /ecircumflex /edieresis /igrave /iacute /icircumflex /idieresis
 /eth /ntilde /ograve /oacute /ocircumflex /otilde /odieresis /divide
 /oslash /ugrave /uacute /ucircumflex /udieresis /yacute /thorn /ydieresis
]
 def
% end encoding
%%IncludeResource: font Helvetica
/Helvetica findfont
dup length dict begin
  {1 index /FID ne {def} {pop pop} ifelse} forall
  /Encoding WinAnsiEncoding def
  currentdict
  end
/Font1 exch definefont pop
%%IncludeResource: font Helvetica-Bold
/Helvetica-Bold findfont
dup length dict begin
  {1 index /FID ne {def} {pop pop} ifelse} forall
  /Encoding WinAnsiEncoding def
  currentdict
  end
/Font2 exch definefont pop
%%IncludeResource: font Helvetica-Oblique
/Helvetica-Oblique findfont
dup length dict begin
  {1 index /FID ne {def} {pop pop} ifelse} forall
  /Encoding WinAnsiEncoding def
  currentdict
  end
/Font3 exch definefont pop
%%IncludeResource: font Helvetica-BoldOblique
/Helvetica-BoldOblique findfont
dup length dict begin
  {1 index /FID ne {def} {pop pop} ifelse} forall
  /Encoding WinAnsiEncoding def
  currentdict
  end
/Font4 exch definefont pop
%%IncludeResource: font Symbol
/Symbol findfont
dup length dict begin
  {1 index /FID ne {def} {pop pop} ifelse} forall
  currentdict
  end
/Font5 exch definefont pop
%%EndProlog
%%Page: 1 1
bp
0.00 0.00 541.50 421.50 cl
0.00 0.00 541.50 421.50 cl
0.00 0.00 541.50 421.50 cl
0.00 0.00 541.50 421.50 cl
0.00 0.00 541.50 421.50 cl
0.00 0.00 541.50 421.50 cl
0.00 0.00 541.50 421.50 cl
0.00 0.00 541.50 421.50 cl
0.00 0.00 541.50 421.50 cl
/bg { 1 1 1 srgb } def
1 1 1 srgb
1.07 setlinewidth
[] 0 setdash
1 setlinecap
1 setlinejoin
10.00 setmiterlimit
0.00 0.00 541.50 421.50 r p3
0.00 0.00 541.50 421.50 cl
0.00 0.00 541.50 421.50 cl
0.00 0.00 541.50 421.50 cl
37.39 31.35 536.02 416.02 cl
/bg { 0.9216 0.9216 0.9216 srgb } def
37.39 31.35 498.63 384.67 r p2
1 1 1 srgb
0.53 setlinewidth
[] 0 setdash
0 setlinecap
1 setlinejoin
10.00 setmiterlimit
np
37.39 89.52 m
498.63 0 l
o
np
37.39 170.90 m
498.63 0 l
o
np
37.39 252.29 m
498.63 0 l
o
np
37.39 333.67 m
498.63 0 l
o
np
37.39 415.05 m
498.63 0 l
o
np
105.39 31.35 m
0 384.67 l
o
np
196.05 31.35 m
0 384.67 l
o
np
286.71 31.35 m
0 384.67 l
o
np
377.37 31.35 m
0 384.67 l
o
np
468.03 31.35 m
0 384.67 l
o
1.07 setlinewidth
[] 0 setdash
np
37.39 48.83 m
498.63 0 l
o
np
37.39 130.21 m
498.63 0 l
o
np
37.39 211.60 m
498.63 0 l
o
np
37.39 292.98 m
498.63 0 l
o
np
37.39 374.36 m
498.63 0 l
o
np
60.06 31.35 m
0 384.67 l
o
np
150.72 31.35 m
0 384.67 l
o
np
241.38 31.35 m
0 384.67 l
o
np
332.04 31.35 m
0 384.67 l
o
np
422.70 31.35 m
0 384.67 l
o
np
513.36 31.35 m
0 384.67 l
o
/bg { 0 0 0 srgb } def
0 0 0 srgb
0.71 setlinewidth
[] 0 setdash
1 setlinecap
60.06 48.83 1.95 c p3
60.06 48.83 1.95 c p3
60.06 48.83 1.95 c p3
150.72 121.26 1.95 c p3
150.72 122.08 1.95 c p3
150.72 122.08 1.95 c p3
332.04 261.24 1.95 c p3
332.04 261.24 1.95 c p3
332.04 261.24 1.95 c p3
513.36 397.15 1.95 c p3
513.36 397.15 1.95 c p3
513.36 397.15 1.95 c p3
0.2000 0.4000 1 srgb
2.13 setlinewidth
[] 0 setdash
0 setlinecap
1.00 setmiterlimit
np
60.06 50.75 m
5.74 4.41 l
5.73 4.40 l
5.74 4.40 l
5.74 4.40 l
5.74 4.40 l
5.74 4.41 l
5.73 4.40 l
5.74 4.40 l
5.74 4.40 l
5.74 4.41 l
5.74 4.40 l
5.73 4.40 l
5.74 4.40 l
5.74 4.41 l
5.74 4.40 l
5.74 4.40 l
5.73 4.40 l
5.74 4.40 l
5.74 4.41 l
5.74 4.40 l
5.74 4.40 l
5.73 4.40 l
5.74 4.41 l
5.74 4.40 l
5.74 4.40 l
5.74 4.40 l
5.73 4.41 l
5.74 4.40 l
5.74 4.40 l
5.74 4.40 l
5.73 4.40 l
5.74 4.41 l
5.74 4.40 l
5.74 4.40 l
5.74 4.40 l
5.73 4.41 l
5.74 4.40 l
5.74 4.40 l
5.74 4.40 l
5.74 4.41 l
5.73 4.40 l
5.74 4.40 l
5.74 4.40 l
5.74 4.40 l
5.74 4.41 l
5.73 4.40 l
5.74 4.40 l
5.74 4.40 l
5.74 4.41 l
5.74 4.40 l
5.73 4.40 l
5.74 4.40 l
5.74 4.41 l
5.74 4.40 l
5.74 4.40 l
5.73 4.40 l
5.74 4.40 l
5.74 4.41 l
5.74 4.40 l
5.73 4.40 l
5.74 4.40 l
5.74 4.41 l
5.74 4.40 l
5.74 4.40 l
5.73 4.40 l
5.74 4.41 l
5.74 4.40 l
5.74 4.40 l
5.74 4.40 l
5.73 4.40 l
5.74 4.41 l
5.74 4.40 l
5.74 4.40 l
5.74 4.40 l
5.73 4.41 l
5.74 4.40 l
5.74 4.40 l
5.74 4.40 l
5.74 4.41 l
o
0.00 0.00 541.50 421.50 cl
0.00 0.00 541.50 421.50 cl
0.00 0.00 541.50 421.50 cl
0.00 0.00 541.50 421.50 cl
0.00 0.00 541.50 421.50 cl
0.00 0.00 541.50 421.50 cl
/Font1 findfont 9 s
0.3020 0.3020 0.3020 srgb
32.46 45.60 (0.0) 1 0 t
32.46 126.98 (0.1) 1 0 t
32.46 208.36 (0.2) 1 0 t
32.46 289.75 (0.3) 1 0 t
32.46 371.13 (0.4) 1 0 t
0.00 0.00 541.50 421.50 cl
0.00 0.00 541.50 421.50 cl
0.2000 0.2000 0.2000 srgb
1.07 setlinewidth
[] 0 setdash
0 setlinecap
1 setlinejoin
10.00 setmiterlimit
np
34.65 48.83 m
2.74 0 l
o
np
34.65 130.21 m
2.74 0 l
o
np
34.65 211.60 m
2.74 0 l
o
np
34.65 292.98 m
2.74 0 l
o
np
34.65 374.36 m
2.74 0 l
o
0.00 0.00 541.50 421.50 cl
0.00 0.00 541.50 421.50 cl
0.00 0.00 541.50 421.50 cl
0.00 0.00 541.50 421.50 cl
0.00 0.00 541.50 421.50 cl
0.00 0.00 541.50 421.50 cl
0.00 0.00 541.50 421.50 cl
0.00 0.00 541.50 421.50 cl
0.2000 0.2000 0.2000 srgb
1.07 setlinewidth
[] 0 setdash
0 setlinecap
1 setlinejoin
10.00 setmiterlimit
np
60.06 28.61 m
0 2.74 l
o
np
150.72 28.61 m
0 2.74 l
o
np
241.38 28.61 m
0 2.74 l
o
np
332.04 28.61 m
0 2.74 l
o
np
422.70 28.61 m
0 2.74 l
o
np
513.36 28.61 m
0 2.74 l
o
0.00 0.00 541.50 421.50 cl
0.00 0.00 541.50 421.50 cl
/Font1 findfont 9 s
0.3020 0.3020 0.3020 srgb
60.06 19.95 (0) .5 0 t
150.72 19.95 (1) .5 0 t
241.38 19.95 (2) .5 0 t
332.04 19.95 (3) .5 0 t
422.70 19.95 (4) .5 0 t
513.36 19.95 (5) .5 0 t
0.00 0.00 541.50 421.50 cl
0.00 0.00 541.50 421.50 cl
0.00 0.00 541.50 421.50 cl
0.00 0.00 541.50 421.50 cl
/Font1 findfont 11 s
0 0 0 srgb
286.71 7.67 (ppm) .5 0 t
0.00 0.00 541.50 421.50 cl
0.00 0.00 541.50 421.50 cl
/Font1 findfont 11 s
0 0 0 srgb
15.57 223.68 (Abs) .5 90 t
0.00 0.00 541.50 421.50 cl
0.00 0.00 541.50 421.50 cl
0.00 0.00 541.50 421.50 cl
0.00 0.00 541.50 421.50 cl
ep
%%Trailer
%%Pages: 1
%%EOF
