XLabel,Wavenumber
YLabel,Response
FileType,Single Beam
DisplayDirection,20300
PeakDirection,20312
0.000000,0.012256
15.430492,0.012151
30.860983,0.007219
46.291475,0.002065
61.721967,0.000501
77.152458,-0.001926
92.582950,-0.001566
108.013442,-0.000099
123.443934,0.000215
138.874425,0.000021
154.304917,-0.000172
169.735409,0.000192
185.165900,-0.000358
200.596392,-0.000111
216.026884,-0.000141
231.457375,-0.000506
246.887867,-0.000527
262.318359,-0.001099
277.748851,-0.001337
293.179342,-0.002385
308.609834,-0.002636
324.040326,-0.001683
339.470817,0.002592
354.901309,0.017486
370.331801,0.047650
385.762292,0.096646
401.192784,0.159484
416.623276,0.232718
432.053768,0.305194
447.484259,0.356209
462.914751,0.386394
478.345243,0.423962
493.775734,0.477816
509.206226,0.553546
524.636718,0.668449
540.067209,0.791803
555.497701,0.869586
570.928193,0.911583
586.358685,0.954732
601.789176,1.016356
617.219668,1.084748
632.650160,1.124338
648.080651,1.097502
663.511143,1.048599
678.941635,1.082169
694.372126,1.189134
709.802618,1.261492
725.233110,1.262334
740.663602,1.225848
756.094093,1.184000
771.524585,1.150459
786.955077,1.114329
802.385568,1.077538
817.816060,1.044024
833.246552,1.011517
848.677043,0.992190
864.107535,0.995643
879.538027,1.021962
894.968519,1.055057
910.399010,1.079925
925.829502,1.092970
941.259994,1.109415
956.690485,1.122822
972.120977,1.105489
987.551469,1.049338
1002.981960,0.979245
1018.412452,0.911615
1033.842944,0.850803
1049.273436,0.788964
1064.703927,0.730346
1080.134419,0.692957
1095.564911,0.699164
1110.995402,0.761842
1126.425894,0.861384
1141.856386,0.942888
1157.286877,1.007545
1172.717369,1.077940
1188.147861,1.188637
1203.578353,1.334337
1219.008844,1.479828
1234.439336,1.595313
1249.869828,1.684960
1265.300319,1.790396
1280.730811,1.935850
1296.161303,2.083322
1311.591794,2.172028
1327.022286,2.211150
1342.452778,2.227138
1357.883270,2.253054
1373.313761,2.304045
1388.744253,2.353416
1404.174745,2.407391
1419.605236,2.432402
1435.035728,2.457637
1450.466220,2.474091
1465.896711,2.552925
1481.327203,2.708405
1496.757695,2.651583
1512.188187,2.505154
1527.618678,2.460658
1543.049170,2.431812
1558.479662,2.541688
1573.910153,2.864150
1589.340645,3.173512
1604.771137,3.204329
1620.201628,3.089679
1635.632120,2.993111
1651.062612,2.973264
1666.493104,3.071976
1681.923595,3.035137
1697.354087,2.976982
1712.784579,3.119873
1728.215070,3.261579
1743.645562,3.354989
1759.076054,3.459247
1774.506545,3.533448
1789.937037,3.599013
1805.367529,3.702067
1820.798021,3.750036
1836.228512,3.735478
1851.659004,3.746903
1867.089496,3.739264
1882.519987,3.730950
1897.950479,3.733056
1913.380971,3.710116
1928.811462,3.687262
1944.241954,3.650617
1959.672446,3.600978
1975.102938,3.556421
1990.533429,3.518576
2005.963921,3.483532
2021.394413,3.427669
2036.824904,3.350099
2052.255396,3.273301
2067.685888,3.207739
2083.116379,3.156513
2098.546871,3.095433
2113.977363,3.018426
2129.407854,2.935571
2144.838346,2.857562
2160.268838,2.799273
2175.699330,2.740582
2191.129821,2.677653
2206.560313,2.596202
2221.990805,2.508235
2237.421296,2.421781
2252.851788,2.329740
2268.282280,2.248706
2283.712771,2.108491
2299.143263,1.803486
2314.573755,1.311886
2330.004247,0.918255
2345.434738,0.757297
2360.865230,0.777301
2376.295722,1.205532
2391.726213,1.667538
2407.156705,1.733976
2422.587197,1.676067
2438.017688,1.621405
2453.448180,1.573166
2468.878672,1.525624
2484.309164,1.475438
2499.739655,1.439624
2515.170147,1.401936
2530.600639,1.386576
2546.031130,1.368806
2561.461622,1.350074
2576.892114,1.325320
2592.322605,1.303305
2607.753097,1.303242
2623.183589,1.305759
2638.614081,1.315096
2654.044572,1.315204
2669.475064,1.315745
2684.905556,1.315439
2700.336047,1.319483
2715.766539,1.329907
2731.197031,1.345528
2746.627522,1.368784
2762.058014,1.388360
2777.488506,1.407616
2792.918998,1.418826
2808.349489,1.426133
2823.779981,1.427664
2839.210473,1.401919
2854.640964,1.382737
2870.071456,1.404459
2885.501948,1.424330
2900.932439,1.384227
2916.362931,1.316240
2931.793423,1.310254
2947.223915,1.369985
2962.654406,1.434605
2978.084898,1.502291
2993.515390,1.549027
3008.945881,1.562904
3024.376373,1.569832
3039.806865,1.566081
3055.237356,1.560207
3070.667848,1.549540
3086.098340,1.541753
3101.528832,1.537433
3116.959323,1.530663
3132.389815,1.525352
3147.820307,1.510484
3163.250798,1.492682
3178.681290,1.472138
3194.111782,1.456148
3209.542273,1.443667
3224.972765,1.430863
3240.403257,1.419194
3255.833749,1.402356
3271.264240,1.384818
3286.694732,1.361165
3302.125224,1.336326
3317.555715,1.312197
3332.986207,1.292852
3348.416699,1.279280
3363.847190,1.263148
3379.277682,1.244295
3394.708174,1.215142
3410.138666,1.183686
3425.569157,1.150937
3440.999649,1.123669
3456.430141,1.109076
3471.860632,1.099067
3487.291124,1.086004
3502.721616,1.063807
3518.152107,1.038345
3533.582599,1.009328
3549.013091,0.977660
3564.443583,0.947175
3579.874074,0.923013
3595.304566,0.893427
3610.735058,0.852718
3626.165549,0.826151
3641.596041,0.812728
3657.026533,0.790701
3672.457024,0.757334
3687.887516,0.744956
3703.318008,0.743430
3718.748500,0.708735
3734.178991,0.649107
3749.609483,0.635306
3765.039975,0.686265
3780.470466,0.704383
3795.900958,0.663372
3811.331450,0.619296
3826.761941,0.596167
3842.192433,0.578786
3857.622925,0.561990
3873.053417,0.564193
3888.483908,0.560377
3903.914400,0.557438
3919.344892,0.563011
3934.775383,0.563147
3950.205875,0.565901
3965.636367,0.567141
3981.066858,0.563415
3996.497350,0.550714
4011.927842,0.534628
4027.358333,0.519316
4042.788825,0.508156
4058.219317,0.502691
4073.649809,0.497507
4089.080300,0.493934
4104.510792,0.485637
4119.941284,0.475999
4135.371775,0.463413
4150.802267,0.452276
4166.232759,0.444368
4181.663250,0.437809
4197.093742,0.434414
4212.524234,0.429704
4227.954726,0.424937
4243.385217,0.415677
4258.815709,0.405447
4274.246201,0.395028
4289.676692,0.385474
4305.107184,0.379444
4320.537676,0.374328
4335.968167,0.371565
4351.398659,0.364238
4366.829151,0.354836
4382.259643,0.343483
4397.690134,0.332763
4413.120626,0.324886
4428.551118,0.318405
4443.981609,0.313971
4459.412101,0.307079
4474.842593,0.300205
4490.273084,0.290420
4505.703576,0.280400
4521.134068,0.271051
4536.564560,0.262176
4551.995051,0.255755
4567.425543,0.249140
4582.856035,0.244657
4598.286526,0.237309
4613.717018,0.229655
4629.147510,0.221217
4644.578001,0.212267
4660.008493,0.205080
4675.438985,0.198354
4690.869477,0.194241
4706.299968,0.188357
4721.730460,0.182318
4737.160952,0.175055
4752.591443,0.167637
4768.021935,0.160709
4783.452427,0.154342
4798.882918,0.150530
4814.313410,0.146214
4829.743902,0.143708
4845.174394,0.139217
4860.604885,0.135223
4876.035377,0.130972
4891.465869,0.126317
4906.896360,0.123509
4922.326852,0.120768
4937.757344,0.120098
4953.187835,0.118674
4968.618327,0.117497
4984.048819,0.115157
4999.479311,0.113080
5014.909802,0.111826
5030.340294,0.110855
5045.770786,0.111096
5061.201277,0.110097
5076.631769,0.110889
5092.062261,0.109890
5107.492752,0.109246
5122.923244,0.108821
5138.353736,0.108256
5153.784228,0.108331
5169.214719,0.107340
5184.645211,0.107829
5200.075703,0.107181
5215.506194,0.107192
5230.936686,0.105912
5246.367178,0.104100
5261.797669,0.103553
5277.228161,0.103480
5292.658653,0.104368
5308.089145,0.103977
5323.519636,0.103057
5338.950128,0.100033
5354.380620,0.099454
5369.811111,0.099528
5385.241603,0.098189
5400.672095,0.097477
5416.102586,0.095565
5431.533078,0.094688
5446.963570,0.093372
5462.394062,0.093198
5477.824553,0.091917
5493.255045,0.090537
5508.685537,0.089693
5524.116028,0.087454
5539.546520,0.086471
5554.977012,0.084251
5570.407503,0.082916
5585.837995,0.080531
5601.268487,0.078211
5616.698979,0.076359
5632.129470,0.073516
5647.559962,0.071908
5662.990454,0.068702
5678.420945,0.066439
5693.851437,0.063732
5709.281929,0.061336
5724.712420,0.059002
5740.142912,0.056241
5755.573404,0.054573
5771.003896,0.051608
5786.434387,0.050049
5801.864879,0.047700
5817.295371,0.045780
5832.725862,0.043410
5848.156354,0.040556
5863.586846,0.039189
5879.017337,0.036661
5894.447829,0.035072
5909.878321,0.033065
5925.308813,0.031843
5940.739304,0.029699
5956.169796,0.027443
5971.600288,0.026293
5987.030779,0.024490
6002.461271,0.023475
6017.891763,0.021075
6033.322254,0.020009
6048.752746,0.018550
6064.183238,0.017586
6079.613729,0.016866
6095.044221,0.015634
6110.474713,0.015083
6125.905205,0.014210
6141.335696,0.014744
6156.766188,0.013592
6172.196680,0.013652
6187.627171,0.014028
6203.057663,0.014539
6218.488155,0.014990
6233.918646,0.014871
6249.349138,0.016296
6264.779630,0.016483
6280.210122,0.017530
6295.640613,0.017817
6311.071105,0.018498
6326.501597,0.018659
6341.932088,0.019224
6357.362580,0.020278
6372.793072,0.020252
6388.223563,0.020988
6403.654055,0.020608
6419.084547,0.021652
6434.515039,0.022062
6449.945530,0.022357
6465.376022,0.022585
6480.806514,0.022162
6496.237005,0.022928
6511.667497,0.022685
6527.097989,0.023223
6542.528480,0.022959
6557.958972,0.023128
6573.389464,0.023182
6588.819956,0.022752
6604.250447,0.023297
6619.680939,0.022755
6635.111431,0.023192
6650.541922,0.022645
6665.972414,0.022196
6681.402906,0.021852
6696.833397,0.021322
6712.263889,0.021511
6727.694381,0.020731
6743.124873,0.020854
6758.555364,0.020224
6773.985856,0.020170
6789.416348,0.019669
6804.846839,0.018954
6820.277331,0.018702
6835.707823,0.017637
6851.138314,0.017988
6866.568806,0.017204
6881.999298,0.017003
6897.429790,0.016662
6912.860281,0.016013
6928.290773,0.015759
6943.721265,0.014643
6959.151756,0.014448
6974.582248,0.013755
6990.012740,0.013867
7005.443231,0.012834
7020.873723,0.012126
7036.304215,0.012178
7051.734707,0.011408
7067.165198,0.011691
7082.595690,0.011053
7098.026182,0.010879
7113.456673,0.009885
7128.887165,0.009669
7144.317657,0.009740
7159.748148,0.009102
7175.178640,0.009762
7190.609132,0.009113
7206.039624,0.009137
7221.470115,0.008266
7236.900607,0.007818
7252.331099,0.006438
7267.761590,0.005923
7283.192082,0.005463
7298.622574,0.005777
7314.053065,0.005971
7329.483557,0.004298
7344.914049,0.001987
7360.344541,-0.001304
7375.775032,-0.000978
7391.205524,-0.001443
7406.636016,-0.000862
7422.066507,-0.001200
7437.496999,-0.000333
7452.927491,-0.000489
7468.357982,-0.000265
7483.788474,-0.000356
7499.218966,-0.000814
7514.649458,-0.000228
7530.079949,-0.000426
7545.510441,0.000305
7560.940933,0.000150
7576.371424,0.000617
7591.801916,0.000241
7607.232408,-0.000036
7622.662899,-0.000003
7638.093391,-0.000444
7653.523883,0.000342
7668.954375,0.000047
7684.384866,0.000721
7699.815358,0.000458
7715.245850,0.000749
7730.676341,0.001084
7746.106833,0.000693
7761.537325,0.000936
7776.967816,-0.000579
7792.398308,-0.001711
7807.828800,-0.001747
7823.259292,-0.002103
7838.689783,-0.001614
7854.120275,-0.001460
7869.550767,-0.002015
7884.981258,-0.001762
