XLabel,Wavenumber
YLabel,Response
FileType,Single Beam
DisplayDirection,20300
PeakDirection,20312
0.000000,0.004136
7.715246,0.019406
15.430492,0.021580
23.145738,0.001602
30.860983,0.002182
38.576229,-0.000447
46.291475,-0.000639
54.006721,0.002387
61.721967,-0.003340
69.437213,0.000440
77.152458,-0.003185
84.867704,-0.000672
92.582950,-0.002044
100.298196,-0.003388
108.013442,0.000363
115.728688,-0.003753
123.443934,0.000778
131.159179,-0.002974
138.874425,-0.000608
146.589671,-0.001005
154.304917,-0.002586
162.020163,0.000506
169.735409,-0.003161
177.450655,0.001575
185.165900,-0.002300
192.881146,-0.000067
200.596392,-0.001120
208.311638,-0.002216
216.026884,0.000409
223.742130,-0.003528
231.457375,0.000858
239.172621,-0.003136
246.887867,-0.000182
254.603113,-0.001240
262.318359,-0.001667
270.033605,0.000961
277.748851,-0.002928
285.464096,0.001116
293.179342,-0.003106
300.894588,0.000006
308.609834,-0.001943
316.325080,-0.001929
324.040326,0.000094
331.755572,-0.002900
339.470817,0.003392
347.186063,0.003212
354.901309,0.014737
362.616555,0.026724
370.331801,0.044283
378.047047,0.067677
385.762292,0.092233
393.477538,0.120190
401.192784,0.149227
408.908030,0.193430
416.623276,0.216897
424.338522,0.254371
432.053768,0.298754
439.769013,0.323728
447.484259,0.344895
455.199505,0.347750
462.914751,0.360341
470.629997,0.371847
478.345243,0.394165
486.060489,0.422759
493.775734,0.448155
501.490980,0.481761
509.206226,0.512399
516.921472,0.564044
524.636718,0.629424
532.351964,0.712953
540.067209,0.777331
547.782455,0.816838
555.497701,0.847969
563.212947,0.861797
570.928193,0.879265
578.643439,0.891960
586.358685,0.917773
594.073930,0.945213
601.789176,0.980095
609.504422,1.013964
617.219668,1.047756
624.934914,1.092787
632.650160,1.106044
640.365406,1.097903
648.080651,1.070288
655.795897,1.049490
663.511143,0.989998
671.226389,0.965148
678.941635,1.040761
686.656881,1.092975
694.372126,1.162199
702.087372,1.224045
709.802618,1.254864
717.517864,1.263806
725.233110,1.249766
732.948356,1.245344
740.663602,1.216804
748.378847,1.202286
756.094093,1.184232
763.809339,1.173792
771.524585,1.165638
779.239831,1.148145
786.955077,1.140164
794.670323,1.114949
802.385568,1.105866
810.100814,1.088150
817.816060,1.078483
825.531306,1.062728
833.246552,1.041555
840.961798,1.030945
848.677043,1.014779
856.392289,1.021947
864.107535,1.020900
871.822781,1.035382
879.538027,1.044426
887.253273,1.059783
894.968519,1.080762
902.683764,1.089804
910.399010,1.105706
918.114256,1.100815
925.829502,1.108862
933.544748,1.110995
941.259994,1.126035
948.975240,1.141391
956.690485,1.149196
964.405731,1.158209
972.120977,1.141979
979.836223,1.129328
987.551469,1.091367
995.266715,1.062371
1002.981960,1.023445
1010.697206,0.987124
1018.412452,0.960233
1026.127698,0.927678
1033.842944,0.909101
1041.558190,0.870545
1049.273436,0.846293
1056.988681,0.809691
1064.703927,0.782947
1072.419173,0.761007
1080.134419,0.744253
1087.849665,0.740622
1095.564911,0.730136
1103.280156,0.768367
1110.995402,0.806692
1118.710648,0.864754
1126.425894,0.910487
1134.141140,0.955101
1141.856386,0.997375
1149.571632,1.019007
1157.286877,1.053644
1165.002123,1.070224
1172.717369,1.115140
1180.432615,1.158662
1188.147861,1.226283
1195.863107,1.301589
1203.578353,1.378570
1211.293598,1.467688
1219.008844,1.530358
1226.724090,1.606538
1234.439336,1.648699
1242.154582,1.703617
1249.869828,1.737333
1257.585073,1.771010
1265.300319,1.829337
1273.015565,1.895791
1280.730811,1.994143
1288.446057,2.060695
1296.161303,2.146245
1303.876549,2.189081
1311.591794,2.216709
1319.307040,2.243891
1327.022286,2.259643
1334.737532,2.258508
1342.452778,2.241239
1350.168024,2.294809
1357.883270,2.273426
1365.598515,2.297496
1373.313761,2.347988
1381.029007,2.373716
1388.744253,2.387274
1396.459499,2.365011
1404.174745,2.483601
1411.889990,2.473988
1419.605236,2.426656
1427.320482,2.448632
1435.035728,2.470468
1442.750974,2.552766
1450.466220,2.474105
1458.181466,2.422233
1465.896711,2.519075
1473.611957,2.671924
1481.327203,2.794324
1489.042449,2.798608
1496.757695,2.670022
1504.472941,2.514180
1512.188187,2.443851
1519.903432,2.438811
1527.618678,2.527993
1535.333924,2.420057
1543.049170,2.375006
1550.764416,2.456614
1558.479662,2.415877
1566.194907,2.642281
1573.910153,2.878367
1581.625399,3.081544
1589.340645,3.254814
1597.055891,3.255935
1604.771137,3.250876
1612.486383,3.104024
1620.201628,3.025170
1627.916874,3.034646
1635.632120,3.015670
1643.347366,2.905850
1651.062612,2.794888
1658.777858,3.021148
1666.493104,3.182902
1674.208349,3.050502
1681.923595,2.999001
1689.638841,2.951315
1697.354087,2.831843
1705.069333,2.941395
1712.784579,3.105667
1720.499824,3.220162
1728.215070,3.281423
1735.930316,3.197574
1743.645562,3.269950
1751.360808,3.390121
1759.076054,3.469711
1766.791300,3.448020
1774.506545,3.428117
1782.221791,3.571455
1789.937037,3.526374
1797.652283,3.539723
1805.367529,3.668912
1813.082775,3.739128
1820.798021,3.725538
1828.513266,3.640745
1836.228512,3.670038
1843.943758,3.642680
1851.659004,3.708493
1859.374250,3.733064
1867.089496,3.613970
1874.804741,3.660310
1882.519987,3.672661
1890.235233,3.654519
1897.950479,3.665752
1905.665725,3.669280
1913.380971,3.627366
1921.096217,3.593254
1928.811462,3.638612
1936.526708,3.604909
1944.241954,3.563813
1951.957200,3.551771
1959.672446,3.527401
1967.387692,3.496023
1975.102938,3.481222
1982.818183,3.469431
1990.533429,3.429244
1998.248675,3.434676
2005.963921,3.423107
2013.679167,3.389497
2021.394413,3.355177
2029.109658,3.318877
2036.824904,3.281295
2044.540150,3.230283
2052.255396,3.200931
2059.970642,3.159905
2067.685888,3.134356
2075.401134,3.113202
2083.116379,3.087360
2090.831625,3.064466
2098.546871,3.028513
2106.262117,2.998605
2113.977363,2.952858
2121.692609,2.913922
2129.407854,2.869485
2137.123100,2.828328
2144.838346,2.796345
2152.553592,2.761231
2160.268838,2.738675
2167.984084,2.709523
2175.699330,2.688387
2183.414575,2.658720
2191.129821,2.626558
2198.845067,2.591519
2206.560313,2.547988
2214.275559,2.510030
2221.990805,2.465112
2229.706051,2.427398
2237.421296,2.386711
2245.136542,2.349542
2252.851788,2.310091
2260.567034,2.263439
2268.282280,2.226166
2275.997526,2.194953
2283.712771,2.148125
2291.428017,2.035290
2299.143263,1.857032
2306.858509,1.610791
2314.573755,1.306137
2322.289001,1.023584
2330.004247,0.827542
2337.719492,0.773530
2345.434738,0.817624
2353.149984,0.727570
2360.865230,0.582083
2368.580476,0.744443
2376.295722,1.187195
2384.010968,1.604991
2391.726213,1.764203
2399.441459,1.743949
2407.156705,1.716174
2414.871951,1.681295
2422.587197,1.662084
2430.302443,1.639950
2438.017688,1.620967
2445.732934,1.604273
2453.448180,1.579376
2461.163426,1.562541
2468.878672,1.535488
2476.593918,1.520240
2484.309164,1.498051
2492.024409,1.479178
2499.739655,1.460726
2507.454901,1.439538
2515.170147,1.429880
2522.885393,1.416204
2530.600639,1.412602
2538.315885,1.404465
2546.031130,1.399845
2553.746376,1.390774
2561.461622,1.378429
2569.176868,1.368866
2576.892114,1.352908
2584.607360,1.344922
2592.322605,1.332782
2600.037851,1.332268
2607.753097,1.331085
2615.468343,1.333208
2623.183589,1.338282
2630.898835,1.339181
2638.614081,1.344633
2646.329326,1.342508
2654.044572,1.345191
2661.759818,1.343767
2669.475064,1.344618
2677.190310,1.344665
2684.905556,1.344327
2692.620802,1.349749
2700.336047,1.350810
2708.051293,1.358798
2715.766539,1.362431
2723.481785,1.371828
2731.197031,1.379757
2738.912277,1.388510
2746.627522,1.399838
2754.342768,1.407312
2762.058014,1.419093
2769.773260,1.423519
2777.488506,1.431216
2785.203752,1.435208
2792.918998,1.438248
2800.634243,1.441681
2808.349489,1.443244
2816.064735,1.448412
2823.779981,1.448842
2831.495227,1.448226
2839.210473,1.427033
2846.925719,1.393453
2854.640964,1.377968
2862.356210,1.398118
2870.071456,1.428673
2877.786702,1.448257
2885.501948,1.458174
2893.217194,1.441252
2900.932439,1.414557
2908.647685,1.372362
2916.362931,1.316098
2924.078177,1.284075
2931.793423,1.309533
2939.508669,1.369387
2947.223915,1.400613
2954.939160,1.413311
2962.654406,1.438910
2970.369652,1.485899
2978.084898,1.525967
2985.800144,1.546868
2993.515390,1.560019
3001.230635,1.564299
3008.945881,1.567461
3016.661127,1.566303
3024.376373,1.569065
3032.091619,1.567809
3039.806865,1.564706
3047.522111,1.562429
3055.237356,1.554517
3062.952602,1.550722
3070.667848,1.544320
3078.383094,1.541181
3086.098340,1.537744
3093.813586,1.535242
3101.528832,1.534057
3109.244077,1.531475
3116.959323,1.529165
3124.674569,1.524554
3132.389815,1.524092
3140.105061,1.517145
3147.820307,1.509201
3155.535552,1.498963
3163.250798,1.488075
3170.966044,1.478905
3178.681290,1.466681
3186.396536,1.460682
3194.111782,1.452101
3201.827028,1.446584
3209.542273,1.439459
3217.257519,1.432897
3224.972765,1.429102
3232.688011,1.420961
3240.403257,1.415007
3248.118503,1.405418
3255.833749,1.399385
3263.548994,1.390234
3271.264240,1.378633
3278.979486,1.368841
3286.694732,1.356450
3294.409978,1.344162
3302.125224,1.329314
3309.840469,1.317950
3317.555715,1.306612
3325.270961,1.298014
3332.986207,1.289237
3340.701453,1.281588
3348.416699,1.276106
3356.131945,1.267016
3363.847190,1.259841
3371.562436,1.251791
3379.277682,1.243549
3386.992928,1.227933
3394.708174,1.211531
3402.423420,1.197412
3410.138666,1.180516
3417.853911,1.162532
3425.569157,1.144381
3433.284403,1.131510
3440.999649,1.114634
3448.714895,1.106284
3456.430141,1.105271
3464.145386,1.101832
3471.860632,1.098347
3479.575878,1.089577
3487.291124,1.083355
3495.006370,1.073457
3502.721616,1.058210
3510.436862,1.048524
3518.152107,1.035013
3525.867353,1.014883
3533.582599,1.008174
3541.297845,0.992677
3549.013091,0.975402
3556.728337,0.964386
3564.443583,0.930663
3572.158828,0.934743
3579.874074,0.936939
3587.589320,0.896307
3595.304566,0.891229
3603.019812,0.882690
3610.735058,0.847844
3618.450303,0.823465
3626.165549,0.806990
3633.880795,0.831956
3641.596041,0.830874
3649.311287,0.770756
3657.026533,0.801552
3664.741779,0.802455
3672.457024,0.723353
3680.172270,0.734606
3687.887516,0.745051
3695.602762,0.756613
3703.318008,0.755855
3711.033254,0.723905
3718.748500,0.727446
3726.463745,0.686082
3734.178991,0.639501
3741.894237,0.603473
3749.609483,0.604355
3757.324729,0.665533
3765.039975,0.704101
3772.755220,0.714203
3780.470466,0.712904
3788.185712,0.710528
3795.900958,0.659401
3803.616204,0.621688
3811.331450,0.619138
3819.046696,0.601807
3826.761941,0.604668
3834.477187,0.592124
3842.192433,0.583333
3849.907679,0.569333
3857.622925,0.555615
3865.338171,0.569182
3873.053417,0.569714
3880.768662,0.573796
3888.483908,0.569558
3896.199154,0.554147
3903.914400,0.551619
3911.629646,0.571052
3919.344892,0.573926
3927.060137,0.563844
3934.775383,0.571535
3942.490629,0.567578
3950.205875,0.569632
3957.921121,0.573372
3965.636367,0.573611
3973.351613,0.572578
3981.066858,0.567178
3988.782104,0.564546
3996.497350,0.555029
4004.212596,0.548598
4011.927842,0.537128
4019.643088,0.528539
4027.358333,0.522145
4035.073579,0.515697
4042.788825,0.512936
4050.504071,0.508506
4058.219317,0.508962
4065.934563,0.505225
4073.649809,0.504560
4081.365054,0.502306
4089.080300,0.499774
4096.795546,0.497559
4104.510792,0.490805
4112.226038,0.486628
4119.941284,0.478822
4127.656530,0.473389
4135.371775,0.465457
4143.087021,0.460194
4150.802267,0.455830
4158.517513,0.450446
4166.232759,0.448136
4173.948005,0.443508
4181.663250,0.442475
4189.378496,0.439172
4197.093742,0.439006
4204.808988,0.437132
4212.524234,0.433364
4220.239480,0.431582
4227.954726,0.426236
4235.669971,0.422062
4243.385217,0.415524
4251.100463,0.411201
4258.815709,0.405009
4266.530955,0.400161
4274.246201,0.395358
4281.961447,0.388730
4289.676692,0.385502
4297.391938,0.380596
4305.107184,0.379380
4312.822430,0.376491
4320.537676,0.374942
4328.252922,0.373580
4335.968167,0.371010
4343.683413,0.368821
4351.398659,0.362861
4359.113905,0.359022
4366.829151,0.352617
4374.544397,0.347258
4382.259643,0.341029
4389.974888,0.335019
4397.690134,0.330600
4405.405380,0.325234
4413.120626,0.322625
4420.835872,0.318685
4428.551118,0.317316
4436.266364,0.314499
4443.981609,0.312531
4451.696855,0.310261
4459.412101,0.305572
4467.127347,0.302399
4474.842593,0.297015
4482.557839,0.293237
4490.273084,0.287628
4497.988330,0.282872
4505.703576,0.277737
4513.418822,0.272577
4521.134068,0.268612
4528.849314,0.263787
4536.564560,0.261624
4544.279805,0.257252
4551.995051,0.254202
4559.710297,0.250253
4567.425543,0.247717
4575.140789,0.245998
4582.856035,0.242682
4590.571281,0.240729
4598.286526,0.235843
4606.001772,0.233113
4613.717018,0.227997
4621.432264,0.223174
4629.147510,0.219294
4636.862756,0.214447
4644.578001,0.210873
4652.293247,0.205579
4660.008493,0.202869
4667.723739,0.199331
4675.438985,0.197629
4683.154231,0.195090
4690.869477,0.192331
4698.584722,0.191052
4706.299968,0.187297
4714.015214,0.185496
4721.730460,0.182036
4729.445706,0.178771
4737.160952,0.174014
4744.876198,0.170301
4752.591443,0.167069
4760.306689,0.162913
4768.021935,0.160759
4775.737181,0.156794
4783.452427,0.155386
4791.167673,0.152712
4798.882918,0.150710
4806.598164,0.149341
4814.313410,0.147770
4822.028656,0.147511
4829.743902,0.145076
4837.459148,0.143901
4845.174394,0.140857
4852.889639,0.138858
4860.604885,0.136398
4868.320131,0.134288
4876.035377,0.132959
4883.750623,0.130467
4891.465869,0.129175
4899.181115,0.126173
4906.896360,0.125363
4914.611606,0.124063
4922.326852,0.123773
4930.042098,0.123555
4937.757344,0.122514
4945.472590,0.122172
4953.187835,0.120171
4960.903081,0.120531
4968.618327,0.118927
4976.333573,0.118437
4984.048819,0.117943
4991.764065,0.116891
4999.479311,0.115426
5007.194556,0.112851
5014.909802,0.113380
5022.625048,0.112814
5030.340294,0.113874
5038.055540,0.113216
5045.770786,0.112711
5053.486031,0.113172
5061.201277,0.112553
5068.916523,0.113437
5076.631769,0.112756
5084.347015,0.113293
5092.062261,0.111697
5099.777507,0.111404
5107.492752,0.111559
5115.207998,0.110933
5122.923244,0.111131
5130.638490,0.109510
5138.353736,0.110222
5146.068982,0.109476
5153.784228,0.109575
5161.499473,0.109362
5169.214719,0.108872
5176.929965,0.108974
5184.645211,0.107896
5192.360457,0.109284
5200.075703,0.108452
5207.790948,0.108282
5215.506194,0.108362
5223.221440,0.107605
5230.936686,0.107181
5238.651932,0.106349
5246.367178,0.105616
5254.082424,0.104016
5261.797669,0.104479
5269.512915,0.105121
5277.228161,0.106060
5284.943407,0.105386
5292.658653,0.104898
5300.373899,0.105149
5308.089145,0.104498
5315.804390,0.105586
5323.519636,0.104547
5331.234882,0.102683
5338.950128,0.099391
5346.665374,0.098129
5354.380620,0.099429
5362.095865,0.100136
5369.811111,0.100397
5377.526357,0.098737
5385.241603,0.098568
5392.956849,0.097269
5400.672095,0.096790
5408.387341,0.095576
5416.102586,0.094759
5423.817832,0.095124
5431.533078,0.092484
5439.248324,0.092805
5446.963570,0.092513
5454.678816,0.092417
5462.394062,0.091543
5470.109307,0.089981
5477.824553,0.090118
5485.539799,0.088938
5493.255045,0.089100
5500.970291,0.087695
5508.685537,0.086973
5516.400782,0.085609
5524.116028,0.084379
5531.831274,0.084336
5539.546520,0.083036
5547.261766,0.083121
5554.977012,0.081529
5562.692258,0.080940
5570.407503,0.079828
5578.122749,0.078600
5585.837995,0.077893
5593.553241,0.076345
5601.268487,0.075762
5608.983733,0.074159
5616.698979,0.073352
5624.414224,0.071438
5632.129470,0.070951
5639.844716,0.070143
5647.559962,0.068703
5655.275208,0.068588
5662.990454,0.066400
5670.705699,0.065574
5678.420945,0.064006
5686.136191,0.063314
5693.851437,0.062123
5701.566683,0.060539
5709.281929,0.060411
5716.997175,0.058859
5724.712420,0.058198
5732.427666,0.056524
5740.142912,0.055573
5747.858158,0.054153
5755.573404,0.052870
5763.288650,0.051967
5771.003896,0.050367
5778.719141,0.049608
5786.434387,0.047399
5794.149633,0.046740
5801.864879,0.045484
5809.580125,0.044857
5817.295371,0.044289
5825.010616,0.043053
5832.725862,0.042505
5840.441108,0.040196
5848.156354,0.039821
5855.871600,0.038629
5863.586846,0.037712
5871.302092,0.036666
5879.017337,0.035402
5886.732583,0.034854
5894.447829,0.033217
5902.163075,0.032966
5909.878321,0.031056
5917.593567,0.030120
5925.308813,0.029086
5933.024058,0.028171
5940.739304,0.027850
5948.454550,0.026615
5956.169796,0.026357
5963.885042,0.024933
5971.600288,0.025053
5979.315533,0.024048
5987.030779,0.023671
5994.746025,0.023338
6002.461271,0.021727
6010.176517,0.021459
6017.891763,0.020053
6025.607009,0.020109
6033.322254,0.019221
6041.037500,0.018940
6048.752746,0.018032
6056.467992,0.017243
6064.183238,0.017884
6071.898484,0.017247
6079.613729,0.017637
6087.328975,0.016817
6095.044221,0.017038
6102.759467,0.016558
6110.474713,0.016007
6118.189959,0.015430
6125.905205,0.014899
6133.620450,0.016080
6141.335696,0.015688
6149.050942,0.016008
6156.766188,0.015299
6164.481434,0.015762
6172.196680,0.015752
6179.911926,0.015553
6187.627171,0.016411
6195.342417,0.016377
6203.057663,0.016877
6210.772909,0.015906
6218.488155,0.016351
6226.203401,0.016501
6233.918646,0.017350
6241.633892,0.017964
6249.349138,0.017326
6257.064384,0.017690
6264.779630,0.017382
6272.494876,0.018273
6280.210122,0.018245
6287.925367,0.018934
6295.640613,0.019167
6303.355859,0.018978
6311.071105,0.019158
6318.786351,0.018778
6326.501597,0.019632
6334.216843,0.019094
6341.932088,0.019440
6349.647334,0.019695
6357.362580,0.020548
6365.077826,0.021164
6372.793072,0.020727
6380.508318,0.021075
6388.223563,0.020377
6395.938809,0.021031
6403.654055,0.020642
6411.369301,0.020821
6419.084547,0.021200
6426.799793,0.021227
6434.515039,0.021895
6442.230284,0.021297
6449.945530,0.022355
6457.660776,0.022093
6465.376022,0.022136
6473.091268,0.022158
6480.806514,0.021881
6488.521760,0.022727
6496.237005,0.022307
6503.952251,0.022613
6511.667497,0.022239
6519.382743,0.022839
6527.097989,0.022730
6534.813235,0.022095
6542.528480,0.022360
6550.243726,0.022030
6557.958972,0.022363
6565.674218,0.021741
6573.389464,0.022089
6581.104710,0.021853
6588.819956,0.021915
6596.535201,0.022053
6604.250447,0.021817
6611.965693,0.022647
6619.680939,0.021862
6627.396185,0.022376
6635.111431,0.021925
6642.826677,0.021422
6650.541922,0.021493
6658.257168,0.021360
6665.972414,0.021984
6673.687660,0.021120
6681.402906,0.021396
6689.118152,0.020935
6696.833397,0.020800
6704.548643,0.020545
6712.263889,0.019939
6719.979135,0.020273
6727.694381,0.019731
6735.409627,0.020391
6743.124873,0.019971
6750.840118,0.019959
6758.555364,0.020003
6766.270610,0.019557
6773.985856,0.019118
6781.701102,0.018466
6789.416348,0.019006
6797.131594,0.018226
6804.846839,0.018681
6812.562085,0.018474
6820.277331,0.017675
6827.992577,0.017513
6835.707823,0.017252
6843.423069,0.017875
6851.138314,0.017040
6858.853560,0.017163
6866.568806,0.016809
6874.284052,0.016597
6881.999298,0.016381
6889.714544,0.015832
6897.429790,0.016574
6905.145035,0.016078
6912.860281,0.016098
6920.575527,0.015425
6928.290773,0.015105
6936.006019,0.014902
6943.721265,0.014873
6951.436510,0.015287
6959.151756,0.014400
6966.867002,0.014201
6974.582248,0.013270
6982.297494,0.013539
6990.012740,0.013455
6997.727986,0.012987
7005.443231,0.012889
7013.158477,0.012362
7020.873723,0.012855
7028.588969,0.012263
7036.304215,0.012531
7044.019461,0.011926
7051.734707,0.011639
7059.449952,0.011663
7067.165198,0.010847
7074.880444,0.011207
7082.595690,0.010819
7090.310936,0.010880
7098.026182,0.010065
7105.741427,0.010134
7113.456673,0.010012
7121.171919,0.009516
7128.887165,0.009580
7136.602411,0.008466
7144.317657,0.008941
7152.032903,0.008741
7159.748148,0.008636
7167.463394,0.008157
7175.178640,0.008348
7182.893886,0.008672
7190.609132,0.007899
7198.324378,0.008191
7206.039624,0.007260
7213.754869,0.007146
7221.470115,0.006082
7229.185361,0.006215
7236.900607,0.006943
7244.615853,0.006505
7252.331099,0.006697
7260.046344,0.006028
7267.761590,0.006338
7275.476836,0.005634
7283.192082,0.005725
7290.907328,0.005489
7298.622574,0.005161
7306.337820,0.005143
7314.053065,0.004683
7321.768311,0.005061
7329.483557,0.004437
7337.198803,0.004597
7344.914049,0.003773
7352.629295,0.004237
7360.344541,0.004382
7368.059786,0.003979
7375.775032,0.003763
7383.490278,0.003600
7391.205524,0.004048
7398.920770,0.003052
7406.636016,0.003438
7414.351261,0.003124
7422.066507,0.003406
7429.781753,0.003156
7437.496999,0.002793
7445.212245,0.002454
7452.927491,0.001493
7460.642737,0.002213
7468.357982,0.001959
7476.073228,0.002409
7483.788474,0.002244
7491.503720,0.002745
7499.218966,0.002636
7506.934212,0.002374
7514.649458,0.002663
7522.364703,0.002112
7530.079949,0.002507
7537.795195,0.001782
7545.510441,0.002108
7553.225687,0.001646
7560.940933,0.001603
7568.656178,0.001980
7576.371424,0.001923
7584.086670,0.002285
7591.801916,0.001348
7599.517162,0.001219
7607.232408,0.000630
7614.947654,0.001348
7622.662899,0.001312
7630.378145,0.001171
7638.093391,0.001347
7645.808637,0.001293
7653.523883,0.002537
7661.239129,0.002214
7668.954375,0.002182
7676.669620,0.001171
7684.384866,0.001044
7692.100112,0.001258
7699.815358,0.001526
7707.530604,0.002257
7715.245850,0.001661
7722.961095,0.001788
7730.676341,0.001000
7738.391587,0.001672
7746.106833,0.001913
7753.822079,0.001899
7761.537325,0.002009
7769.252571,0.001596
7776.967816,0.002369
7784.683062,0.002118
7792.398308,0.002757
7800.113554,0.002313
7807.828800,0.002013
7815.544046,0.001815
7823.259292,0.001570
7830.974537,0.002017
7838.689783,-0.001240
7846.405029,-0.001919
7854.120275,-0.002303
7861.835521,-0.002774
7869.550767,-0.002326
7877.266012,-0.002098
7884.981258,-0.001974
7892.696504,-0.001392
